108
0
0
0
0
0
0
136
124
0
0
0
0
0
0
136
67
2
0
0
0
0
1
44
16
1
0
0
0
0
0
10
136
14
0
0
0
0
0
60
136
14
0
0
0
0
0
57
114
3
0
0
0
0
8
48
26
0
0
0
0
0
5
32
136
113
0
0
0
0
0
0
136
81
0
0
0
0
0
5
86
29
0
0
0
0
2
23
53
15
0
0
0
0
0
8
116
126
0
0
0
0
0
0
112
104
0
0
0
0
0
0
40
61
0
0
0
0
0
0
23
19
0
0
0
0
0
0
91
44
0
0
0
0
13
65
162
3
0
0
0
0
1
143
80
0
0
0
0
0
0
29
2
0
0
0
0
0
0
1
90
59
1
0
0
0
12
47
162
41
0
0
0
0
1
43
157
10
0
0
0
0
0
6
5
0
0
0
0
0
0
0
99
77
1
0
0
1
2
10
162
30
0
0
0
0
1
42
161
10
0
0
0
0
0
5
3
1
0
0
0
0
0
0
65
26
0
0
0
5
33
20
162
107
0
0
0
0
1
8
87
27
0
0
0
0
0
0
1
0
0
0
0
0
0
0
1
14
22
42
18
20
8
0
29
57
89
68
7
0
0
0
149
149
48
3
0
0
0
0
29
33
98
123
0
0
0
0
0
83
71
5
6
3
1
0
45
26
69
27
61
26
0
6
149
22
5
2
5
4
0
21
79
4
7
6
0
0
0
3
5
25
27
3
24
47
11
1
44
21
3
3
83
66
1
4
149
23
0
0
3
1
0
52
87
0
0
0
0
0
0
21
3
1
1
0
4
59
38
4
12
11
2
0
9
48
14
8
107
2
0
0
1
22
26
149
79
0
0
0
0
0
0
107
13
5
6
3
4
19
8
20
101
19
0
0
0
2
8
44
133
18
0
0
0
0
2
95
126
0
0
0
0
0
0
105
12
7
24
57
8
8
2
4
133
33
5
5
1
2
3
19
130
3
0
0
0
16
17
53
133
0
0
0
0
0
0
68
7
3
13
29
21
48
19
7
78
15
2
4
4
34
37
27
70
0
0
0
0
59
94
106
133
0
0
0
0
0
4
133
7
14
8
0
1
56
33
25
8
12
16
4
4
34
29
33
36
41
27
6
5
35
22
33
133
48
1
0
0
0
1
111
20
27
22
101
18
2
0
0
0
8
44
114
43
3
0
1
9
86
114
27
6
0
0
3
1
14
92
42
11
0
0
0
34
9
2
10
60
49
3
19
10
3
6
23
114
98
13
13
97
26
12
11
23
17
14
62
7
3
5
36
72
9
3
8
24
0
0
1
58
61
15
70
25
12
1
3
114
94
13
8
114
32
1
5
10
14
43
38
8
2
1
27
39
83
40
7
7
0
5
79
38
93
27
20
3
1
0
2
18
93
114
22
11
1
0
0
0
24
114
38
0
0
0
0
0
114
114
9
4
112
103
2
0
0
0
0
9
109
112
11
4
0
0
1
104
112
30
9
0
0
1
15
17
18
31
91
2
2
27
29
40
112
63
11
7
0
0
7
17
27
53
70
107
5
0
8
112
24
5
7
13
3
0
38
83
15
18
67
10
0
0
9
41
20
5
8
7
0
10
71
23
11
17
108
70
8
4
25
112
34
17
29
12
12
21
42
69
4
0
3
15
7
40
84
15
1
4
7
5
14
16
23
13
0
1
10
16
79
68
37
6
0
1
4
12
108
76
41
7
0
0
0
0
2
79
112
2
0
0
4
50
14
0
2
46
3
0
0
1
1
0
44
132
2
0
0
0
0
0
88
132
0
0
0
0
0
0
70
1
2
1
31
72
2
0
0
53
33
1
2
1
0
2
10
132
18
0
0
0
0
4
61
132
0
0
0
0
0
0
132
0
1
1
7
49
54
17
0
11
5
1
1
0
26
97
25
26
0
0
0
0
0
79
132
107
0
0
0
0
0
2
132
0
0
0
0
9
103
60
0
0
0
0
0
0
42
115
6
1
0
0
0
0
6
89
119
19
0
0
0
0
0
20
132
0
0
0
0
0
45
121
16
0
0
2
1
7
86
30
1
1
12
7
0
1
18
10
0
22
60
0
0
0
0
3
2
7
0
0
0
0
1
31
133
28
14
21
3
3
4
5
44
6
55
75
0
0
0
0
0
20
140
15
0
0
0
0
0
50
0
0
0
0
0
1
112
140
28
1
0
0
0
0
58
54
140
37
0
0
0
0
1
1
140
44
0
0
0
0
0
117
11
0
0
0
0
0
34
140
113
0
0
0
0
0
2
83
140
1
0
0
0
0
0
7
140
21
0
0
0
0
0
15
0
0
0
0
8
55
69
25
4
1
4
9
11
30
52
1
1
1
26
85
63
7
2
20
9
1
5
12
21
23
43
50
12
10
4
0
9
22
76
124
34
14
18
5
2
5
37
17
11
29
124
85
4
0
1
29
79
57
52
13
2
1
3
20
48
124
41
1
0
0
5
124
86
76
7
3
0
0
18
37
49
97
73
34
1
0
4
5
55
124
33
1
0
0
0
5
123
82
28
7
0
0
0
9
121
124
15
0
0
0
0
10
97
80
5
1
0
0
1
25
39
84
17
3
0
0
1
7
0
0
0
0
1
49
24
53
1
0
0
0
1
22
45
21
2
1
5
7
5
32
35
7
57
17
17
15
3
3
2
17
12
13
13
0
0
3
2
67
25
2
0
0
0
3
16
39
72
11
0
0
0
7
21
49
154
9
0
0
0
0
2
2
5
6
6
2
8
33
4
17
6
1
0
0
10
80
45
154
86
2
0
0
0
21
119
154
154
0
0
0
0
0
64
0
0
11
31
5
7
9
0
7
2
37
20
2
10
22
9
149
4
7
5
0
0
4
154
154
6
0
0
0
0
0
154
34
31
5
2
1
1
0
1
114
88
12
0
0
0
0
17
144
94
2
0
0
0
0
25
101
6
0
0
0
0
0
6
21
55
24
0
0
0
0
1
107
20
10
3
0
0
3
74
144
11
0
0
0
0
0
81
136
8
0
0
0
0
0
5
9
15
16
3
2
9
8
23
75
72
25
6
0
0
0
26
144
113
2
0
0
0
0
7
126
14
0
0
0
0
0
0
17
11
5
0
0
5
6
26
144
69
1
0
0
0
0
20
144
119
0
0
0
0
0
0
58
21
0
0
0
0
0
0
4
13
29
11
4
21
30
40
0
5
29
51
106
68
8
0
19
82
33
27
75
16
0
0
38
77
14
5
0
0
0
3
41
1
0
0
0
22
64
113
119
82
101
46
18
32
23
16
17
57
119
119
33
9
1
1
16
25
49
36
4
0
0
3
103
58
25
15
0
2
12
35
119
25
16
11
4
30
56
88
36
9
27
50
39
95
78
45
16
13
31
60
41
9
5
12
93
53
36
40
8
1
0
20
26
5
14
51
36
24
51
28
50
0
0
1
10
31
63
96
29
4
0
3
14
40
39
44
25
8
0
0
2
7
15
18
61
46
6
1
1
5
10
15
14
36
21
28
21
51
15
6
0
0
20
33
27
100
15
0
33
8
15
0
0
2
84
90
119
87
26
10
1
5
26
57
19
27
39
119
63
74
28
8
1
27
22
62
58
56
6
0
36
81
119
9
0
0
6
13
119
33
38
28
7
27
93
85
15
5
3
28
36
119
119
21
63
49
7
13
18
45
46
21
51
32
27
17
3
3
1
31
3
1
14
63
69
52
10
7
5
1
0
16
46
98
57
8
26
4
0
0
1
24
119
48
1
0
0
0
9
131
82
1
131
13
0
0
0
27
104
85
90
6
0
0
1
2
4
30
0
0
0
0
2
25
15
0
13
2
0
0
45
77
3
1
131
55
0
0
5
11
13
21
102
17
0
0
0
131
96
11
0
0
0
0
0
131
131
0
10
0
0
0
33
41
8
7
131
3
0
0
0
39
69
106
15
0
0
0
1
131
131
19
1
0
0
0
2
96
55
0
0
0
0
0
13
14
6
3
1
0
0
0
0
6
28
25
0
0
0
0
1
27
20
2
1
0
0
0
2
6
1
1
2
9
2
0
0
0
0
0
11
19
23
2
0
0
0
5
26
2
10
4
0
0
11
60
64
0
0
0
0
0
13
147
34
15
1
0
0
0
0
4
129
90
107
34
0
0
0
12
15
12
125
147
0
0
1
9
116
31
23
41
0
0
2
40
40
0
0
0
0
0
0
15
147
16
13
8
0
0
0
32
90
12
81
147
0
0
0
2
35
80
143
105
0
0
0
0
32
1
2
5
0
0
0
2
147
6
0
0
0
0
0
5
95
2
5
6
0
0
0
2
1
6
23
8
0
0
0
2
14
0
0
0
3
26
120
30
23
15
0
1
7
39
78
28
13
40
34
59
33
5
9
4
0
0
7
64
118
14
0
0
29
1
0
0
0
7
120
51
120
57
0
0
0
7
46
61
46
74
8
15
40
66
10
9
0
0
2
75
120
38
0
0
94
25
0
0
0
3
17
16
120
24
0
0
0
7
74
109
14
2
0
0
9
70
120
91
0
0
0
29
49
39
14
11
58
5
0
0
0
2
16
36
16
3
0
0
0
32
96
41
0
0
0
0
0
2
99
120
0
0
0
4
3
24
110
38
38
25
2
0
0
0
7
72
57
45
19
11
0
0
0
30
5
30
74
122
8
0
0
1
0
5
74
101
34
15
0
0
93
15
3
3
3
2
8
71
122
98
6
0
0
2
2
38
19
86
57
35
52
80
11
4
0
0
20
63
122
103
0
0
61
97
20
1
0
0
0
1
122
47
0
0
0
7
18
83
28
14
25
24
32
108
33
35
0
15
120
83
62
37
0
0
13
54
56
22
11
2
0
0
79
26
1
0
7
7
3
22
103
21
25
22
5
2
3
24
14
38
55
29
14
1
0
0
79
6
0
0
0
7
7
8
161
6
0
0
0
0
0
32
161
0
0
0
0
0
0
39
41
0
0
0
0
0
0
1
109
31
0
1
1
1
0
0
161
17
0
0
0
0
0
35
161
6
0
0
0
0
0
26
54
3
0
0
0
0
0
0
92
59
1
0
0
0
0
0
161
37
0
0
0
0
0
6
161
38
0
0
0
0
0
3
47
3
0
0
0
0
0
1
52
70
3
0
0
0
0
0
154
28
3
1
0
0
0
1
161
24
0
0
0
0
0
0
25
5
0
0
0
0
0
0
1
1
1
0
0
39
42
3
75
11
1
0
0
6
16
25
129
60
0
0
0
0
4
30
22
38
23
8
0
0
30
23
6
10
11
23
2
5
4
1
80
9
4
3
7
2
1
45
129
76
27
0
0
0
7
82
19
64
108
5
0
0
40
27
2
2
18
71
10
2
2
3
86
17
7
28
10
3
1
7
129
72
23
0
0
0
0
129
102
76
129
13
6
4
5
105
2
7
15
17
7
2
6
10
27
12
27
33
15
2
0
5
129
5
1
1
1
0
10
116
72
2
1
1
5
14
112
129
154
10
0
0
0
0
0
18
167
3
0
0
0
0
0
37
130
1
0
0
0
0
0
9
3
0
0
0
0
0
0
0
140
38
0
0
0
0
0
5
167
13
0
0
0
0
0
12
164
10
0
0
0
0
0
3
6
0
0
0
0
0
0
0
79
37
4
2
0
0
0
2
167
10
0
0
0
0
0
17
167
4
0
0
0
0
0
4
4
0
0
0
0
0
0
0
65
13
0
0
0
0
0
10
167
50
0
0
0
0
0
0
118
14
0
0
0
0
0
0
2
0
0
0
0
0
0
0
20
0
0
0
0
5
80
123
20
7
7
10
2
7
28
85
4
7
6
11
7
5
33
18
11
3
0
3
22
11
33
21
94
5
5
11
2
0
1
67
124
102
48
15
1
1
4
50
12
24
78
124
26
16
6
10
17
11
19
30
25
8
3
5
77
29
49
65
2
0
0
8
124
41
10
6
2
12
25
79
16
9
19
50
46
124
50
25
36
35
27
12
8
29
12
25
13
26
124
55
2
0
0
0
79
118
99
8
1
2
2
10
5
45
124
66
8
16
4
2
9
60
107
17
0
2
0
3
95
36
0
0
0
0
0
0
166
15
0
0
0
0
0
17
166
1
0
0
0
0
0
19
41
1
0
0
0
0
0
3
93
76
5
0
0
0
0
0
159
29
4
2
0
0
0
14
166
3
0
0
0
0
0
40
60
1
0
0
0
0
0
4
70
34
1
0
0
0
0
10
147
23
0
1
0
0
0
16
166
34
0
0
0
0
0
4
64
4
0
0
0
0
0
1
39
19
0
0
0
0
0
7
140
46
0
0
0
0
0
3
166
59
0
0
0
0
0
0
36
6
0
0
0
0
0
0
4
36
8
0
0
14
50
10
38
31
15
2
1
3
19
25
118
64
3
9
8
5
0
42
14
15
3
44
118
33
0
2
44
63
8
0
3
11
4
18
51
23
12
3
18
48
10
26
118
55
3
5
13
34
18
94
8
9
4
29
118
91
9
7
16
0
0
0
2
13
57
91
65
25
0
0
14
42
53
53
118
63
4
4
3
33
118
60
5
5
5
22
93
118
91
6
0
0
0
0
2
6
61
37
10
0
1
1
0
9
111
77
10
1
0
0
0
35
118
71
12
5
0
0
6
67
88
10
4
0
6
20
6
15
12
10
45
10
5
1
0
0
6
33
13
22
40
34
3
0
0
8
0
5
48
88
22
1
0
0
4
15
63
89
1
0
0
1
45
5
12
75
1
0
0
50
121
85
35
7
0
0
0
34
35
43
94
121
76
5
0
1
1
52
74
121
24
0
0
0
21
9
15
121
50
4
0
5
121
26
5
8
5
2
0
121
48
4
0
58
81
8
5
84
0
17
39
68
84
14
0
0
0
0
0
42
121
73
10
2
12
0
0
1
8
19
55
121
8
0
0
5
11
8
39
121
86
6
1
1
0
0
0
22
179
1
0
0
0
0
0
60
87
0
0
0
0
0
0
15
1
0
0
0
0
0
0
0
119
13
0
0
0
0
0
21
179
10
0
0
0
0
0
18
148
2
0
0
0
0
0
8
2
0
0
0
0
0
0
0
138
25
0
0
0
0
0
9
179
23
0
0
0
0
0
4
152
2
0
0
0
0
0
3
2
0
0
0
0
0
0
0
137
31
0
0
0
0
0
4
179
29
0
0
0
0
0
0
108
8
0
0
0
0
0
0
1
0
0
0
0
0
0
0
0
0
1
4
3
0
0
1
41
5
0
0
0
0
0
17
136
22
0
0
0
0
0
136
106
5
0
0
0
0
27
136
0
1
3
11
11
1
0
0
69
17
0
1
0
0
0
4
136
66
0
0
0
0
4
85
136
16
0
0
0
0
13
136
0
6
15
21
3
3
0
0
61
16
5
12
1
1
0
6
128
30
1
0
0
0
14
113
136
47
0
0
0
0
19
136
0
2
1
3
8
19
3
0
29
1
0
3
2
9
2
17
99
21
0
0
0
0
3
62
116
43
0
0
0
0
17
107
176
36
0
5
39
8
0
11
148
10
0
0
0
0
0
3
60
3
0
0
0
0
0
5
63
1
0
0
0
0
0
3
176
39
0
0
40
18
1
11
167
10
0
0
0
0
0
5
75
0
0
0
0
0
0
10
87
1
0
0
0
0
0
2
176
65
0
0
8
22
4
11
130
16
0
0
0
0
0
1
82
3
0
0
0
0
0
0
90
1
0
0
0
0
0
0
176
93
0
0
0
3
0
3
64
12
0
0
0
0
0
0
64
0
0
0
0
0
0
1
69
0
0
0
0
0
0
3
0
2
1
0
5
134
64
0
2
61
51
7
19
134
63
0
23
134
67
2
6
73
37
5
5
99
54
2
31
70
2
1
9
54
56
18
14
131
66
4
16
89
54
13
10
25
16
21
80
58
15
0
13
8
5
51
8
3
0
0
111
73
3
4
36
63
23
29
42
0
1
1
23
12
6
31
53
1
3
4
122
26
0
1
26
5
1
14
9
1
0
1
134
73
6
1
44
0
0
13
36
0
0
17
13
1
1
36
48
1
1
3
46
2
0
1
18
23
28
35
2
2
4
13
134
66
9
3
154
45
6
42
21
3
1
17
154
7
0
0
0
0
0
20
69
0
0
0
0
0
0
25
49
0
0
0
0
0
0
17
154
93
9
50
50
1
0
0
154
32
0
0
0
0
0
8
90
0
0
0
0
0
0
21
70
0
0
0
0
0
0
20
154
52
3
10
24
20
4
34
154
23
0
0
0
0
0
11
81
1
0
0
0
0
0
12
74
0
0
0
0
0
0
18
154
6
0
3
29
12
2
32
154
1
0
0
0
0
0
25
54
0
0
0
0
0
0
15
66
0
0
0
0
0
0
8
0
0
0
0
28
115
6
0
1
4
7
0
17
123
109
6
1
3
5
2
3
14
123
97
0
0
0
0
0
1
78
123
7
0
0
0
62
123
14
4
69
33
19
7
18
74
13
11
7
13
20
84
39
7
18
15
10
0
0
19
20
5
40
123
31
5
1
5
123
82
6
4
123
17
1
2
2
5
3
39
31
6
2
48
102
11
0
11
18
2
0
14
89
21
3
28
12
16
3
11
123
11
0
0
106
35
1
0
0
0
0
6
42
5
0
10
115
8
1
5
3
3
3
19
72
6
0
2
14
8
3
0
1
23
47
10
40
17
1
1
10
52
15
8
152
72
0
0
1
2
0
14
32
11
3
3
0
0
0
0
6
5
6
14
29
25
24
3
56
3
0
0
6
63
64
51
152
12
0
0
0
2
10
112
48
1
0
0
0
0
0
6
12
3
1
6
118
62
1
0
128
32
0
0
34
71
16
15
152
115
0
0
0
0
2
16
41
9
0
0
0
0
0
0
4
1
1
17
129
30
1
3
152
87
6
3
51
23
4
7
152
110
0
0
0
0
0
1
11
4
0
0
0
0
0
0
7
5
0
0
31
132
28
1
153
43
0
0
10
21
6
24
153
8
0
0
0
0
0
52
28
0
0
0
0
0
0
6
29
18
11
2
5
48
14
6
153
52
0
0
0
1
1
64
153
14
0
0
0
0
0
87
60
1
0
0
0
0
0
10
37
25
4
16
12
4
7
7
153
91
0
0
0
0
0
18
153
55
0
0
0
0
0
8
61
9
0
0
0
0
0
0
27
37
5
10
6
3
11
13
127
54
0
0
0
0
9
28
153
78
0
0
0
0
0
1
29
9
0
0
0
0
0
0
6
10
1
1
91
119
0
0
60
9
4
1
33
64
3
18
113
3
0
0
0
0
8
120
120
0
0
0
0
0
0
120
1
1
1
22
120
61
2
1
20
8
7
24
18
14
8
19
120
12
0
1
0
1
4
58
120
3
0
0
0
0
0
117
0
0
7
46
67
15
0
0
14
9
21
74
15
18
5
3
120
23
4
6
1
4
27
32
120
0
0
0
0
1
20
103
0
0
1
5
15
88
19
0
5
7
4
5
7
78
44
18
12
8
9
2
2
26
53
34
120
22
4
0
0
8
24
110
79
46
1
2
0
0
1
6
158
27
0
0
0
0
0
21
158
12
0
0
0
0
0
8
6
0
0
0
0
0
0
0
46
16
0
0
0
5
52
51
158
46
0
0
0
0
13
62
158
41
0
0
0
0
0
3
4
0
0
0
0
0
0
0
34
35
35
9
2
11
33
25
158
87
6
0
0
0
5
64
158
15
0
0
0
0
0
14
3
0
0
0
0
0
0
0
13
140
56
3
0
0
0
0
109
158
13
0
0
0
0
0
66
50
0
0
0
0
0
0
1
0
0
0
0
0
0
0
47
22
4
0
7
44
13
10
5
0
0
0
7
89
74
62
80
6
0
0
0
0
67
121
120
7
0
0
0
0
11
78
1
5
7
46
64
21
2
0
35
4
1
19
102
42
13
25
121
13
0
0
4
5
9
60
66
4
0
0
0
4
37
84
0
0
2
49
121
45
1
0
34
47
42
21
85
26
1
3
121
55
24
6
3
13
27
29
12
0
0
0
0
51
103
34
4
4
37
121
121
27
1
1
79
90
69
21
10
12
2
5
13
31
41
107
16
12
15
4
8
5
21
37
8
21
36
6
39
14
1
0
0
9
119
119
98
20
1
0
0
39
119
112
32
27
20
1
0
4
38
114
2
5
26
24
8
40
43
30
91
57
9
5
0
0
1
12
119
96
18
4
0
0
2
27
24
33
80
22
2
2
29
57
3
6
12
13
62
70
48
21
63
44
72
10
0
0
0
12
119
86
33
0
0
0
7
71
22
12
35
8
6
13
61
31
0
1
5
16
119
61
15
2
39
46
45
3
0
0
7
82
26
86
52
1
0
0
23
76
2
7
33
16
19
18
20
11
0
0
1
12
83
62
9
0
0
0
0
57
132
96
109
7
20
3
0
0
1
68
132
26
64
4
0
0
2
45
48
86
27
12
0
0
17
62
39
38
6
0
0
16
132
132
29
14
118
6
0
0
2
9
20
40
39
4
0
0
0
65
26
12
7
1
1
2
7
32
55
44
14
37
13
17
24
72
14
4
83
86
7
2
16
20
5
11
32
7
1
1
21
71
17
13
20
10
12
11
17
13
5
5
11
19
33
132
14
1
6
7
14
73
65
11
17
23
35
25
22
112
132
21
22
23
4
3
14
44
77
48
1
0
0
0
9
3
0
0
8
42
90
122
42
51
0
0
3
14
53
112
15
20
1
3
27
50
35
14
8
22
22
40
13
6
0
0
22
0
0
0
1
18
44
122
25
4
0
0
0
2
122
122
122
21
0
0
1
16
88
111
31
24
2
2
12
87
35
5
21
50
9
0
0
0
7
26
88
80
4
0
0
0
35
51
122
41
0
0
0
61
109
60
14
5
0
0
0
114
122
34
4
20
3
0
0
0
26
12
31
16
1
0
0
0
43
48
19
27
18
0
0
29
81
27
19
84
10
0
0
17
32
19
3
8
43
38
0
0
0
0
74
81
12
6
0
0
2
12
129
121
7
1
0
0
1
17
33
33
46
18
0
0
13
54
29
13
27
26
0
0
0
6
101
45
81
22
0
0
0
13
129
86
18
0
0
0
3
69
46
20
42
14
0
3
46
37
74
38
32
9
1
0
0
21
75
109
129
6
0
0
4
88
68
129
122
2
0
0
10
57
10
15
52
16
7
4
25
15
18
11
28
45
7
0
1
18
53
16
25
23
1
0
10
129
44
14
9
1
0
0
38
129
0
0
7
8
11
34
43
43
0
0
0
0
77
133
45
0
0
0
0
0
80
133
66
0
2
12
7
0
8
49
65
10
8
26
20
7
1
2
39
28
0
0
5
24
133
133
32
0
4
2
9
30
18
70
85
11
88
52
16
1
1
14
17
43
49
101
53
12
0
0
0
5
0
0
4
34
85
75
12
0
7
16
66
60
14
11
15
21
93
123
68
4
0
0
2
21
89
99
14
4
0
0
5
11
0
0
1
1
5
65
66
6
20
12
5
0
0
26
59
66
126
44
8
0
0
0
10
63
57
26
17
2
0
1
8
9
10
9
4
2
43
47
4
7
81
9
0
0
5
10
28
71
32
18
0
0
0
4
44
131
12
5
0
1
16
16
28
25
3
0
13
80
68
10
0
2
22
2
1
17
31
27
76
40
72
7
0
0
0
11
77
139
15
0
0
0
0
28
103
88
0
0
29
139
139
6
0
0
7
38
30
42
86
15
4
2
72
55
18
7
13
34
11
13
10
0
0
4
25
96
47
33
0
0
26
139
79
1
0
0
2
30
111
139
15
1
0
0
1
16
32
68
39
7
0
0
9
4
3
28
80
14
2
4
31
26
6
0
0
0
3
4
111
15
0
0
0
0
8
62
160
3
0
0
0
0
0
60
60
0
0
0
0
0
0
12
4
4
4
1
3
24
42
15
97
15
1
0
0
4
37
77
160
12
0
0
0
0
0
106
105
1
0
0
0
0
0
15
12
25
17
20
7
8
7
6
104
130
6
0
0
0
2
9
160
93
0
0
0
0
0
27
115
2
0
0
0
0
0
16
15
20
7
8
11
10
0
0
101
34
1
0
0
0
0
32
160
10
0
0
0
0
0
108
105
0
0
0
0
0
0
30
5
65
68
14
4
0
0
0
15
51
67
46
20
2
0
0
27
77
54
70
8
0
0
0
22
92
40
60
8
0
0
0
36
73
21
13
5
1
3
3
57
32
16
76
85
6
0
6
122
74
74
61
7
1
0
34
48
88
122
101
0
0
0
6
107
92
9
12
3
0
6
12
23
50
35
122
63
8
10
8
122
101
23
17
4
0
1
55
97
10
36
44
7
2
4
63
52
19
0
0
0
12
32
31
15
6
9
12
8
20
38
32
73
12
6
3
1
3
14
70
48
0
0
0
2
25
68
60
23
5
2
6
28
44
16
34
51
4
1
0
0
1
75
121
30
0
0
0
0
12
121
111
10
0
0
0
0
6
121
121
8
56
105
71
30
6
1
5
33
43
49
74
11
0
8
42
121
14
3
12
13
11
9
52
7
1
0
3
27
55
63
37
2
22
121
92
13
2
0
0
8
17
70
121
68
12
0
0
73
28
17
34
40
27
4
10
2
0
0
11
102
87
13
2
18
5
8
21
75
31
2
12
0
0
4
23
113
63
10
2
3
5
13
22
45
11
5
13
0
2
16
44
74
7
0
0
2
31
60
75
36
0
0
0
22
113
45
2
1
1
1
2
21
48
9
4
10
3
5
12
12
26
34
28
14
22
3
7
4
24
43
65
40
9
1
0
14
38
38
4
18
109
16
7
104
55
10
1
5
26
18
30
35
120
52
3
0
0
0
10
0
0
15
120
99
33
0
0
26
3
1
28
87
79
7
7
120
13
0
0
4
9
55
108
75
20
2
0
0
3
23
120
0
0
15
120
120
6
0
0
1
0
3
59
120
42
6
2
40
25
12
5
18
18
56
50
71
18
0
0
0
7
28
109
9
7
7
2
0
0
0
0
175
6
0
0
0
0
0
33
175
3
1
0
0
0
0
51
12
2
4
9
0
0
0
1
3
8
28
8
0
0
0
0
175
26
6
0
0
0
0
41
175
12
0
0
0
0
0
91
39
5
6
15
0
0
0
3
0
16
40
15
0
0
0
0
134
99
17
0
0
0
0
3
175
77
0
0
0
0
0
12
49
12
7
11
0
0
0
1
1
11
32
4
0
2
6
3
112
16
11
3
1
2
3
15
175
7
0
0
0
0
1
56
41
1
1
3
0
0
8
19
0
2
4
3
0
0
0
0
26
50
1
0
0
0
0
0
125
180
0
0
0
0
0
0
65
148
0
0
0
0
0
0
1
2
5
8
0
0
0
0
148
33
1
0
0
0
0
3
180
114
0
0
0
0
0
10
50
39
3
4
0
0
0
0
0
3
17
10
0
0
0
0
141
19
5
0
0
0
0
6
180
4
0
0
0
0
0
49
74
5
4
9
0
0
0
6
0
2
28
15
0
0
0
0
57
33
17
3
0
0
0
5
180
38
0
0
0
0
0
39
84
11
3
8
0
0
0
5
16
46
9
0
3
2
0
1
62
32
1
0
0
0
0
45
153
11
0
0
0
0
0
92
93
0
0
0
0
0
0
28
2
22
13
0
2
13
32
7
82
14
0
0
0
4
9
50
153
16
0
0
0
0
0
23
153
3
0
0
0
0
0
9
7
0
0
0
0
20
61
32
147
25
0
0
0
0
8
46
153
36
0
0
0
0
0
12
153
1
0
0
0
0
0
22
33
3
0
0
1
23
17
16
153
7
0
0
0
0
1
58
153
15
0
0
0
0
0
48
125
4
0
0
0
0
0
18
39
9
6
2
0
2
12
43
13
7
30
43
34
12
3
13
22
46
36
23
14
5
0
2
33
37
25
7
7
0
1
20
35
2
5
6
17
12
25
88
118
52
57
5
16
9
15
72
23
121
128
2
4
1
2
7
10
61
128
25
16
14
0
3
57
35
15
84
86
13
11
18
128
71
6
0
0
0
13
58
99
71
28
2
1
2
23
79
28
19
41
30
67
93
12
28
10
40
64
128
50
0
0
0
79
128
51
4
1
1
0
4
50
82
9
9
12
7
12
15
35
73
39
19
13
5
4
9
0
0
0
0
3
127
86
1
66
2
0
0
0
32
127
92
48
1
0
0
1
3
7
36
0
0
0
0
2
16
13
0
12
1
0
0
60
127
16
2
127
43
0
0
2
20
30
42
100
12
0
0
0
106
102
17
0
0
0
0
0
127
127
0
11
0
0
0
78
58
6
11
117
5
0
0
0
34
80
104
12
0
0
0
0
127
127
16
3
0
0
0
0
99
78
0
0
0
0
0
30
31
5
3
1
0
0
0
0
7
32
24
0
0
0
0
0
29
21
1
5
1
0
0
0
4
1
2
2
9
1
0
0
0
0
1
13
21
21
1
0
0
3
31
19
2
11
4
0
0
28
133
87
0
0
0
0
0
8
140
36
15
0
0
0
0
0
5
122
92
96
26
0
0
0
10
23
20
140
140
0
0
0
14
140
64
35
19
0
0
0
42
40
0
1
1
0
0
0
14
140
16
12
6
0
0
0
41
91
17
111
112
0
0
0
4
33
88
97
28
0
0
0
0
23
1
4
6
0
0
0
2
140
2
0
0
0
0
0
19
108
1
3
1
0
0
0
9
1
2
5
0
0
0
0
5
3
0
0
0
1
43
90
29
9
0
0
0
0
13
141
101
18
3
1
0
1
11
66
68
1
1
3
2
2
3
53
10
6
13
13
4
4
20
18
14
52
11
29
16
0
2
8
42
141
52
20
8
1
2
2
47
11
15
27
50
19
16
3
4
7
101
43
1
0
0
0
2
21
54
113
46
0
0
0
0
141
64
45
11
1
7
7
28
15
17
44
23
19
45
10
11
0
108
141
0
0
0
0
0
0
68
141
12
0
0
0
0
9
85
141
7
0
0
0
0
1
39
141
24
0
0
0
0
2
3
0
0
1
119
115
1
87
30
1
0
0
30
28
16
119
26
19
1
0
0
34
79
5
11
56
11
0
0
77
55
25
26
4
1
5
11
5
2
114
119
19
3
1
1
1
10
23
32
29
23
37
23
37
35
9
0
0
1
8
14
105
65
26
20
16
8
2
0
0
2
119
31
11
2
3
10
7
49
14
5
8
19
86
78
10
16
27
0
0
6
26
22
11
53
3
116
119
1
0
0
0
0
19
119
119
10
0
0
1
7
2
14
119
119
53
4
1
2
2
0
2
65
50
2
6
22
72
0
0
0
0
20
23
20
172
8
0
0
0
0
1
50
78
11
0
0
0
0
0
11
16
17
0
0
0
0
0
0
85
8
0
0
0
2
1
11
172
10
0
0
0
0
0
65
160
10
0
0
0
0
0
13
29
13
0
0
0
0
0
0
88
11
0
0
0
0
1
8
172
46
0
0
0
0
0
6
172
16
0
0
0
0
0
0
32
6
0
0
0
0
0
0
88
59
0
0
1
0
0
1
172
159
0
0
0
0
0
0
89
28
0
0
0
0
0
0
26
3
0
0
0
0
0
0
159
35
0
0
3
32
9
10
108
19
0
0
0
0
0
0
69
3
0
0
0
0
0
0
43
3
0
0
0
0
0
0
159
55
0
0
0
11
4
25
98
14
0
0
0
0
0
3
88
3
0
0
0
0
0
0
56
2
0
0
0
0
0
0
159
2
0
0
0
4
4
159
104
0
0
0
0
0
0
39
88
3
0
0
0
0
0
2
52
1
0
0
0
0
0
2
159
0
0
0
0
3
9
159
98
0
0
0
0
0
0
159
62
0
0
0
0
0
0
26
37
0
0
0
0
0
0
9
26
21
0
1
0
0
0
0
127
107
0
0
0
0
0
11
127
43
0
0
0
0
0
70
30
0
0
0
0
0
2
91
51
32
1
3
1
0
0
1
127
41
0
0
0
0
0
92
127
29
0
0
0
0
0
127
49
4
0
0
2
7
22
45
80
8
0
0
0
0
0
9
127
87
0
0
0
0
0
36
127
111
0
0
0
0
0
60
28
16
5
19
17
11
15
13
30
2
2
0
0
0
0
33
99
7
1
0
0
0
0
113
127
3
0
0
0
0
16
127
10
1
1
2
1
12
70
40
14
9
0
0
1
0
0
1
142
36
0
0
0
0
0
14
142
5
0
0
0
0
0
72
6
0
0
0
0
0
0
21
39
44
0
1
0
0
0
0
142
142
0
0
0
0
0
15
142
42
0
0
0
0
0
101
23
0
0
0
0
0
1
89
64
44
0
1
0
0
0
3
142
59
0
0
0
0
0
95
142
31
0
0
0
1
2
76
23
1
0
0
1
5
43
56
75
17
0
0
0
0
0
12
140
97
0
0
0
0
0
37
109
65
1
4
5
2
5
29
2
2
10
18
14
10
28
6
54
128
27
16
82
12
0
3
126
128
43
1
0
2
1
37
17
46
85
27
6
30
18
18
33
78
47
2
0
1
4
13
15
103
64
34
26
4
0
2
128
49
9
13
12
6
1
38
64
9
1
14
70
55
19
34
128
25
0
0
1
2
5
48
15
26
8
48
63
0
0
0
75
12
1
14
21
18
20
66
55
7
1
9
77
89
32
51
128
37
0
1
2
4
6
41
8
1
0
48
36
0
2
11
8
1
1
48
57
15
17
28
76
40
6
17
24
7
11
32
128
90
2
2
1
0
0
1
148
109
7
30
20
2
0
0
148
29
0
0
0
0
0
5
107
0
0
0
0
0
0
11
23
0
0
0
0
0
0
2
148
53
1
2
9
10
2
9
148
18
0
0
0
0
0
4
143
0
0
0
0
0
0
7
46
0
0
0
0
0
0
3
148
25
0
1
18
7
1
15
148
9
0
0
0
0
0
6
142
10
0
0
0
0
0
0
47
6
0
0
0
0
0
0
148
50
0
1
16
4
0
1
118
13
0
0
0
0
0
0
107
11
0
0
0
0
0
0
38
5
0
0
0
0
0
0
120
31
5
5
6
6
1
54
53
7
3
14
43
45
20
44
160
39
1
0
0
1
4
64
49
30
0
0
0
0
0
2
99
15
4
16
16
9
11
46
62
4
1
15
96
82
32
59
160
13
0
1
4
7
10
90
90
6
0
0
0
0
0
3
6
0
0
55
45
13
24
33
79
27
7
27
48
22
32
58
160
87
4
7
4
1
0
8
73
11
0
0
0
0
0
0
2
1
5
87
37
7
4
9
105
42
15
31
9
2
1
10
160
76
0
0
0
0
0
0
40
6
0
0
0
0
0
0
0
0
0
0
58
146
5
1
14
8
7
4
41
122
5
5
88
40
13
2
1
2
0
33
13
8
7
63
28
0
0
29
11
0
0
0
38
146
35
18
146
39
22
5
6
31
21
56
42
32
38
34
24
0
1
25
30
0
0
14
16
3
3
75
38
47
22
72
82
31
8
9
146
65
10
13
11
5
3
27
71
5
2
51
84
2
0
11
12
5
0
15
28
25
23
39
11
35
23
60
91
37
0
1
146
38
4
6
10
4
0
8
64
19
3
25
58
74
3
5
37
103
0
10
32
82
13
3
35
22
5
1
0
44
95
23
22
42
27
15
6
18
14
2
43
79
63
12
8
2
1
1
1
5
46
33
69
17
3
0
93
124
22
6
7
10
6
8
31
49
40
39
40
14
0
3
113
20
3
3
32
3
0
13
11
4
0
10
124
21
0
2
55
123
6
2
34
17
0
0
29
6
0
3
76
56
4
7
101
9
0
0
24
45
20
24
6
4
7
6
124
124
17
7
5
40
14
2
20
93
79
2
8
53
43
2
28
56
68
14
12
63
124
11
7
44
41
30
0
71
124
21
28
82
8
1
0
17
15
11
1
101
25
0
8
66
38
20
1
14
14
4
95
93
6
0
0
0
5
53
124
2
0
0
0
0
1
124
13
31
7
5
3
16
11
4
78
83
26
8
2
4
5
12
40
54
13
5
22
18
9
12
124
51
0
0
0
2
4
32
27
2
5
47
49
16
6
9
110
3
0
2
3
9
26
71
90
37
0
0
20
62
26
22
124
102
0
0
0
2
1
2
5
0
0
97
58
1
0
6
24
4
0
18
29
20
41
71
124
124
0
0
0
9
14
37
124
121
0
0
0
0
0
0
8
1
1
6
16
31
11
12
58
0
0
2
20
31
26
124
130
0
0
0
0
0
1
126
5
0
0
0
0
0
0
3
57
2
2
27
48
2
0
53
81
5
1
47
103
12
4
54
130
15
0
2
2
0
0
124
26
0
0
0
0
0
0
6
69
2
9
21
14
2
8
84
64
61
8
63
71
12
10
18
130
130
3
5
2
0
0
12
23
7
0
0
0
0
0
0
6
6
130
55
0
1
4
19
35
130
114
5
4
7
6
6
80
128
5
0
0
0
0
0
3
2
0
0
0
0
0
0
19
7
2
1
3
4
9
55
4
12
30
60
25
15
1
5
12
55
75
114
16
2
0
0
58
124
124
36
0
0
0
0
48
6
0
0
0
4
26
124
71
44
26
3
8
12
9
44
53
44
73
22
27
20
2
5
124
41
17
5
3
1
0
26
111
45
2
0
2
3
7
30
111
17
1
1
1
11
24
69
22
3
2
3
21
78
42
27
124
0
0
0
2
13
19
124
15
10
6
16
8
2
31
31
97
4
2
5
5
0
14
101
26
2
2
19
107
32
7
12
124
0
0
1
23
18
9
82
2
0
0
0
1
1
135
73
81
8
0
0
0
0
105
135
75
4
0
0
0
0
2
88
2
0
0
0
0
0
0
1
35
6
0
4
14
5
11
9
135
108
0
0
0
0
6
71
135
48
0
0
0
1
47
44
2
0
0
0
0
31
67
1
26
7
8
23
6
0
0
5
135
24
2
0
0
0
18
135
46
7
1
0
0
4
135
133
1
1
4
3
2
51
135
1
4
25
13
14
1
0
0
0
33
107
10
0
0
0
0
16
67
31
7
1
0
0
9
32
13
5
16
18
4
3
9
9
8
2
1
29
53
23
0
3
147
12
1
5
1
0
1
43
147
1
0
0
0
0
0
64
26
0
0
0
0
0
0
3
3
5
3
16
19
67
33
8
93
20
8
3
1
5
47
85
147
16
0
0
0
0
6
112
49
0
0
0
0
0
0
7
4
37
28
15
12
21
8
3
68
147
44
0
0
1
9
12
147
147
4
0
0
0
0
21
39
13
0
0
0
0
0
2
11
13
8
7
6
11
13
18
147
109
1
0
0
0
0
16
131
118
0
0
0
0
0
0
4
5
0
0
0
0
0
0
0
0
0
50
139
124
74
2
7
0
0
0
4
59
139
23
32
0
0
0
0
30
86
123
19
2
0
0
13
75
43
35
6
1
0
7
139
139
36
7
88
5
0
0
7
21
29
37
38
1
0
0
0
24
50
27
8
0
0
0
0
14
73
59
11
35
11
32
18
84
13
2
60
62
3
0
6
19
7
7
16
5
1
0
5
38
30
11
5
10
4
3
9
11
20
11
5
16
46
139
28
0
0
6
7
59
127
11
10
15
7
12
10
57
139
28
6
10
2
2
3
31
62
22
1
0
0
0
2
0
0
2
22
55
36
27
5
0
0
1
12
79
57
17
32
10
8
2
1
6
28
64
2
3
8
3
3
23
42
8
0
0
0
2
29
76
38
3
34
5
2
10
9
50
22
22
118
18
2
5
4
1
4
44
7
3
1
15
54
24
14
3
1
0
0
4
40
23
10
15
44
61
14
8
6
3
6
18
79
101
44
5
9
1
0
7
10
6
14
33
111
25
0
0
29
9
1
16
21
6
6
20
131
165
46
8
7
1
1
7
25
165
165
35
1
0
0
0
0
1
165
165
20
1
0
0
3
39
51
35
20
2
0
0
16
112
66
23
2
0
0
0
111
74
67
29
3
0
0
25
84
115
115
6
0
0
0
20
25
14
20
4
2
3
24
47
115
70
33
38
1
0
4
14
115
46
67
98
5
2
1
38
115
30
21
2
0
2
10
115
57
21
14
1
0
0
9
39
115
12
4
4
0
5
32
62
20
9
13
21
6
21
61
53
23
3
1
3
4
15
59
107
15
17
15
2
1
19
24
7
34
2
1
1
1
23
115
60
21
1
0
0
0
5
88
115
31
2
5
34
9
8
15
48
14
5
0
1
12
5
1
1
134
107
0
0
1
0
0
21
134
70
0
0
0
0
0
27
36
1
0
0
0
0
0
1
17
1
0
0
0
7
7
10
134
15
0
0
0
0
9
134
134
12
0
0
0
0
6
134
60
1
0
0
0
0
0
7
8
2
0
0
0
0
0
2
134
78
0
0
0
0
1
31
134
134
0
0
0
0
0
26
59
12
0
0
0
0
0
0
8
8
8
4
0
0
0
0
134
123
0
0
0
0
0
0
134
105
0
0
0
0
0
0
27
9
0
0
0
0
0
0
2
7
6
25
41
130
35
0
73
90
10
9
11
24
43
9
18
31
12
20
30
4
8
2
25
28
7
2
8
27
1
1
10
5
7
25
67
32
3
0
139
24
2
4
17
5
4
10
25
4
0
2
58
33
15
7
8
4
4
4
28
79
26
7
4
5
10
4
15
24
26
11
36
21
21
1
2
9
54
35
4
49
59
0
11
54
45
10
0
94
139
6
8
16
9
0
1
32
139
2
0
2
5
5
0
115
139
0
0
1
7
1
0
139
139
0
0
0
2
0
0
139
139
0
0
0
0
0
11
1
0
1
10
26
14
23
49
0
0
1
13
24
28
134
116
0
0
0
0
0
0
134
7
0
0
0
0
0
0
5
52
0
0
13
32
3
2
64
79
5
1
35
87
12
6
60
134
13
0
1
1
0
0
129
37
0
0
0
0
0
0
10
67
4
25
18
8
1
4
63
62
66
11
45
47
6
6
18
134
134
3
3
1
0
0
10
35
11
0
0
0
0
0
1
5
7
134
61
0
0
1
7
22
134
134
4
1
1
2
4
72
134
7
0
0
0
0
0
5
5
0
0
0
0
0
0
2
8
2
0
0
85
144
16
9
6
2
1
0
1
144
113
46
0
0
0
0
0
32
144
7
0
0
0
0
0
0
9
2
69
49
3
3
41
29
4
50
27
16
6
17
50
30
49
144
5
0
0
1
3
4
99
50
0
0
0
0
0
0
7
1
13
11
1
13
111
28
0
118
31
0
0
4
79
37
9
144
55
0
0
0
1
1
6
53
5
0
0
0
0
0
0
4
5
1
2
27
43
17
3
127
90
1
1
4
4
1
1
144
94
0
0
0
0
0
0
22
7
0
0
0
0
0
0
16
14
10
14
8
1
3
15
76
7
0
0
2
1
4
45
23
1
0
0
13
29
26
21
127
3
0
0
0
4
8
54
7
1
4
127
27
0
1
6
127
12
2
15
12
2
1
20
54
8
1
3
95
33
4
8
127
42
0
0
5
6
2
17
1
1
29
127
4
0
0
0
57
11
54
110
5
3
2
17
28
115
30
12
51
11
3
9
121
127
5
1
2
0
0
0
0
0
22
92
0
0
0
0
0
5
127
127
0
0
0
0
3
127
120
11
0
0
0
0
7
87
4
0
0
0
0
0
0
0
3
0
0
51
115
13
1
3
3
0
0
1
94
90
2
7
2
0
0
0
10
34
1
3
0
0
0
0
0
0
0
0
0
0
2
134
134
23
21
4
0
0
1
5
134
134
108
10
0
0
0
0
37
134
17
0
0
0
0
0
0
13
2
4
2
6
12
18
8
1
132
65
1
4
9
3
10
39
134
116
0
0
0
0
13
86
28
4
0
0
0
4
44
14
0
12
23
13
1
0
0
0
82
59
22
7
1
0
0
20
99
26
2
0
0
0
45
114
1
0
0
3
5
30
128
20
6
0
0
0
0
1
91
75
42
0
0
0
0
1
130
136
97
0
2
2
0
0
6
136
4
1
11
4
0
0
0
1
0
4
7
4
11
13
6
2
108
38
17
0
1
10
11
82
136
38
3
0
0
0
0
128
28
3
6
1
0
0
0
4
10
55
43
22
12
2
0
0
70
136
121
0
0
1
0
4
136
136
51
0
0
0
0
6
18
11
0
0
0
0
0
0
17
41
64
20
0
0
0
0
113
77
18
0
0
0
2
75
20
30
8
0
0
0
8
75
0
1
0
0
0
0
0
6
11
2
2
0
0
0
3
9
159
17
0
0
0
0
0
38
159
12
1
0
0
0
0
22
8
1
0
0
0
0
0
18
30
10
1
4
1
0
3
5
159
112
0
0
0
0
0
13
159
55
2
0
0
0
0
4
6
7
1
0
0
0
0
2
29
7
11
14
2
0
0
3
159
18
1
0
0
0
0
130
159
12
8
1
0
0
0
70
1
7
14
2
0
0
0
0
3
6
34
23
2
0
0
0
159
26
15
0
0
0
0
60
159
5
4
1
0
0
2
88
6
2
15
7
0
0
5
5
26
3
0
0
0
0
2
89
57
1
0
0
0
0
0
130
28
0
0
0
0
0
0
130
11
0
0
0
0
0
0
12
34
60
19
0
0
0
0
6
73
45
80
27
0
0
0
129
130
27
8
2
0
0
0
130
49
1
0
0
0
0
0
11
130
81
12
1
0
0
0
0
90
101
130
66
0
0
0
0
124
130
59
11
0
0
0
4
44
9
0
0
0
0
0
1
130
92
0
0
0
0
0
0
93
45
17
2
0
0
0
1
24
17
10
0
0
0
0
8
21
0
0
0
0
0
0
6
7
2
7
0
0
0
0
3
159
2
0
0
0
0
0
83
162
11
7
0
0
0
0
111
23
12
7
0
0
0
0
13
1
1
2
0
0
0
6
8
153
3
0
0
0
0
2
41
162
8
0
0
0
0
0
81
67
2
0
0
0
0
0
12
2
1
0
3
0
0
6
4
162
25
0
0
0
0
2
10
162
60
0
0
0
0
0
11
64
16
1
0
0
0
0
1
2
2
4
10
2
0
0
0
120
8
1
0
0
0
0
29
162
7
0
0
0
0
0
135
53
5
3
0
0
0
0
32
72
12
9
2
3
2
5
68
21
1
1
17
14
10
69
82
1
3
29
109
24
11
16
27
1
26
23
20
24
83
18
0
12
23
61
21
20
16
1
6
8
4
3
3
19
67
75
47
47
4
4
15
30
26
67
105
4
2
44
88
92
72
5
2
1
0
6
14
61
67
28
5
11
19
53
38
35
40
8
10
112
112
38
10
1
2
4
13
15
82
112
95
13
0
0
0
1
0
1
82
78
24
37
27
33
23
20
11
1
1
37
112
112
112
20
3
0
0
1
68
26
93
49
60
30
1
1
16
4
0
0
0
12
114
83
36
0
1
6
34
48
21
42
10
47
77
20
20
6
1
5
11
43
73
10
8
28
34
9
17
62
18
2
7
14
17
23
33
5
5
5
14
37
29
86
32
114
24
3
1
1
2
24
70
46
10
0
4
76
60
10
16
86
106
58
33
16
1
0
3
4
39
114
91
36
2
2
3
72
75
46
10
19
27
31
18
16
3
3
8
39
55
93
29
28
114
84
18
0
2
0
0
3
20
114
114
36
33
1
0
0
4
22
82
114
47
9
0
4
0
0
10
64
37
77
46
36
0
0
0
17
42
17
57
133
26
0
0
0
0
1
85
75
26
5
14
35
40
9
25
2
1
2
7
40
48
8
9
99
35
0
0
0
6
4
22
133
133
1
0
1
4
4
60
50
31
2
0
46
133
26
31
9
7
6
1
16
66
39
48
99
8
0
2
2
0
0
46
133
25
0
0
2
27
34
133
11
5
0
0
58
133
54
27
63
16
0
0
7
41
49
72
26
40
10
3
2
0
0
13
45
43
20
6
1
9
22
77
5
3
4
14
24
69
31
14
133
47
0
0
3
7
1
8
21
25
6
2
8
15
30
17
3
16
76
63
45
21
4
0
0
0
53
102
8
2
1
2
3
1
3
25
5
1
11
12
76
22
7
21
6
0
5
23
130
73
103
63
6
0
0
21
4
8
80
130
111
0
0
0
4
5
21
94
44
0
0
0
41
39
59
69
23
0
0
8
130
57
21
10
12
1
0
37
32
11
60
130
105
2
0
10
0
1
73
130
28
0
0
0
1
20
73
52
32
7
2
0
92
21
20
6
6
4
0
25
60
9
19
47
23
5
13
41
0
2
41
130
35
3
2
1
1
0
1
6
4
8
10
17
7
27
44
16
4
3
0
1
0
6
35
75
19
1
0
0
0
12
28
14
7
4
5
0
27
1
1
6
1
0
9
33
135
55
17
12
4
2
2
15
14
27
34
113
62
10
1
2
10
119
109
22
5
0
0
0
27
6
52
146
1
0
0
2
115
10
12
6
2
13
17
53
29
11
3
7
22
56
30
38
71
65
17
1
1
0
18
96
0
1
165
165
0
0
0
0
7
5
131
165
0
2
3
6
5
4
55
46
3
9
8
18
12
8
26
4
0
0
22
65
34
36
2
4
2
0
0
0
143
100
0
0
0
0
0
5
143
11
0
0
0
0
3
69
5
0
0
0
0
0
11
36
104
32
1
0
0
0
1
4
143
83
0
0
0
0
0
18
107
15
0
0
3
6
37
54
0
0
0
0
4
4
89
86
61
43
143
6
0
0
0
5
143
44
69
9
0
0
4
81
40
8
2
1
6
6
35
80
0
1
6
3
19
15
25
26
0
7
143
30
0
0
0
0
13
16
143
105
0
0
0
6
30
28
34
32
0
0
2
12
2
6
27
3
1
2
4
3
12
8
14
45
37
2
2
10
101
17
5
45
22
15
23
13
195
32
0
0
0
1
2
12
48
0
0
0
0
0
0
0
10
8
8
18
34
7
6
24
123
14
7
52
39
3
2
4
195
16
0
1
0
0
0
16
58
0
0
0
0
0
0
5
5
3
17
21
22
9
33
63
114
5
2
15
20
29
30
17
195
22
0
0
1
1
0
9
66
0
0
0
0
0
0
4
0
1
32
70
34
2
2
3
112
44
4
13
19
11
6
3
195
97
0
0
0
0
0
0
39
6
0
0
0
0
0
0
4
4
6
22
12
2
3
10
119
7
5
33
19
0
0
12
171
1
0
0
0
0
0
50
33
0
0
0
0
0
0
9
3
3
10
10
5
6
43
48
104
1
1
15
20
28
21
20
171
2
0
0
0
1
0
46
67
0
0
0
0
0
0
11
1
3
45
50
15
1
10
9
118
18
4
12
16
14
10
6
171
60
0
0
0
0
0
5
74
5
0
0
0
0
0
2
0
0
36
121
31
1
0
0
77
121
55
28
27
5
0
1
171
162
2
0
0
0
0
0
29
12
0
0
0
0
0
0
4
6
1
0
0
34
161
57
57
0
0
0
0
0
71
161
20
0
0
0
0
0
0
24
0
0
0
0
0
0
0
0
23
30
16
1
5
69
42
30
161
4
0
0
1
11
14
125
121
0
0
0
0
0
0
18
0
0
0
0
0
0
0
0
67
23
2
0
21
91
17
5
161
85
0
0
0
4
4
7
124
15
0
0
0
0
0
0
0
0
0
0
0
0
0
0
94
67
10
0
4
12
10
9
161
152
0
0
0
0
0
0
38
20
0
0
0
0
0
0
0
0
0
0
0
0
0
0
4
6
1
0
0
34
161
57
57
0
0
0
0
0
71
161
20
0
0
0
0
0
0
24
0
0
0
0
0
0
0
0
23
30
16
1
5
69
42
30
161
4
0
0
1
11
14
125
121
0
0
0
0
0
0
18
0
0
0
0
0
0
0
0
67
23
2
0
21
91
17
5
161
85
0
0
0
4
4
7
124
15
0
0
0
0
0
0
0
0
0
0
0
0
0
0
94
67
10
0
4
12
10
9
161
152
0
0
0
0
0
0
38
20
0
0
0
0
0
0
0
0
0
0
0
0
0
0
0
0
1
35
26
0
0
0
100
51
1
4
2
0
0
2
163
157
0
0
0
0
0
1
37
28
1
0
0
0
0
0
0
0
7
73
31
0
0
0
163
33
19
15
1
0
0
9
163
34
1
0
0
0
0
36
34
13
14
2
0
0
0
1
0
0
13
43
18
1
1
1
92
43
39
11
0
0
2
10
163
28
1
0
0
0
7
84
42
6
10
8
0
0
15
38
1
1
1
6
8
13
3
4
15
3
3
3
2
9
26
30
57
0
0
0
0
0
86
163
31
0
0
0
0
0
79
163
0
0
0
10
135
135
53
24
28
17
32
18
9
6
21
43
16
21
18
20
30
9
8
5
5
7
10
7
11
11
27
12
40
0
0
0
68
135
47
73
135
23
1
2
1
1
8
84
33
15
6
30
55
24
3
4
16
16
18
9
10
9
5
16
118
24
0
0
4
35
9
22
135
53
0
0
1
22
6
36
23
4
0
1
27
128
27
19
58
26
0
0
4
14
9
33
99
12
0
1
1
0
0
31
106
19
0
0
2
61
31
75
21
3
0
0
6
127
48
31
135
93
0
0
0
1
9
44
86
37
1
0
0
0
2
29
14
18
9
9
39
6
0
0
5
4
14
12
19
8
12
9
7
11
7
5
15
17
9
7
114
76
1
0
1
14
9
6
7
8
2
5
28
69
16
5
29
16
22
7
5
8
5
12
13
128
54
12
3
0
0
0
27
26
0
0
0
70
66
15
24
10
1
0
0
47
45
43
83
138
2
0
0
1
1
9
66
195
9
0
0
0
0
0
14
10
0
0
1
44
41
11
87
145
0
0
0
3
10
31
50
195
5
0
0
0
0
2
22
195
1
0
0
0
0
0
0
0
2
121
158
0
0
0
34
29
35
47
23
0
0
0
79
41
13
28
15
0
0
0
1
1
5
115
55
0
0
0
0
0
3
123
158
0
0
0
11
12
38
53
42
1
0
0
83
22
9
11
3
0
1
13
7
2
8
107
38
1
2
6
0
0
0
141
158
0
0
0
2
2
15
81
59
7
0
0
20
5
8
6
4
10
11
24
3
0
1
15
13
7
12
32
0
0
0
148
158
3
0
0
0
0
0
24
111
36
8
2
3
7
7
6
9
18
8
7
10
24
14
7
4
4
4
11
6
1
10
15
4
10
13
23
72
0
0
2
2
7
4
141
87
0
0
0
0
0
0
141
7
0
0
0
0
0
0
9
0
9
55
61
10
12
24
2
83
18
35
30
2
7
3
84
141
35
3
0
0
0
0
141
45
2
0
0
0
0
0
11
0
2
141
141
0
0
0
0
20
108
141
53
0
0
0
1
141
141
45
0
0
0
0
5
25
14
0
0
0
0
0
0
0
0
42
19
0
0
0
0
0
40
113
6
0
0
0
0
1
57
22
0
0
0
0
0
0
2
0
0
0
0
0
0
2
2
2
8
34
6
1
1
15
116
19
16
26
2
0
0
27
139
42
0
0
0
0
0
4
133
29
0
0
0
0
0
14
5
3
6
12
8
10
11
139
139
14
5
1
0
0
24
66
139
13
6
0
0
0
6
6
21
10
4
0
0
0
0
14
1
4
19
35
2
2
17
139
39
2
0
0
0
0
139
135
24
2
7
3
0
0
53
10
9
2
5
2
0
0
0
3
31
126
38
12
0
0
0
116
139
105
3
0
0
0
10
78
73
6
7
0
0
0
3
3
10
7
4
0
0
0
0
150
144
15
0
0
0
0
1
126
150
56
0
0
0
0
14
111
41
1
0
0
0
0
9
8
0
0
0
0
0
0
1
150
150
0
0
0
0
0
0
140
102
8
0
0
0
0
5
65
9
0
0
0
0
0
28
13
0
0
0
0
0
0
10
150
146
0
0
0
0
0
0
58
49
5
0
0
0
0
1
55
4
0
0
0
0
0
18
22
0
0
0
0
0
0
16
150
29
1
0
0
0
0
17
33
15
16
5
0
0
1
8
18
3
4
2
0
0
0
7
19
0
0
0
0
0
0
17
0
2
7
44
13
0
0
0
89
32
0
9
4
0
0
2
163
119
0
0
0
0
0
0
64
26
0
0
0
0
0
5
4
5
5
74
29
0
0
0
155
37
14
35
8
0
0
4
163
61
0
0
0
0
0
23
45
21
8
0
0
0
0
1
5
1
3
37
13
1
2
5
82
30
28
30
5
2
2
13
163
17
1
0
0
0
17
141
41
5
8
3
0
0
23
78
2
5
4
4
4
4
3
7
7
1
3
16
9
11
12
18
30
1
0
3
1
1
74
163
79
2
0
0
0
0
47
163
0
0
0
0
11
183
67
0
9
1
0
0
31
183
55
4
120
16
0
0
3
35
13
25
39
6
0
3
8
18
6
5
0
0
0
0
19
183
66
3
35
7
0
1
9
72
9
4
138
23
0
0
0
12
16
35
32
7
0
0
0
46
44
20
1
8
11
24
22
36
11
1
19
35
6
0
0
0
1
4
36
28
0
0
2
11
19
23
76
110
0
0
1
16
14
7
0
5
14
105
72
0
0
0
4
10
17
7
4
1
3
3
16
104
18
0
1
3
21
9
68
183
3
0
0
0
1
0
0
18
37
140
130
0
0
0
24
140
140
37
5
0
0
3
57
140
109
0
0
0
0
5
9
109
36
0
0
0
0
0
0
7
11
55
140
0
0
0
63
45
18
26
11
0
1
28
140
23
0
0
0
0
0
38
37
4
0
0
0
0
0
0
0
0
0
7
140
9
1
0
51
10
3
20
16
2
2
3
140
20
0
0
0
0
0
3
39
0
0
0
0
0
0
0
0
0
0
33
99
8
2
1
47
6
0
11
6
2
9
6
140
19
0
0
0
0
0
1
28
1
0
0
0
0
0
0
156
156
1
0
0
0
0
0
63
67
4
0
0
0
0
0
70
2
0
0
0
0
0
7
7
0
0
0
0
0
0
2
156
62
2
0
0
0
0
156
44
19
13
2
0
0
0
28
68
6
0
0
0
0
0
10
14
0
0
0
0
0
0
3
156
85
8
0
0
0
0
156
145
46
17
0
0
0
0
40
25
35
9
0
0
0
0
0
10
5
0
0
0
0
0
0
127
156
43
0
0
0
0
6
56
87
11
0
0
0
0
0
0
14
8
0
0
0
0
0
0
3
0
0
0
0
0
0
0
1
5
8
22
7
0
1
87
86
10
17
11
0
0
8
135
135
1
0
0
0
0
12
37
45
0
0
0
0
0
0
0
9
38
42
12
1
0
0
122
33
22
35
8
1
0
69
135
63
3
0
0
0
0
118
42
24
2
0
0
0
0
4
20
13
31
44
24
0
0
17
64
135
114
33
0
0
0
16
135
135
23
0
0
0
0
11
15
35
7
0
0
0
0
0
23
4
23
105
30
0
0
21
135
49
17
3
0
0
0
70
130
45
1
0
0
0
0
27
3
3
1
0
0
0
0
0
0
0
0
5
93
103
25
3
69
0
0
3
25
13
20
96
126
0
0
0
0
0
0
93
4
0
0
0
0
0
0
1
0
0
0
13
125
78
32
18
78
2
0
0
3
5
40
80
132
5
0
0
0
0
1
95
33
0
0
0
0
0
0
5
4
0
0
4
77
103
9
18
127
48
0
0
0
0
5
24
132
101
0
0
0
0
0
7
34
7
0
0
0
0
0
0
21
7
0
0
5
39
5
25
132
129
0
0
0
0
0
15
132
123
0
0
0
0
0
0
6
4
0
0
0
0
0
0
32
0
0
0
9
4
28
53
154
0
0
0
0
0
2
151
68
0
0
0
0
0
0
22
0
0
0
0
0
0
0
0
45
12
15
11
27
3
9
26
154
35
1
0
0
0
0
59
145
2
0
0
0
0
0
20
0
0
0
0
0
0
0
0
18
39
154
110
4
0
0
0
154
119
84
12
0
0
0
38
63
3
1
0
0
0
10
139
1
0
0
0
0
0
2
31
0
2
117
60
0
0
0
0
7
17
94
75
0
0
0
6
17
11
20
26
0
0
3
67
27
10
1
0
0
0
0
38
0
0
24
152
78
0
0
0
76
152
152
152
30
0
0
5
152
152
5
0
0
0
0
25
12
16
0
0
0
0
0
2
0
0
0
51
57
0
0
0
76
18
22
132
124
0
0
14
152
25
6
6
2
0
0
67
30
0
0
0
0
0
0
7
0
0
0
1
3
0
0
0
10
28
67
46
21
0
0
0
101
98
53
7
0
0
0
3
14
2
0
0
0
0
0
0
0
0
0
0
0
0
0
0
0
1
5
0
0
0
0
0
0
4
6
0
0
0
0
0
0
0
0
0
0
0
0
0
0
0
0
0
0
3
23
3
0
0
0
0
0
16
39
3
0
0
0
0
0
1
17
15
0
0
0
0
0
0
0
0
0
0
0
0
0
103
137
12
16
1
0
0
0
101
137
54
98
2
0
0
0
10
64
137
5
0
0
0
0
0
0
5
22
13
1
0
0
93
137
35
101
135
0
0
0
17
87
58
137
110
0
0
0
1
6
25
1
0
0
0
0
0
0
0
14
137
119
0
0
0
3
3
34
137
43
0
0
0
0
1
11
87
0
0
0
0
0
0
0
0
0
0
0
0
0
0
1
2
11
139
139
0
0
0
139
36
27
20
3
0
0
66
139
20
0
0
0
0
0
98
29
4
0
0
0
0
0
3
0
0
20
139
51
0
0
0
77
56
95
139
1
0
0
12
139
62
17
1
0
0
0
83
44
4
0
0
0
0
0
15
0
0
5
74
0
0
0
0
6
23
139
115
0
0
0
1
66
136
104
4
0
0
0
10
18
15
0
0
0
0
0
1
0
0
0
0
0
0
0
0
0
0
2
0
0
0
0
0
0
5
6
0
0
0
0
0
0
0
0
0
0
0
0
0
