141
44
0
0
0
0
0
38
141
3
0
0
0
0
14
141
46
2
0
0
1
2
37
110
81
17
3
1
0
0
0
55
141
89
0
0
0
0
0
8
141
63
0
0
0
1
1
50
82
12
0
0
5
28
14
83
110
1
0
0
0
2
5
141
65
68
0
0
0
0
0
0
141
19
0
0
0
4
3
35
38
2
0
0
15
48
16
40
141
85
12
0
1
3
4
74
0
0
0
0
0
0
0
0
0
0
0
0
0
0
0
0
1
0
0
0
0
0
0
0
16
25
2
0
0
0
0
0
0
0
0
0
0
0
0
0
0
0
0
0
0
0
0
0
0
0
0
0
0
0
0
0
0
0
0
0
0
0
0
0
0
14
52
62
29
0
0
0
55
11
16
149
65
0
0
4
149
14
6
17
3
0
1
41
32
20
19
3
1
1
29
76
1
10
92
103
18
2
1
0
28
38
84
149
56
0
0
1
149
149
90
53
2
0
0
17
91
149
70
3
1
0
5
26
1
1
1
9
11
6
1
0
24
37
41
53
9
2
0
1
54
149
55
7
0
1
6
20
37
36
2
0
0
4
28
60
2
3
0
0
0
10
62
23
60
3
0
0
0
0
30
123
128
26
0
0
0
0
1
88
130
20
0
0
0
0
0
116
19
0
0
0
2
55
52
12
130
53
0
0
0
3
22
60
88
29
0
0
0
6
19
106
130
0
0
0
0
1
10
130
53
18
0
0
11
42
8
7
130
18
0
0
0
0
10
84
40
4
0
0
0
7
53
77
130
0
0
0
0
1
8
123
26
20
1
1
4
7
0
2
65
8
1
1
0
0
3
46
21
0
0
0
0
0
17
67
16
0
0
0
0
0
35
96
46
4
0
0
0
0
3
122
27
3
0
0
0
0
37
122
42
3
0
0
0
0
37
122
50
4
0
0
0
19
63
122
108
27
3
0
0
0
0
121
122
69
10
1
0
0
4
76
43
33
29
9
4
12
15
110
13
0
0
0
0
9
102
122
69
43
14
2
0
5
23
46
118
22
1
0
0
2
37
122
23
14
4
3
4
46
85
60
24
31
5
0
0
12
40
54
18
8
0
0
0
3
23
28
87
46
0
0
0
2
10
33
75
25
1
0
0
6
26
23
28
25
4
0
1
81
35
8
60
124
56
3
0
0
0
1
127
57
4
0
0
0
0
6
127
22
1
0
0
0
0
53
127
8
0
0
0
0
0
71
57
58
33
10
1
0
9
30
115
127
38
3
0
0
0
15
99
69
55
24
4
1
1
18
127
37
1
1
0
0
1
47
48
87
27
0
0
0
5
25
127
58
9
1
0
1
18
76
57
15
11
14
7
9
49
60
127
8
0
0
0
0
13
119
6
33
13
0
0
0
1
2
22
84
19
0
0
1
13
28
24
39
48
5
0
1
28
29
40
9
3
0
0
0
12
63
130
43
4
0
0
0
0
4
130
39
0
0
0
0
0
24
130
30
0
0
0
0
0
52
76
28
2
0
0
1
9
76
77
126
28
3
0
0
0
3
130
63
38
11
1
0
0
26
130
47
1
0
0
0
0
56
63
67
11
0
0
1
9
33
122
63
14
1
0
0
8
42
66
28
23
21
9
7
27
37
130
31
1
1
0
0
13
110
29
19
4
0
0
4
80
95
20
51
15
0
0
0
8
24
35
25
32
4
0
1
22
38
60
6
1
0
0
0
9
97
7
0
0
0
0
8
57
93
56
32
10
0
0
0
0
3
125
57
1
1
1
0
0
5
37
41
34
24
28
3
0
1
14
51
78
8
4
4
2
2
36
20
43
14
1
0
0
3
125
57
3
1
0
0
0
18
67
117
27
2
0
0
0
3
54
125
69
2
0
0
0
0
19
8
18
72
26
0
0
3
125
25
2
3
0
0
0
95
125
45
2
0
0
0
0
109
125
75
1
0
0
0
0
29
1
0
2
81
74
2
0
1
55
0
1
10
17
1
0
72
124
0
0
0
0
0
0
125
125
10
0
0
0
0
0
75
0
0
0
24
117
110
24
0
5
1
1
44
117
55
18
26
29
1
0
4
2
4
14
117
33
9
1
2
1
2
20
117
1
0
0
1
49
117
117
58
3
0
0
8
80
117
33
13
96
7
0
1
3
27
25
68
65
5
0
0
0
27
59
78
4
21
109
51
23
45
26
38
17
7
9
18
69
68
13
11
117
17
1
0
3
8
6
14
26
3
3
20
11
53
38
13
0
10
52
90
109
66
17
0
15
16
7
17
96
37
9
5
56
23
2
1
1
4
6
10
8
3
2
18
13
50
36
7
2
3
11
28
22
6
1
2
53
7
6
14
18
7
9
82
27
4
11
3
6
79
105
88
112
95
31
2
17
85
32
9
15
20
12
47
21
2
6
5
25
3
2
76
43
3
2
18
115
39
37
7
2
7
7
33
115
115
80
3
0
2
0
21
43
52
13
28
7
2
17
13
9
20
30
115
36
0
0
0
104
37
25
19
2
0
9
37
111
32
5
1
0
0
17
115
26
96
56
34
2
0
0
0
2
19
115
88
12
0
0
0
3
6
115
66
2
0
5
5
58
34
54
18
0
0
6
45
6
65
32
8
3
0
0
0
8
45
28
9
1
2
1
1
71
56
19
7
0
0
1
7
128
30
0
0
0
0
0
29
0
16
79
42
13
2
0
0
22
11
17
11
45
53
10
9
128
100
11
0
2
10
8
21
126
123
14
0
0
0
0
14
0
0
20
125
37
0
0
0
25
9
14
101
77
12
0
1
128
37
12
7
1
1
0
75
128
50
5
0
0
0
0
55
0
0
50
128
21
0
0
0
1
2
38
128
16
0
0
0
77
9
31
37
0
0
0
48
128
3
0
0
0
0
0
82
46
19
2
18
24
0
0
6
149
55
2
0
0
0
0
19
58
113
34
0
0
0
0
3
22
123
63
17
3
0
0
0
51
2
0
9
40
18
0
8
149
7
0
0
0
0
0
81
149
62
2
0
0
0
0
39
77
64
6
6
8
1
0
1
31
4
11
14
20
9
0
8
149
44
0
1
0
0
0
26
149
71
0
0
0
0
0
19
74
53
24
10
1
0
0
25
9
9
11
26
14
2
0
0
149
39
3
4
0
0
0
12
149
12
0
0
0
0
0
31
55
1
1
0
0
0
6
83
44
9
2
0
0
0
0
14
37
68
4
0
0
0
0
2
124
65
0
0
0
0
0
7
124
30
0
0
0
0
0
16
99
9
0
0
0
0
0
24
123
89
0
0
0
0
0
10
119
124
0
0
0
0
0
5
124
53
0
0
0
0
0
15
68
0
0
0
0
0
0
84
124
7
0
0
0
0
0
87
124
19
0
0
0
0
0
59
124
28
0
0
0
0
0
39
61
6
0
0
0
0
0
44
124
4
0
0
0
0
0
75
124
2
0
0
0
0
0
59
124
3
0
0
0
0
0
40
128
2
0
0
0
0
0
49
128
7
0
0
0
0
0
126
128
18
0
0
0
1
1
40
15
1
0
0
5
43
8
5
128
23
0
0
0
0
0
33
128
58
1
0
0
0
0
67
128
11
0
0
3
3
1
95
11
0
0
14
40
43
3
6
128
31
0
0
0
0
0
12
128
71
0
0
0
0
0
27
128
61
0
1
1
0
1
24
15
1
0
37
31
3
3
11
128
30
0
0
0
0
0
5
128
71
0
0
0
0
0
17
106
26
0
0
0
0
0
30
15
10
2
6
26
6
1
9
38
6
1
0
0
0
4
14
135
29
0
0
0
0
0
18
127
75
0
0
0
0
0
7
135
34
0
0
0
0
0
29
31
27
18
0
0
0
0
6
135
19
1
0
0
0
0
49
135
57
0
0
0
0
0
29
135
65
0
0
0
0
0
14
52
28
3
0
0
0
0
10
95
106
0
0
0
0
0
3
135
39
0
0
0
0
0
33
135
15
0
0
0
0
0
45
83
9
0
0
0
0
0
23
103
73
0
0
0
0
0
13
129
57
0
0
0
0
0
14
135
31
0
0
0
0
0
14
76
35
0
0
0
0
0
4
141
46
0
0
0
0
0
12
141
21
0
0
0
0
0
42
36
8
6
7
2
0
0
20
112
15
3
0
0
0
0
34
141
70
0
0
0
0
0
31
141
48
0
0
0
0
0
63
94
14
1
1
1
1
2
43
75
58
2
0
0
0
0
7
141
42
0
0
0
0
0
43
141
35
0
0
0
0
0
41
98
36
3
8
3
1
1
14
90
25
0
0
0
0
0
34
135
37
0
0
0
0
0
36
141
18
0
0
0
0
0
57
65
1
1
2
0
0
1
70
95
15
0
0
0
0
0
5
127
23
0
0
0
0
1
50
63
18
1
0
0
0
4
77
47
25
1
0
0
0
0
26
127
9
0
0
0
0
0
31
127
110
5
0
0
0
0
20
53
89
25
3
0
0
0
11
72
25
1
0
8
13
0
19
127
5
0
0
0
0
0
51
127
20
0
0
0
0
0
52
81
34
15
7
0
0
0
11
38
37
4
2
105
124
2
1
127
13
1
0
0
0
0
12
127
10
0
0
0
0
0
39
123
19
2
0
0
0
0
22
12
17
24
83
127
50
0
0
6
4
10
2
0
0
7
24
12
12
10
3
0
0
6
6
92
110
0
0
0
0
0
0
137
109
0
0
0
0
0
0
17
8
2
0
0
0
14
42
51
19
13
0
0
0
13
29
141
57
1
0
0
0
0
22
141
136
0
0
0
0
0
7
74
21
3
0
0
0
0
13
50
53
44
0
0
0
0
8
141
61
7
0
0
0
0
30
141
92
0
0
0
0
0
21
70
3
0
0
0
0
1
49
103
51
1
0
0
0
0
12
78
141
1
0
0
0
0
0
141
74
0
0
0
0
0
14
1
1
3
55
39
0
0
0
82
52
10
13
11
0
0
3
108
49
0
2
11
7
22
31
129
23
0
1
6
5
38
103
0
0
8
75
52
0
0
0
89
14
18
41
10
0
0
23
104
29
16
23
34
5
5
47
129
129
23
21
20
4
8
34
1
1
12
38
8
10
14
20
21
36
35
48
5
5
6
5
121
111
20
3
0
0
0
13
129
120
19
3
0
0
0
77
1
3
6
15
13
11
26
15
73
42
2
0
1
7
18
12
89
129
21
0
0
0
0
1
67
129
23
0
0
0
0
13
9
3
2
20
24
2
6
11
3
1
17
25
6
3
5
5
0
0
19
68
5
0
0
0
22
8
6
27
7
0
0
10
4
1
6
59
75
12
15
7
67
16
12
12
3
2
17
29
10
6
16
74
13
0
0
1
5
1
24
67
7
0
0
3
2
2
65
159
159
16
6
0
54
14
5
22
27
16
46
61
11
2
3
14
19
10
10
41
0
2
25
22
5
7
11
7
0
0
10
108
159
159
53
0
35
0
0
1
97
100
126
159
57
3
4
1
4
12
16
152
2
2
9
12
5
13
16
9
43
1
0
0
0
0
30
119
2
1
1
0
0
8
104
84
0
0
0
3
19
32
63
15
18
20
6
6
10
18
24
50
119
2
0
0
0
0
5
119
17
0
0
0
0
13
105
94
46
9
2
7
10
14
67
71
8
6
13
49
34
23
40
57
119
20
0
0
0
11
7
72
59
10
0
0
2
49
31
21
119
63
7
5
0
1
5
15
38
41
92
95
5
0
0
1
100
2
0
0
0
7
14
119
97
88
0
0
0
14
15
28
119
110
0
0
0
0
1
9
59
27
18
22
2
0
7
51
0
0
0
27
130
37
0
0
1
1
9
39
45
17
0
0
82
49
8
9
2
1
0
6
132
31
0
0
0
0
0
33
0
0
0
54
132
18
0
0
11
0
1
41
57
26
2
2
132
19
0
1
5
4
0
19
132
34
0
0
0
0
0
51
0
0
0
92
132
4
0
0
6
3
3
48
95
15
0
0
132
23
3
6
5
0
0
7
132
24
0
0
0
0
0
56
0
0
0
78
132
9
0
0
4
1
2
80
77
8
1
0
105
11
2
6
1
0
0
9
132
27
0
0
0
0
0
12
0
0
0
6
9
36
39
17
43
0
0
5
4
10
51
140
65
0
0
0
2
6
39
140
12
1
8
5
10
15
5
13
0
0
5
42
6
2
0
0
88
9
35
108
4
1
1
70
140
24
4
2
0
0
0
129
100
19
25
15
5
0
0
10
0
0
1
10
0
0
0
0
25
29
28
113
17
0
0
3
140
130
12
10
1
0
0
17
123
56
10
9
2
0
0
6
0
0
0
0
0
0
0
0
16
3
1
3
3
1
3
13
138
12
0
0
0
0
7
132
95
12
1
0
0
0
3
113
0
0
0
93
121
2
1
3
0
3
0
16
60
8
28
16
38
112
1
0
2
2
65
110
103
99
4
3
12
19
24
122
0
0
0
38
122
35
17
17
25
19
9
74
95
3
0
1
122
122
6
3
1
0
2
60
77
122
26
44
30
17
45
46
1
2
3
17
19
12
16
12
11
12
62
91
11
0
0
1
105
34
39
11
2
0
18
99
31
1
0
3
4
14
122
112
3
6
6
0
0
1
4
1
4
2
9
6
1
1
4
6
1
2
8
16
14
2
6
7
10
2
3
2
1
0
13
29
125
65
15
0
0
0
2
44
87
15
16
0
0
0
9
125
125
34
1
0
0
0
0
47
30
43
14
16
26
1
0
0
56
125
100
15
0
0
0
0
74
43
118
63
0
0
0
10
125
28
7
2
0
0
0
36
90
13
0
24
48
3
1
13
121
100
31
16
0
0
0
5
8
19
89
107
11
2
0
3
116
31
27
11
10
7
9
70
47
0
0
3
13
35
25
83
110
9
0
0
0
0
0
51
13
15
16
39
29
3
1
9
25
6
6
52
45
10
8
33
31
3
0
0
5
35
15
46
111
69
14
8
7
4
0
2
110
111
19
0
0
0
0
1
87
41
5
14
19
0
0
2
1
4
10
108
111
0
0
0
100
54
98
62
0
0
0
1
111
77
23
0
0
0
0
13
31
72
14
14
4
0
4
6
2
5
5
111
111
0
0
1
10
16
99
69
4
0
0
0
104
34
37
9
4
2
9
34
66
48
3
0
0
0
19
40
17
50
28
110
88
10
2
3
0
7
67
25
22
0
0
0
9
9
46
23
48
9
7
12
89
21
20
7
2
4
27
72
17
15
3
10
54
100
65
23
89
0
0
0
0
0
0
69
131
0
0
0
0
0
0
97
135
0
0
0
0
0
1
79
31
12
0
0
0
0
8
39
89
5
1
0
0
0
0
61
135
7
0
0
0
0
0
100
135
33
2
0
0
0
2
94
36
28
19
1
0
0
13
57
77
28
5
0
0
0
0
9
135
52
0
0
0
0
0
30
135
86
3
0
0
0
0
17
45
49
49
10
0
0
0
4
57
7
0
0
0
0
0
5
135
10
0
0
0
0
0
48
135
3
0
0
0
0
0
99
56
4
4
1
0
0
2
51
137
24
0
0
0
0
0
2
81
32
1
0
0
0
0
1
78
42
24
55
15
0
0
2
4
3
12
137
137
0
0
0
137
63
0
0
0
0
0
0
79
34
6
0
0
1
1
3
137
11
5
11
11
3
8
23
23
3
5
120
137
20
10
6
137
16
0
0
0
0
0
10
88
29
28
1
0
0
0
10
54
20
16
2
14
13
28
24
3
0
0
4
137
82
38
7
86
40
0
0
0
0
0
4
93
17
1
0
0
1
0
15
11
3
3
4
32
14
1
3
0
0
0
11
137
22
1
0
17
101
70
0
0
2
8
27
15
41
79
82
46
25
37
46
0
11
48
112
112
20
4
0
0
61
112
36
14
0
0
0
4
2
0
0
14
23
36
36
7
0
1
3
25
87
112
40
100
101
33
12
31
44
33
22
25
109
112
29
0
0
5
18
24
4
0
0
3
27
112
37
54
25
43
10
12
23
25
17
112
52
56
3
0
1
5
69
40
27
9
7
0
0
34
112
85
72
2
0
0
0
23
20
112
39
13
0
0
0
0
14
37
38
34
0
0
1
6
12
54
40
6
0
0
0
5
20
0
0
0
0
47
91
44
10
1
1
1
8
41
105
49
6
53
4
2
6
11
29
34
48
18
4
5
3
11
75
35
27
0
0
0
0
33
115
62
0
4
0
0
1
6
125
90
4
85
23
4
1
2
33
47
45
47
85
100
9
9
21
8
10
0
0
1
16
90
68
47
1
23
5
1
3
4
45
51
5
125
36
0
0
0
4
5
9
125
125
21
0
0
0
0
0
0
0
0
10
58
41
0
0
27
55
0
2
8
8
1
0
125
125
0
0
0
0
0
0
125
125
0
0
0
0
0
0
6
0
1
65
25
0
0
14
11
5
1
2
1
4
37
42
90
28
0
0
0
1
26
108
67
2
0
0
0
0
1
134
0
0
18
134
59
0
0
0
30
8
26
59
4
0
1
6
134
36
4
1
0
0
0
20
89
29
0
0
0
0
1
46
0
0
68
134
19
0
0
0
7
6
99
134
9
0
0
0
84
42
41
30
3
2
5
17
87
19
11
7
1
4
18
77
0
0
10
134
95
3
0
0
3
2
17
112
121
51
4
5
51
40
36
24
17
14
5
34
45
51
49
19
0
1
0
8
6
0
0
0
0
2
38
72
25
1
0
0
0
1
62
143
37
0
0
0
0
0
10
143
54
0
0
0
0
0
34
143
8
4
1
5
2
4
17
11
142
47
0
0
0
2
13
37
110
16
0
0
0
0
0
91
49
12
0
0
0
0
17
143
8
2
40
63
2
0
0
3
143
17
15
6
0
0
0
31
100
11
0
0
0
0
9
48
94
64
4
0
0
0
2
57
0
0
73
124
4
0
0
0
36
34
47
41
4
0
0
5
31
20
23
13
3
7
16
34
141
18
5
1
0
1
5
76
3
0
0
0
8
20
31
19
73
12
0
0
0
0
8
47
139
34
0
0
0
0
0
12
139
23
0
0
0
0
0
6
28
6
5
12
34
10
8
8
139
51
0
0
0
0
1
14
139
43
0
0
0
0
0
33
139
32
0
0
0
0
0
32
14
8
22
42
19
0
0
0
139
29
5
3
0
0
0
26
139
17
0
0
0
0
2
76
139
98
0
0
0
0
0
25
9
11
5
12
14
4
0
1
69
60
4
1
0
0
0
3
131
91
2
0
0
0
0
12
139
87
0
0
0
0
0
1
105
25
1
0
0
0
0
4
138
49
11
22
8
0
0
13
5
4
6
69
71
0
0
0
14
10
0
3
7
0
0
1
101
8
6
51
7
0
0
13
138
18
2
9
19
0
0
29
24
8
2
32
138
3
0
1
24
6
0
1
21
1
0
4
57
10
3
138
63
0
0
2
138
42
2
9
27
1
0
18
34
8
2
36
138
3
0
2
27
13
4
8
20
0
0
1
28
23
2
66
138
0
0
0
138
133
6
18
27
0
0
0
13
21
7
60
138
0
0
0
4
25
12
11
14
0
0
0
66
32
0
0
2
76
11
5
36
26
0
0
5
127
16
3
87
127
5
0
0
23
7
1
75
80
15
0
0
0
0
6
23
11
0
0
45
127
7
3
127
49
0
0
7
71
6
10
127
52
0
0
0
0
0
6
119
19
0
0
0
0
0
7
10
1
0
0
85
90
2
4
127
4
0
0
8
11
2
60
127
10
0
0
0
0
0
36
112
9
0
0
0
0
0
21
1
0
0
0
40
60
2
2
101
0
0
0
1
6
3
99
127
12
0
0
0
0
0
71
71
17
0
0
0
1
2
4
40
0
0
0
1
3
55
80
25
2
10
27
19
16
34
35
6
4
29
77
7
8
17
3
79
57
20
5
0
2
6
6
57
2
0
0
0
0
40
110
132
67
10
9
0
0
8
46
23
35
71
75
8
6
4
4
47
119
41
6
0
0
0
2
80
0
0
0
0
0
14
132
132
15
0
0
0
1
13
132
46
15
3
5
7
18
31
53
84
27
0
0
0
1
1
17
42
0
0
0
0
0
5
132
108
0
0
0
0
0
0
132
45
2
0
0
0
0
42
132
27
5
0
0
0
0
40
92
0
0
1
15
39
56
5
0
10
1
1
3
9
21
3
11
88
5
0
0
0
0
0
64
129
2
0
0
0
0
0
60
0
0
3
69
80
3
0
0
16
1
3
22
35
3
0
3
129
9
0
0
2
0
0
15
129
13
0
0
0
0
0
32
0
0
0
10
108
22
0
0
20
2
0
6
74
13
1
4
129
30
0
0
2
1
3
13
129
46
0
0
0
0
11
39
0
0
0
10
50
58
11
0
7
9
8
3
46
121
65
14
43
64
74
0
1
20
129
87
46
98
129
1
0
0
129
96
135
7
0
0
0
0
0
3
135
35
0
0
0
0
0
4
135
34
0
0
0
0
0
8
74
22
2
0
0
1
1
15
135
16
0
0
0
0
0
4
135
49
0
0
0
0
0
6
135
54
0
0
0
0
1
30
40
6
0
0
0
4
10
66
135
29
0
0
0
0
0
2
135
13
0
0
0
0
0
37
124
29
0
0
0
0
0
58
42
77
9
3
1
0
0
13
135
11
0
0
0
0
0
9
135
5
0
0
0
0
0
27
135
23
0
0
0
0
0
17
57
40
7
2
1
1
4
16
97
3
4
17
1
0
0
50
78
8
7
85
20
0
0
16
4
6
7
89
22
0
0
0
12
9
3
2
1
0
0
0
92
4
4
89
21
0
0
18
137
13
8
54
12
0
0
36
11
5
11
137
63
0
0
0
2
11
19
24
4
0
0
0
44
3
2
98
100
0
0
3
137
40
3
19
17
0
0
18
41
17
4
136
136
0
0
0
0
3
26
53
17
0
0
0
36
5
0
43
137
11
0
0
137
55
1
8
19
1
0
0
43
16
2
74
137
0
0
0
0
0
11
48
25
0
0
0
4
0
0
0
0
0
14
26
107
27
0
0
0
0
1
26
114
59
0
0
17
91
6
5
8
13
1
0
65
128
3
1
21
0
0
0
0
1
17
20
128
35
0
0
3
10
3
22
62
16
0
0
75
128
10
7
61
59
0
0
41
128
1
0
33
0
0
0
2
12
7
17
128
2
0
0
15
31
5
42
23
1
0
0
128
128
5
11
128
28
0
0
19
26
1
20
33
0
0
0
1
10
7
11
113
0
0
0
24
31
4
27
15
0
0
0
107
100
3
9
122
0
0
0
6
8
1
38
133
49
0
0
0
0
1
8
63
7
0
0
2
49
29
16
133
96
1
0
0
11
18
28
49
122
15
0
0
0
0
4
133
29
0
0
0
1
3
54
70
11
0
0
15
24
12
32
133
58
0
0
0
1
1
52
83
32
11
1
6
20
3
44
97
37
7
4
0
0
3
50
98
93
1
0
0
3
4
31
133
70
2
0
0
0
0
79
54
2
0
0
6
50
28
109
30
58
63
19
0
0
0
0
95
133
13
1
0
1
2
6
22
66
17
0
0
14
11
12
33
5
0
0
1
5
7
32
0
0
0
41
117
51
51
1
2
19
16
74
116
18
5
5
28
73
21
1
0
1
3
17
43
69
18
0
0
0
0
7
0
0
0
0
34
37
116
48
15
0
0
2
127
72
26
18
127
99
5
0
6
7
8
36
46
112
65
28
0
0
0
1
1
0
1
3
6
17
59
33
33
1
0
1
73
56
24
10
127
23
0
0
9
3
1
86
91
15
14
24
1
1
20
68
7
0
1
2
5
11
29
94
7
4
4
1
23
51
17
14
97
15
8
0
1
5
9
127
26
5
2
0
0
0
77
127
143
22
0
0
1
0
0
104
54
17
31
8
10
16
22
48
50
40
39
2
0
3
25
36
36
7
0
3
7
5
11
45
143
20
0
0
0
0
0
55
143
44
14
2
1
3
2
57
19
32
31
6
10
44
22
11
23
6
0
0
1
18
55
46
143
67
0
0
0
0
0
26
136
23
0
0
1
8
25
127
16
6
1
19
33
77
39
41
2
3
2
3
12
28
61
34
143
13
0
0
0
0
0
82
107
115
9
2
0
0
2
40
22
42
20
77
44
2
3
6
16
58
33
30
14
1
10
10
70
2
4
45
2
0
0
34
104
6
8
66
9
0
0
36
3
2
12
116
27
0
0
0
0
10
16
7
0
0
0
0
45
1
4
93
63
0
0
10
144
15
3
27
18
0
0
30
25
7
8
137
86
0
0
0
0
3
30
34
5
0
0
0
32
0
3
71
144
7
0
4
144
11
2
13
26
2
0
23
60
9
3
113
115
0
0
1
0
0
9
55
19
0
0
0
28
1
0
6
144
34
0
4
144
32
0
3
21
6
0
10
72
16
2
59
119
0
0
0
0
0
13
46
30
0
0
0
49
0
0
3
3
37
28
60
24
0
0
0
0
46
80
51
0
0
0
0
0
11
99
93
74
5
0
0
0
7
24
61
14
0
3
17
27
36
36
42
9
0
0
0
0
54
126
52
49
5
0
0
0
10
58
105
126
21
0
0
0
0
6
78
0
0
0
1
17
109
51
11
59
7
0
0
0
10
62
30
126
51
0
0
0
0
5
20
126
126
0
0
0
0
0
1
11
0
0
0
5
30
35
27
87
13
0
0
0
0
4
31
126
96
0
0
0
0
0
23
126
126
0
0
0
0
0
0
35
27
11
0
0
0
5
30
51
11
0
0
0
1
17
109
36
42
14
0
3
17
27
36
28
60
49
0
0
3
3
37
4
32
87
13
0
0
0
0
62
30
59
7
0
0
0
10
126
52
9
0
0
0
0
55
80
51
24
0
0
0
0
46
0
23
126
96
0
0
0
0
5
20
126
51
0
0
0
0
58
105
49
5
0
0
0
10
99
92
0
0
0
0
0
11
0
0
126
126
0
0
0
0
0
1
126
126
0
0
0
0
6
78
126
21
0
0
0
0
24
61
74
5
0
0
0
7
43
18
7
1
2
10
16
29
61
29
3
0
0
4
34
70
109
81
3
8
3
1
2
12
13
16
25
45
20
3
0
0
41
2
0
0
6
71
27
28
135
105
1
0
0
6
17
46
105
135
14
3
5
1
0
5
8
5
8
14
37
42
0
0
60
1
0
3
20
29
10
24
135
16
0
0
0
1
0
135
84
18
5
1
18
24
9
135
1
1
0
1
58
133
11
4
47
14
0
0
3
5
13
45
135
38
0
0
0
0
0
94
39
4
0
0
7
23
29
135
2
6
1
2
30
56
17
11
74
0
1
39
37
0
0
15
142
8
3
38
21
0
0
20
3
1
8
92
49
0
0
0
0
2
18
15
0
0
0
0
67
0
0
40
136
6
0
17
142
9
2
22
18
0
0
38
21
5
3
120
96
0
0
0
0
0
14
40
7
0
0
0
74
4
0
3
142
24
0
8
142
45
1
9
16
1
0
16
37
11
4
88
125
0
0
0
0
0
27
49
12
0
0
0
81
36
0
0
93
59
0
0
142
115
1
4
12
4
0
0
16
12
3
54
79
9
0
0
0
0
19
53
5
0
0
0
31
11
0
0
6
16
49
39
42
115
24
0
3
5
4
21
32
115
40
0
0
0
7
34
45
115
22
0
0
0
2
7
104
12
2
0
0
0
3
58
105
33
2
0
0
0
8
115
115
31
2
0
0
0
4
93
115
35
2
0
0
0
0
35
25
51
97
0
0
0
0
16
115
81
15
0
0
0
0
34
115
56
0
0
0
0
1
20
105
10
0
0
0
0
2
71
0
19
115
24
0
0
0
0
27
105
90
1
0
0
0
0
57
115
50
0
0
0
0
6
29
36
64
4
0
0
1
26
40
40
2
0
0
2
56
121
110
12
0
0
0
0
27
121
14
5
7
8
2
11
121
120
0
0
4
20
29
111
50
12
37
36
47
38
2
1
32
71
121
61
4
0
0
0
8
121
53
2
0
0
0
51
50
45
5
3
7
6
9
81
54
18
12
76
66
37
1
1
4
6
121
87
10
0
0
3
7
39
27
1
0
1
27
109
26
21
10
2
1
0
10
59
69
79
23
10
3
1
1
6
29
58
56
46
2
0
1
3
9
37
14
9
0
5
99
53
6
4
16
0
0
0
56
66
22
40
60
4
6
2
1
6
13
67
101
30
14
1
1
3
17
45
91
36
33
31
12
24
33
37
2
4
37
129
72
11
0
0
108
30
3
0
0
0
3
108
67
27
9
0
0
0
55
92
129
27
9
5
0
0
8
99
51
15
30
129
53
0
0
5
67
85
13
0
0
0
1
13
65
83
17
0
0
0
15
31
129
75
0
0
0
0
2
64
69
13
4
21
55
23
20
41
34
45
71
12
0
0
0
1
32
17
27
14
0
0
0
24
92
4
0
2
0
0
1
129
18
0
0
0
24
30
22
76
105
41
0
0
0
1
7
17
129
72
0
0
0
0
0
4
120
24
0
0
0
1
7
45
7
2
0
0
1
19
41
15
129
42
0
0
0
0
0
7
129
40
0
0
0
0
0
11
100
25
0
0
0
0
1
23
26
42
4
0
1
4
4
8
129
24
0
0
0
0
0
3
129
29
0
0
0
0
0
29
103
50
0
0
0
0
0
33
54
129
2
0
0
0
0
0
119
104
9
0
0
0
0
3
55
129
28
0
0
0
0
1
67
129
27
0
0
0
0
2
46
129
5
0
0
0
0
0
10
15
1
0
0
9
71
18
16
3
1
4
3
4
76
56
5
2
1
12
13
36
125
32
42
25
3
2
2
4
56
42
37
1
0
0
1
62
81
43
125
35
14
27
7
2
14
50
26
36
33
125
45
14
15
7
125
125
9
6
1
0
6
13
112
74
0
0
0
18
34
22
125
33
1
3
5
4
2
59
35
30
22
42
56
9
2
25
125
107
9
4
2
0
1
16
56
37
0
0
0
0
24
64
60
5
0
0
0
0
9
125
17
6
7
2
0
0
26
123
76
9
2
0
0
3
15
71
64
0
0
0
0
0
0
75
53
2
0
0
0
0
0
74
34
6
0
8
14
2
0
21
0
0
0
63
50
1
0
0
85
0
0
0
0
0
0
99
128
16
0
0
0
0
0
62
68
31
1
7
8
0
0
2
0
0
1
41
53
0
0
0
104
0
0
0
0
0
0
73
128
8
0
0
0
0
0
57
87
48
28
7
1
0
0
5
0
11
87
44
8
0
0
0
84
18
0
0
0
0
0
47
128
128
2
0
0
2
5
30
62
128
88
2
0
81
78
4
0
19
111
5
1
128
128
0
0
0
0
0
10
31
92
32
0
0
1
1
5
14
59
22
3
1
9
40
21
39
22
8
13
7
39
80
15
20
5
7
3
4
2
9
11
9
118
81
22
13
3
0
0
2
118
106
118
43
19
11
0
1
29
47
16
27
65
99
34
2
0
0
11
35
22
39
10
4
30
42
40
85
32
1
0
0
61
49
118
37
8
2
2
1
13
75
43
13
3
19
118
33
13
23
10
2
1
1
3
38
96
42
47
5
0
0
2
16
118
109
98
0
0
0
0
5
54
118
7
0
0
0
23
81
112
35
91
3
0
0
0
0
0
20
125
1
0
0
0
0
0
47
133
0
0
0
0
0
0
79
96
0
0
0
0
0
6
117
106
11
0
0
0
0
0
31
133
5
0
0
0
0
0
28
133
3
0
0
0
0
0
15
133
12
0
0
0
0
0
17
53
67
8
0
0
0
0
2
133
39
0
0
0
0
0
5
133
10
0
0
0
0
0
28
133
4
0
0
0
0
0
44
12
27
35
55
0
0
0
0
101
13
3
2
0
0
0
16
133
1
0
0
0
0
0
39
132
3
0
0
0
0
0
45
168
61
0
0
0
0
0
1
125
37
16
1
0
0
0
6
25
69
7
1
3
5
0
5
16
12
3
2
5
17
7
3
168
132
0
0
0
0
0
0
106
27
5
0
0
0
12
34
90
14
6
11
4
1
2
36
24
16
15
30
7
3
0
1
168
125
1
0
0
0
0
11
55
70
37
0
0
0
1
7
72
92
26
2
1
0
0
5
13
31
56
15
4
0
0
0
168
30
0
0
0
0
0
62
118
26
4
0
0
0
0
50
53
66
13
0
0
0
1
23
8
35
40
3
0
6
15
6
120
1
0
0
0
0
0
43
97
0
0
0
0
0
0
56
120
0
0
0
0
0
0
56
113
0
0
0
0
0
1
81
112
60
5
0
0
0
0
9
119
30
0
0
0
0
0
38
120
7
0
0
0
0
0
51
120
2
0
0
0
0
0
31
26
66
120
39
0
0
0
0
32
94
57
15
0
0
0
1
120
48
2
0
0
0
0
9
120
8
0
0
0
0
0
29
14
14
120
54
0
0
1
23
1
15
120
120
1
0
1
2
40
19
36
54
0
0
0
6
93
3
0
0
0
0
0
28
67
104
54
1
0
0
2
16
120
120
10
0
0
0
0
78
113
48
10
5
30
8
9
120
12
50
9
8
67
11
4
5
51
120
26
7
3
2
3
9
101
120
43
0
0
2
3
25
71
73
30
1
4
18
20
61
80
85
7
2
7
9
13
36
33
112
55
22
6
4
3
5
120
46
22
6
8
28
45
41
74
15
3
0
1
51
78
44
75
7
0
0
0
13
67
74
7
32
41
11
2
12
28
12
12
18
36
31
38
22
23
9
56
18
24
14
4
9
32
31
7
1
0
0
0
24
64
13
25
69
29
2
6
29
10
5
127
39
9
2
1
5
6
20
109
5
0
0
0
1
37
92
24
2
4
8
5
9
19
77
43
28
26
48
29
28
5
9
127
48
7
5
0
3
3
20
95
7
0
1
2
3
18
36
127
21
5
2
0
0
4
47
69
42
55
58
12
0
0
8
127
79
68
16
2
0
0
16
52
15
6
2
10
15
18
39
82
4
0
0
1
7
37
127
29
127
94
3
0
2
4
6
3
53
127
38
25
18
9
0
2
8
14
19
100
74
11
3
8
12
7
2
16
31
49
106
0
0
0
41
122
17
0
0
47
43
12
35
52
0
0
5
34
56
81
16
1
0
0
5
0
5
44
89
12
6
8
2
0
0
0
29
122
78
0
0
50
11
2
22
63
42
2
35
122
37
26
8
0
0
0
76
25
7
50
122
12
0
0
13
0
1
0
71
122
67
0
0
48
88
8
13
25
27
0
6
119
115
13
10
0
0
5
32
15
1
3
17
33
11
19
65
0
0
0
121
122
7
0
0
122
16
0
16
50
12
2
23
122
35
18
26
19
0
0
9
4
9
8
27
41
4
6
17
134
6
0
0
0
0
0
13
134
8
0
0
0
0
0
15
134
10
0
0
0
0
0
11
67
2
0
0
0
0
6
59
134
8
0
0
0
0
0
22
134
36
0
0
0
0
0
9
134
34
0
0
0
0
0
14
73
1
0
0
0
5
1
26
134
26
0
0
0
0
0
9
134
20
0
0
0
0
0
43
127
47
0
0
0
0
0
33
51
21
0
1
12
11
0
7
134
25
0
0
0
0
0
7
134
123
0
0
0
0
0
4
45
134
5
0
0
0
0
0
4
29
3
4
28
4
0
0
54
14
0
10
114
6
1
12
129
40
3
1
0
0
0
10
42
17
50
53
12
0
0
3
0
9
102
29
3
0
0
0
72
23
3
72
129
1
0
4
129
46
0
0
0
0
0
17
101
46
27
8
0
0
9
29
20
45
96
12
0
0
11
31
34
17
5
129
129
0
0
2
129
36
2
3
1
0
0
33
67
16
0
0
0
0
21
66
48
53
9
8
1
0
20
47
9
14
6
129
129
0
0
0
96
41
4
9
3
0
0
4
75
20
0
0
0
0
1
24
45
28
5
7
2
0
9
74
23
119
103
1
0
0
0
0
40
119
84
1
0
3
0
0
119
56
19
1
0
1
1
14
97
9
0
0
0
1
21
59
80
117
28
0
0
0
0
11
55
74
9
9
24
42
8
9
119
14
4
2
3
14
9
46
75
1
0
0
1
3
26
47
100
20
3
0
0
1
22
90
88
21
40
51
18
6
1
47
119
40
30
26
3
1
0
20
65
8
1
0
2
2
6
30
67
86
26
0
0
0
4
19
97
119
25
9
2
0
0
19
17
98
116
17
3
1
0
2
12
22
29
14
37
15
2
3
0
0
0
0
0
43
53
2
5
0
0
0
0
6
44
48
130
62
0
0
0
0
6
34
70
85
1
0
8
14
8
4
0
0
0
0
0
43
107
11
48
1
0
0
0
0
90
78
144
33
0
0
0
1
9
45
68
12
0
0
11
83
22
15
0
0
0
0
0
24
98
23
144
10
0
0
0
0
40
81
144
32
0
0
0
19
13
30
20
0
0
0
10
144
25
9
8
8
1
1
3
12
18
12
144
49
0
0
0
0
4
25
144
23
0
0
4
37
14
17
0
0
0
0
27
124
9
2
128
109
32
6
0
1
2
2
128
99
3
0
0
0
4
53
25
33
17
4
8
38
32
52
56
18
9
11
13
35
17
10
128
69
1
1
0
3
6
12
105
16
0
0
1
2
34
99
86
15
8
19
7
8
13
104
52
8
12
47
5
5
7
38
128
66
9
3
0
0
0
6
87
24
0
1
2
2
8
31
128
69
9
11
0
0
1
42
21
14
19
103
23
1
2
13
26
36
72
21
14
9
0
2
24
5
1
1
15
49
32
67
75
3
0
0
0
2
26
128
7
0
0
14
39
9
31
105
1
0
0
0
0
6
53
31
140
26
0
0
0
0
12
44
113
54
0
0
12
30
9
10
2
0
0
0
9
50
37
7
30
0
0
0
0
2
75
53
140
21
0
0
0
1
11
45
95
4
0
0
6
140
30
22
4
0
0
0
3
140
67
21
106
12
0
0
0
2
26
52
140
28
0
0
0
13
12
31
26
0
0
0
30
140
22
13
8
0
0
0
13
106
25
18
114
54
0
0
0
0
0
3
140
27
0
0
5
26
10
19
2
4
7
1
38
111
6
2
0
11
36
6
10
40
8
2
11
0
0
0
1
23
34
128
62
2
0
0
0
0
4
141
50
3
0
0
0
4
24
141
0
0
1
1
3
25
47
21
35
25
5
5
6
10
8
67
141
62
1
0
0
0
0
104
43
20
1
1
9
5
20
133
3
0
0
0
1
8
32
102
76
73
2
0
0
0
10
59
141
71
1
0
1
0
0
52
47
11
11
18
26
4
11
48
21
22
20
4
2
0
11
66
32
8
0
0
0
0
57
141
44
19
0
0
0
1
32
141
23
6
4
2
1
10
59
71
47
17
11
2
0
0
17
56
1
0
0
0
11
61
76
46
16
0
0
0
0
0
31
122
16
0
0
0
0
0
21
122
3
0
0
0
0
4
62
92
34
12
0
1
38
42
40
57
122
21
0
0
2
1
3
75
30
4
0
1
19
13
22
90
8
1
0
1
1
16
96
78
97
12
0
0
1
3
29
122
122
26
0
0
2
9
25
52
27
2
0
1
28
31
60
26
45
12
6
13
3
3
14
47
122
1
0
0
0
0
0
122
93
0
0
0
2
36
40
108
1
0
0
0
3
58
122
45
7
0
0
1
0
0
58
122
113
46
8
3
2
0
0
16
35
9
6
10
8
8
54
53
62
29
4
4
1
5
31
58
6
2
2
11
64
41
21
15
113
65
12
24
5
0
0
9
54
16
13
103
29
2
4
13
113
61
14
12
4
0
1
26
10
17
19
56
99
5
1
0
113
17
4
9
1
1
85
113
30
11
9
81
35
23
78
64
113
27
4
12
14
12
21
80
14
5
1
13
97
73
16
18
101
24
0
0
0
0
53
110
76
40
1
0
10
14
42
63
16
1
0
0
11
25
63
95
3
0
0
0
13
106
43
30
9
2
2
21
3
9
27
46
76
26
1
0
0
0
5
124
105
14
1
2
5
2
2
124
5
1
9
24
13
5
2
22
34
17
5
46
36
31
5
10
124
124
23
1
1
2
3
37
78
87
45
8
8
24
17
70
35
1
1
7
2
3
9
94
46
8
34
16
26
45
7
24
124
28
9
2
0
6
35
124
26
9
5
3
6
90
103
73
109
25
1
1
0
8
22
111
18
10
37
17
3
22
19
8
43
5
10
8
2
16
38
88
59
6
0
0
0
4
18
89
124
42
0
0
0
0
1
40
48
80
30
0
0
0
0
12
23
62
78
15
0
0
0
5
11
30
45
25
4
1
12
16
4
51
112
92
4
0
1
0
112
14
1
0
0
0
5
84
112
40
39
13
1
3
1
34
15
29
61
41
22
29
7
11
55
60
26
0
1
4
8
56
47
112
105
0
0
0
0
17
109
91
52
10
4
16
6
18
10
8
87
31
35
75
11
12
43
6
29
21
3
12
27
79
0
97
112
7
0
0
0
0
15
59
109
17
0
0
0
0
28
78
112
66
13
2
0
4
1
4
54
112
44
3
3
1
1
0
0
15
27
10
50
24
98
14
0
0
0
4
19
40
135
111
0
0
0
0
0
4
69
79
7
0
0
0
8
6
7
11
4
32
79
24
11
8
135
55
19
3
1
0
2
57
135
33
3
0
0
1
0
37
60
10
0
1
10
25
43
12
78
82
9
9
10
30
22
9
78
135
135
11
2
2
4
10
135
67
57
10
3
3
3
16
43
1
3
16
28
9
3
10
113
31
9
22
3
1
4
22
95
33
12
5
2
11
75
79
92
11
8
5
3
11
45
54
52
9
3
6
11
0
0
7
28
9
9
51
136
136
46
51
105
10
4
7
2
7
29
136
11
1
0
0
4
8
27
32
6
5
12
2
6
7
4
8
15
11
15
133
136
70
0
1
136
40
13
31
7
0
2
17
35
5
1
5
8
7
16
17
10
0
0
0
2
16
11
23
1
1
12
136
101
37
33
1
48
7
2
72
29
3
34
48
10
0
0
1
2
13
90
52
2
0
0
0
2
12
36
35
0
0
0
40
48
69
136
43
0
0
0
93
54
14
47
38
1
0
0
11
23
13
51
51
0
0
0
0
0
1
75
40
92
88
1
1
98
32
0
1
76
120
7
0
0
0
0
0
13
58
19
4
20
10
0
0
0
1
1
1
55
70
0
0
120
27
0
0
20
23
1
18
120
45
3
0
3
4
6
23
20
18
9
4
82
89
8
3
0
0
0
0
82
108
0
0
105
93
9
0
0
2
1
8
105
11
0
0
0
44
106
57
4
0
0
0
37
117
120
27
0
0
0
1
49
90
5
1
10
24
9
0
1
36
12
3
5
1
0
0
1
120
61
10
1
0
0
0
0
35
93
108
2
0
1
5
11
19
12
33
18
3
7
13
6
0
1
51
3
5
82
95
14
0
0
2
1
8
118
44
1
0
13
27
0
1
81
80
1
1
117
62
82
19
2
0
0
0
0
118
116
56
94
14
0
0
0
40
6
17
118
58
2
0
2
3
0
0
72
118
10
0
0
0
76
118
2
0
0
0
1
23
118
31
4
1
0
0
30
118
7
3
21
23
11
4
63
92
0
0
11
73
23
3
12
7
8
18
2
0
0
6
13
23
3
0
0
0
0
0
37
106
0
0
0
0
0
0
67
118
0
0
0
3
2
2
38
66
45
1
0
0
0
0
0
6
165
4
0
0
1
1
2
37
85
1
0
0
11
18
44
55
55
0
0
0
0
0
5
49
53
7
0
0
0
0
0
0
165
15
0
0
9
1
0
9
152
5
0
14
76
11
6
19
153
4
0
1
1
0
1
26
21
18
6
0
0
0
0
0
165
63
10
0
3
0
0
11
136
18
1
20
42
2
0
7
138
56
0
1
0
0
0
3
1
12
19
0
0
0
0
0
82
122
39
1
0
0
0
0
67
36
10
28
6
0
0
0
136
41
1
1
0
0
0
2
0
0
8
1
0
144
148
17
2
2
29
14
7
148
148
25
4
11
71
7
2
30
148
148
4
35
32
3
11
102
148
34
4
0
0
0
0
1
54
66
19
5
7
1
0
1
28
69
83
19
41
1
0
0
3
32
10
50
38
4
0
0
0
0
15
62
12
0
0
0
4
18
32
69
13
0
0
0
2
14
140
53
1
0
0
0
0
7
35
59
19
5
7
1
2
9
6
73
18
0
0
0
0
1
10
38
31
8
0
0
0
2
78
41
4
0
0
0
5
8
37
11
1
0
3
2
13
27
31
0
0
0
0
0
0
13
173
3
0
0
0
0
0
64
102
12
0
0
0
2
18
27
34
2
0
0
0
0
3
27
52
3
0
0
0
0
0
1
173
14
0
0
4
2
1
17
121
1
0
0
34
27
42
53
98
0
0
0
0
1
7
58
40
12
0
0
0
0
0
0
173
27
0
0
7
0
0
5
146
9
0
18
74
4
1
8
155
13
0
2
2
0
0
13
9
15
11
0
0
0
0
0
173
75
17
0
1
0
0
4
93
20
2
14
24
1
0
3
105
53
0
1
0
0
0
0
19
4
0
0
0
0
0
1
179
59
0
0
0
0
0
12
127
33
2
0
0
0
0
10
47
10
18
9
0
0
0
10
36
1
0
0
0
0
0
10
179
17
0
0
0
0
1
49
141
29
0
0
0
1
15
26
53
6
0
0
0
0
2
26
57
8
0
0
0
0
0
1
179
47
0
0
6
4
3
8
128
5
0
0
25
25
46
64
99
2
0
0
0
0
3
46
42
18
0
0
0
0
0
0
179
50
0
1
14
1
0
1
123
18
0
10
53
5
1
5
112
18
0
0
0
0
0
8
88
50
16
14
12
3
1
0
137
101
12
23
25
2
0
7
19
8
6
31
96
17
12
37
21
2
1
3
21
28
14
46
77
49
65
35
2
0
0
1
137
49
7
24
36
3
2
31
37
4
15
137
135
10
2
11
23
3
22
25
14
16
11
23
17
90
59
32
4
0
0
0
137
121
23
8
4
3
3
22
24
17
44
93
57
20
5
11
0
10
97
63
14
1
0
0
3
104
48
4
2
1
3
1
51
109
30
6
0
1
5
12
17
41
81
46
5
0
0
0
0
13
34
40
59
3
0
0
6
17
16
0
0
4
15
22
3
9
9
29
55
18
14
8
82
116
11
19
36
5
1
0
23
54
22
93
138
0
0
0
1
0
0
0
5
53
94
23
33
1
0
0
12
66
138
28
138
55
0
1
11
15
21
30
48
15
2
67
138
15
4
5
0
0
0
1
44
78
30
0
110
6
0
0
3
16
40
17
138
15
0
0
0
21
32
36
14
0
0
19
48
64
81
12
7
2
2
2
5
21
28
13
109
1
2
4
6
6
4
13
138
1
0
0
7
77
23
28
4
0
0
0
6
67
78
46
1
17
116
19
0
2
18
10
44
24
98
37
1
4
12
41
53
51
38
36
16
1
3
37
0
42
93
36
15
2
0
0
1
5
21
4
0
4
132
42
34
10
29
16
2
17
132
53
132
68
29
4
1
0
13
68
12
23
61
18
93
39
0
0
0
0
0
0
5
9
23
2
118
12
0
0
1
5
31
16
132
55
0
1
9
25
6
25
21
12
4
7
124
132
2
1
0
0
0
0
5
10
2
0
105
11
0
0
1
2
2
14
132
8
0
0
3
56
52
59
29
6
1
0
17
107
23
6
83
48
37
40
2
0
0
43
23
42
67
89
8
3
1
7
77
116
107
2
0
0
0
28
26
116
116
1
1
2
5
14
110
10
0
4
1
12
21
102
31
8
4
24
19
103
65
54
116
23
0
0
0
9
20
116
67
9
3
0
1
30
70
73
31
38
0
0
1
4
20
24
37
53
8
6
10
31
22
14
116
85
2
0
0
3
12
53
37
2
0
0
18
116
37
26
16
50
10
0
0
0
11
19
30
56
8
0
0
4
5
6
32
8
0
0
0
14
58
53
1
0
0
0
19
116
66
14
25
132
39
6
5
1
3
6
32
20
8
8
23
10
12
74
88
4
0
0
0
0
3
100
6
1
0
0
0
0
0
1
22
15
4
2
5
13
131
88
50
9
1
3
26
76
80
43
133
31
0
0
0
3
6
67
34
7
0
0
0
0
0
6
26
16
16
36
6
4
72
42
93
133
16
0
0
9
34
26
133
95
19
6
1
3
22
62
15
0
2
0
0
1
14
23
53
54
13
30
19
21
16
4
133
133
30
2
0
0
0
5
33
82
133
26
2
2
6
7
2
17
71
3
0
1
4
0
0
0
0
0
38
126
42
0
0
0
0
0
0
71
126
3
2
0
0
0
0
10
126
67
13
0
0
0
0
0
28
84
0
0
0
0
89
126
25
0
8
0
0
0
13
126
106
16
126
12
0
0
0
14
82
113
50
7
0
0
0
16
32
65
0
3
12
9
26
126
79
0
34
26
19
0
7
88
36
4
126
27
1
0
0
4
3
58
44
9
7
2
6
32
9
23
0
8
75
67
20
11
3
0
6
18
78
20
5
10
4
0
94
7
9
8
1
5
9
58
60
10
12
3
1
2
13
48
0
2
3
21
20
65
44
11
0
0
1
2
22
23
25
28
38
2
2
1
5
12
18
97
32
4
17
46
19
13
6
28
0
0
0
19
19
26
38
22
12
1
0
13
22
59
76
27
140
63
1
2
3
28
23
42
36
18
5
27
24
58
21
25
7
0
12
156
30
12
21
32
28
2
0
30
45
42
17
14
193
25
1
5
4
3
12
87
17
6
11
54
16
7
41
30
1
2
58
193
145
5
2
3
8
1
4
97
55
39
14
12
49
2
2
3
1
4
34
112
23
2
0
2
6
7
58
64
0
0
0
0
53
125
7
0
28
35
10
2
27
37
10
41
28
37
23
21
6
23
118
72
0
2
6
8
27
58
75
9
27
3
0
0
38
125
8
3
125
125
60
14
4
25
14
36
12
38
125
125
15
43
55
17
0
2
69
34
0
8
32
7
21
0
0
3
68
37
2
16
125
17
3
2
5
34
118
125
10
5
14
21
14
125
125
65
1
0
11
4
0
4
37
26
0
0
3
32
44
9
5
4
0
1
9
13
8
15
37
18
0
0
10
30
9
32
52
6
0
0
0
1
0
0
6
2
15
3
0
0
3
12
32
15
2
21
23
1
1
6
49
30
21
2
25
7
0
0
17
127
43
0
0
0
0
0
4
127
50
20
0
0
5
24
7
14
127
127
127
25
4
3
2
24
19
29
127
127
59
13
2
24
22
14
17
24
10
0
16
95
62
25
0
0
1
21
8
16
127
101
12
6
16
48
15
73
48
32
14
46
110
127
22
24
38
86
49
61
25
10
2
5
1
5
0
0
0
0
0
0
9
27
2
0
20
28
0
1
75
31
0
2
34
69
4
19
77
41
9
17
19
16
25
41
0
0
0
3
69
58
1
0
0
0
0
5
116
79
1
0
40
39
2
1
34
23
11
37
26
37
15
8
11
24
77
37
0
0
0
0
58
116
1
0
15
2
0
0
63
116
6
3
100
108
52
11
9
29
13
29
6
24
116
89
7
27
56
14
0
0
0
0
91
116
1
0
29
1
0
1
88
81
3
14
116
38
11
4
7
29
73
116
11
10
35
29
13
116
116
41
0
0
0
2
79
40
1
0
0
0
3
33
66
8
2
5
2
1
6
10
11
14
47
43
0
0
8
16
8
47
60
7
31
26
43
10
0
0
0
6
61
19
10
13
0
0
2
71
139
70
0
0
0
0
0
100
120
18
0
1
17
14
53
76
107
11
12
22
0
0
1
38
92
39
23
40
0
0
1
8
139
66
0
0
0
0
4
73
70
11
0
1
30
32
65
54
89
50
3
1
0
0
2
68
59
73
14
4
0
0
1
17
139
36
1
0
0
0
1
44
53
10
1
4
23
19
28
26
83
94
8
0
0
0
0
38
21
85
28
2
0
0
0
5
122
115
2
0
0
0
0
9
55
88
6
10
41
4
0
3
3
13
17
64
131
13
9
8
64
20
15
33
35
7
24
99
73
49
67
22
10
0
5
42
21
15
90
38
1
0
12
56
1
20
131
131
29
2
2
3
73
41
101
131
13
0
1
8
131
71
33
23
2
1
1
34
27
15
33
80
47
14
3
9
0
24
81
68
6
0
0
0
8
8
35
131
88
13
3
1
111
25
14
31
15
21
36
66
20
15
5
4
27
89
35
25
0
0
0
1
1
0
0
0
0
0
0
7
31
14
5
1
14
5
0
1
6
14
34
46
24
93
29
1
2
11
9
10
16
42
40
9
12
22
9
2
3
19
89
46
26
19
23
11
0
1
14
39
64
27
20
6
0
0
2
2
2
0
0
0
99
32
5
1
2
30
27
73
22
12
14
15
52
137
38
14
103
77
33
25
31
41
21
17
13
35
15
3
0
0
0
0
31
10
0
5
30
69
53
93
83
3
0
1
29
137
103
51
137
51
0
0
0
9
13
84
60
20
0
0
0
0
11
42
14
7
0
5
57
58
15
11
81
91
16
21
65
34
14
23
137
56
4
3
4
0
13
123
24
0
0
0
0
0
17
103
18
11
5
9
12
6
0
3
19
13
33
26
5
2
0
16
9
32
135
77
4
0
0
2
0
25
135
77
0
0
0
0
4
22
31
70
12
1
0
1
78
11
11
51
7
0
0
35
135
131
100
2
0
0
0
22
17
66
135
35
11
4
1
3
2
10
8
31
52
12
1
0
41
41
24
36
20
1
0
2
135
43
8
0
0
1
31
135
30
11
16
19
41
85
95
95
5
5
0
0
11
27
18
4
7
29
3
0
3
21
19
2
7
5
0
0
1
42
76
49
0
0
0
0
6
87
135
43
27
80
29
1
0
0
1
12
46
117
87
35
8
0
0
4
0
3
79
121
50
3
0
0
0
48
42
88
11
0
0
0
65
27
15
0
0
0
11
29
121
43
12
32
18
0
0
26
9
9
15
121
113
8
0
1
9
74
38
62
28
11
0
0
43
88
62
3
0
0
11
26
121
121
24
14
8
5
2
25
15
11
15
96
93
40
3
8
3
25
42
53
41
17
4
6
28
121
41
0
0
0
0
0
20
121
28
17
27
15
1
1
0
3
5
31
121
34
1
2
1
0
1
5
32
32
8
4
87
53
11
0
0
2
16
16
24
45
20
7
12
3
13
16
50
123
20
0
1
1
3
5
33
46
25
9
5
13
22
11
56
25
7
0
0
21
75
39
123
62
16
1
4
6
15
43
42
47
17
3
26
91
89
18
2
2
2
0
2
68
123
20
123
46
0
0
0
0
11
58
123
77
1
0
12
54
20
40
10
1
0
4
92
123
29
6
1
0
0
16
29
44
97
44
73
1
0
0
0
0
7
123
28
5
0
0
8
63
113
86
0
0
0
3
22
96
69
12
2
8
4
20
16
5
9
12
14
4
7
17
6
3
0
6
17
19
88
64
8
0
0
3
0
2
119
119
8
0
0
0
11
63
113
102
6
0
0
1
31
15
8
33
21
1
0
3
119
96
74
11
1
1
1
21
10
21
119
73
17
17
12
8
2
31
119
91
17
32
23
3
11
23
9
3
5
9
12
3
76
20
4
1
1
13
70
119
7
2
4
8
22
119
119
52
1
1
1
3
13
119
94
4
1
5
11
5
4
16
31
2
0
1
4
9
27
40
66
15
0
0
0
3
11
51
119
18
3
2
0
0
3
23
59
29
0
1
7
6
19
27
8
1
11
46
15
8
31
9
0
0
5
27
23
84
49
5
0
0
0
0
0
56
102
23
0
0
6
8
22
7
3
4
12
16
67
125
59
14
5
2
2
10
8
55
67
125
31
6
1
2
0
0
12
125
125
4
0
0
12
1
3
6
5
12
36
54
121
21
2
2
2
10
73
125
16
6
7
49
28
38
111
69
3
2
42
125
84
15
23
15
0
0
0
4
44
53
21
12
11
0
0
0
2
9
69
125
6
1
0
0
1
11
125
83
3
4
7
5
8
25
94
54
26
20
56
43
1
0
6
66
7
15
128
65
15
1
3
10
18
31
42
43
23
5
10
4
0
1
8
52
33
6
3
1
32
3
3
0
0
3
49
128
104
22
34
38
18
3
20
117
7
8
48
128
40
1
3
1
0
1
11
55
66
9
2
0
109
74
3
0
0
9
23
39
128
52
3
3
3
0
1
53
34
18
50
104
47
8
2
11
0
0
19
126
108
8
0
0
79
74
5
0
0
0
0
5
128
18
0
0
0
1
14
67
35
8
7
7
22
58
88
39
0
0
2
27
66
45
10
1
0
161
177
39
104
177
8
0
9
26
29
12
99
177
9
2
59
8
0
0
3
21
22
29
51
1
0
0
0
0
5
35
7
22
11
3
33
177
108
3
64
27
2
0
10
116
14
7
38
32
13
0
0
0
0
10
28
2
1
0
0
0
1
55
33
5
0
0
0
64
36
25
102
16
0
0
0
0
1
25
47
10
11
3
0
0
0
21
21
7
8
8
0
0
0
8
42
0
0
0
0
0
0
39
63
2
0
0
0
0
0
47
59
4
0
0
0
0
0
28
12
8
2
3
0
0
1
9
0
0
0
0
0
0
0
0
0
0
0
0
0
0
0
0
0
0
0
0
0
0
0
0
0
1
2
0
0
0
0
0
0
0
0
1
0
0
0
0
6
5
5
14
1
0
0
0
60
14
12
38
0
0
0
9
4
43
131
68
0
0
0
0
15
0
31
131
22
0
0
4
8
38
131
131
5
0
0
0
88
131
131
37
0
0
0
7
8
31
131
66
0
0
0
0
40
13
64
131
18
0
0
18
2
19
131
131
1
0
0
0
0
48
131
95
0
0
0
0
0
62
131
4
0
0
0
0
31
1
0
0
0
0
1
146
129
16
0
0
0
3
11
128
50
2
0
0
0
1
21
125
116
28
0
0
0
0
9
146
19
3
0
0
0
0
0
13
73
21
0
0
0
69
65
31
107
8
0
0
0
29
81
146
146
30
0
0
0
0
2
88
0
0
0
0
0
0
0
0
5
1
0
0
0
7
6
4
146
43
0
0
0
3
7
40
146
80
0
0
1
10
4
28
0
0
0
0
0
0
0
0
0
0
0
0
0
0
0
0
15
8
0
0
0
0
0
0
51
58
0
0
1
52
24
4
0
0
0
0
0
0
0
0
84
56
4
0
0
0
2
8
137
110
6
0
0
0
5
17
137
32
0
0
0
0
0
11
0
0
0
0
0
0
0
0
5
26
3
0
0
1
46
15
134
54
4
0
0
1
80
129
137
62
1
0
0
0
0
29
0
0
0
0
0
0
0
0
5
24
6
0
0
0
5
5
137
137
15
0
0
0
7
30
137
137
9
0
0
0
0
9
0
0
0
0
0
0
0
0
0
15
4
0
0
0
0
0
20
137
68
0
0
2
20
2
64
137
10
0
0
9
25
36
3
1
4
29
93
45
0
0
11
21
48
49
46
21
0
0
101
98
16
5
20
1
0
0
9
12
5
58
137
20
0
0
0
0
6
82
62
2
0
0
24
3
6
49
121
24
0
8
137
10
1
2
40
18
0
23
14
0
0
9
137
85
0
1
0
0
14
94
41
0
0
0
10
15
18
137
96
3
0
1
97
43
13
14
47
16
1
12
6
0
0
1
137
70
0
1
0
0
1
37
20
0
0
0
0
1
3
102
86
0
0
0
7
4
7
26
44
9
3
13
0
0
0
29
137
14
0
1
18
13
10
2
0
0
0
0
168
80
0
2
32
0
0
0
51
18
0
16
168
2
0
0
0
0
8
18
41
0
0
0
41
13
5
10
1
0
0
0
168
59
0
5
49
6
0
6
53
9
0
32
168
24
0
2
0
0
2
16
52
2
0
0
41
5
3
18
4
0
0
1
168
8
0
0
25
51
13
75
21
0
0
2
168
168
10
18
0
1
2
3
29
10
0
0
14
0
1
9
6
0
0
2
88
1
0
1
21
23
7
53
2
0
4
7
78
50
4
7
0
2
14
4
3
1
0
0
7
1
0
0
0
4
14
6
96
35
6
20
9
0
2
11
10
11
5
71
74
0
0
2
6
0
0
1
5
0
1
11
34
8
0
0
0
2
2
2
165
127
10
30
23
0
0
7
26
34
10
118
165
1
0
1
1
0
0
4
36
2
6
18
37
1
0
0
0
1
2
19
165
13
0
5
38
1
0
93
61
4
0
30
165
5
0
19
0
0
0
1
65
8
6
5
11
0
0
0
0
0
12
15
165
0
0
0
19
2
1
75
71
0
0
1
165
21
0
20
0
0
0
0
57
14
7
0
65
5
0
0
0
0
0
65
127
5
0
0
0
0
0
39
62
21
1
0
0
0
0
20
30
41
4
1
0
0
0
0
110
0
0
0
0
0
0
143
143
31
1
0
0
0
0
46
95
48
14
0
0
0
0
6
82
17
9
2
0
0
0
5
143
1
0
0
0
0
0
69
143
8
0
0
0
0
0
35
101
30
16
0
0
0
0
19
64
29
7
0
0
0
0
10
143
0
0
0
0
0
0
94
143
0
0
0
0
0
0
115
140
12
1
0
0
0
0
42
41
39
4
0
0
0
0
7
23
70
76
7
1
2
3
1
119
85
3
1
8
0
0
2
53
13
0
11
74
15
5
14
54
3
0
1
2
1
5
60
16
21
37
7
4
31
119
58
119
50
2
0
12
9
15
98
49
9
0
6
100
61
16
11
67
27
0
1
3
5
20
45
88
80
0
0
1
5
21
23
119
119
0
0
2
75
30
42
32
104
1
0
12
119
23
6
69
119
0
0
2
11
12
7
77
66
9
0
0
0
1
19
61
68
3
0
0
24
21
31
45
119
2
0
1
15
5
1
17
36
0
0
6
27
22
3
11
3
2
1
15
121
47
11
121
4
0
0
3
10
43
121
77
6
0
0
89
53
18
38
121
11
0
0
11
2
0
21
9
0
0
8
17
30
0
6
108
2
0
0
0
2
23
121
110
12
0
0
7
22
58
121
121
7
0
0
5
7
1
22
0
0
1
21
11
0
0
0
110
31
1
4
1
0
0
18
121
98
2
0
0
0
2
22
86
30
1
0
10
60
16
11
0
0
1
15
10
0
0
0
106
26
1
3
1
0
2
9
121
19
0
0
0
6
67
30
5
1
0
0
12
121
59
8
44
0
0
0
0
0
4
122
17
14
9
3
1
10
25
72
4
74
13
2
18
27
9
1
54
62
9
2
2
0
0
4
122
22
1
0
0
0
2
90
122
72
16
0
0
2
7
51
13
116
48
1
2
21
23
4
34
37
13
4
7
11
8
6
87
122
27
0
0
0
0
5
122
101
16
2
1
5
3
45
37
80
53
13
9
45
32
16
30
122
49
5
0
5
9
4
67
122
43
0
0
0
0
1
47
122
36
1
0
0
0
0
23
122
98
6
1
1
1
7
20
77
27
2
9
13
3
8
43
5
0
0
0
0
0
7
137
106
8
0
0
0
0
4
11
60
25
80
27
1
0
0
0
0
3
119
67
0
0
0
55
20
22
0
0
0
0
3
137
61
8
6
1
0
0
10
49
27
12
84
58
4
0
2
2
10
38
114
58
2
0
0
12
53
137
29
0
0
0
0
137
57
106
32
0
0
0
39
88
12
8
100
22
0
0
31
8
7
14
122
12
0
0
5
10
18
82
29
1
0
0
11
34
19
65
79
10
0
0
4
94
22
17
27
1
0
0
12
3
1
16
118
15
0
0
3
74
3
0
0
0
0
0
18
69
37
4
0
0
0
0
17
81
36
2
1
2
0
0
16
9
41
16
8
9
0
0
2
147
41
0
0
0
0
0
43
147
47
1
0
0
0
0
54
73
80
1
0
0
0
0
7
40
69
8
1
0
0
0
2
147
42
0
0
0
0
0
10
147
32
0
0
0
0
0
38
124
96
3
0
0
0
1
35
29
97
23
15
0
0
0
4
147
29
0
0
0
0
0
37
147
72
0
0
0
0
0
3
147
76
2
0
0
0
1
23
27
19
16
18
0
0
7
34
11
102
50
2
0
0
1
16
9
122
38
1
0
7
16
6
22
88
5
0
0
16
62
12
13
18
0
0
2
25
60
9
11
9
2
0
0
8
142
94
20
23
7
0
0
40
142
47
124
56
3
0
0
45
142
48
32
76
12
0
0
5
33
12
0
0
0
0
0
15
109
11
99
2
0
0
0
6
115
49
142
49
0
0
0
6
18
83
53
35
2
0
0
15
19
18
0
0
0
0
0
2
1
0
32
0
0
0
0
0
0
20
142
6
1
0
0
0
0
97
34
16
4
2
3
4
4
27
0
0
0
0
0
0
0
2
104
11
0
0
0
0
0
13
143
97
12
8
2
0
0
7
2
18
12
99
51
2
0
0
0
20
36
0
0
0
0
0
112
50
104
3
0
0
0
4
143
52
20
23
7
0
0
35
17
6
8
120
42
2
0
6
0
93
143
6
1
0
0
1
18
78
143
55
0
0
0
6
143
49
121
58
3
0
0
43
61
12
21
92
7
0
0
15
5
27
35
16
5
2
3
5
20
17
51
37
3
0
0
14
35
12
31
77
13
0
0
5
61
10
13
19
0
0
1
23
76
26
0
0
9
65
35
21
88
45
0
0
5
30
28
14
83
131
2
0
7
9
4
2
31
54
0
0
0
0
0
2
132
66
0
0
2
31
26
38
132
73
0
0
1
32
40
45
125
99
0
0
0
0
11
47
23
7
0
0
0
0
1
18
132
7
0
0
14
28
29
132
113
19
2
4
12
16
64
132
66
3
0
0
1
2
77
132
41
1
0
0
0
0
0
25
32
3
0
0
0
0
29
132
25
12
4
7
6
4
15
39
10
0
0
0
2
2
11
31
3
0
0
0
0
0
0
1
126
126
13
0
0
3
63
43
23
124
60
0
0
1
36
28
20
102
34
0
0
2
30
28
0
22
68
7
1
21
13
2
126
107
6
0
0
15
22
41
88
126
27
0
0
10
34
37
27
126
112
0
0
0
17
20
1
93
115
0
0
2
3
1
98
41
15
4
6
6
4
21
126
54
8
2
5
8
9
113
126
69
19
0
0
0
0
38
15
27
10
0
0
0
0
0
0
0
0
0
0
0
0
0
37
12
0
0
0
0
1
8
35
37
0
0
0
0
0
1
3
8
2
0
1
6
0
0
0
0
0
0
0
0
0
0
0
0
0
0
0
0
0
0
0
0
0
1
0
0
0
0
0
8
21
51
0
0
0
0
0
0
0
0
0
0
0
0
19
2
0
0
0
0
0
2
135
27
20
12
0
0
0
13
16
48
117
107
0
0
0
0
7
3
7
24
0
0
0
0
164
52
7
6
0
0
0
7
164
55
14
7
0
0
0
43
115
64
72
72
6
0
0
12
2
5
59
164
0
0
0
0
98
69
72
71
0
0
0
3
164
22
4
0
0
0
0
54
164
73
20
6
1
0
0
28
1
0
0
0
34
110
140
34
9
0
0
20
33
89
140
68
5
3
2
19
33
61
34
16
6
25
2
0
1
9
18
5
20
6
0
0
12
140
74
11
140
54
0
0
0
111
140
140
100
31
7
0
1
11
16
34
6
26
4
0
1
7
15
7
16
8
0
0
0
8
2
0
140
64
0
0
0
4
2
58
102
26
4
0
2
11
19
66
10
43
13
0
3
15
19
8
0
0
0
0
0
0
0
0
10
14
1
0
0
0
0
0
14
45
45
0
0
0
3
3
11
137
34
0
0
0
1
0
24
8
0
0
0
0
13
27
88
23
0
0
0
0
0
13
146
46
0
0
0
0
0
10
146
51
0
0
0
0
0
0
62
53
0
0
0
0
3
7
97
33
0
0
0
0
0
25
146
51
0
0
0
0
0
22
146
72
0
0
0
0
0
5
52
12
0
0
0
0
0
18
98
11
0
0
0
0
0
38
146
33
0
0
0
0
0
44
146
26
0
0
0
0
0
48
5
0
0
0
0
0
0
2
40
0
0
0
0
0
0
45
146
6
0
0
0
0
0
108
146
11
0
0
0
0
0
112
89
13
0
0
1
3
15
19
152
54
0
0
0
0
0
4
131
47
0
0
0
0
0
8
67
2
0
0
0
0
0
58
152
45
0
0
0
1
3
6
152
52
0
0
0
0
0
7
132
20
0
0
0
0
1
25
60
3
0
0
0
0
2
40
130
98
0
0
0
0
0
0
152
49
0
0
0
0
0
40
96
5
0
0
0
0
6
80
59
17
2
0
0
0
0
21
50
93
0
0
0
0
0
0
135
71
0
0
0
0
1
6
76
7
0
0
0
2
7
46
73
7
3
0
0
1
2
32
132
39
1
0
0
0
0
8
132
25
0
0
0
0
0
29
118
29
1
0
0
0
8
69
13
7
3
2
6
5
23
25
88
64
30
2
0
0
1
6
132
71
0
0
0
0
0
25
78
72
2
0
0
0
15
35
39
10
1
0
0
1
19
30
71
15
6
1
0
0
9
44
132
13
0
0
0
0
7
132
20
6
0
0
0
1
103
132
3
0
0
0
0
12
132
38
28
17
10
0
0
0
19
29
38
1
0
0
0
0
26
104
2
0
0
0
0
27
124
77
0
0
0
0
0
62
132
3
142
19
0
0
0
0
0
14
142
2
0
0
0
0
0
58
17
4
6
14
7
3
1
14
0
1
13
43
10
0
0
0
142
61
0
0
0
0
0
9
142
22
0
0
0
0
0
28
55
48
12
2
0
0
0
6
3
16
30
59
3
0
0
0
142
52
0
0
0
0
0
6
142
62
1
0
0
0
0
26
112
51
3
0
0
0
0
25
14
40
40
20
0
8
10
1
142
30
0
0
0
0
0
4
115
114
12
0
0
0
0
1
74
51
8
0
2
31
1
6
22
6
1
0
10
142
104
7
0
1
17
64
18
0
0
0
30
20
11
69
8
0
0
2
125
96
15
1
0
0
1
12
125
125
14
0
0
0
1
45
16
8
6
38
19
2
3
8
23
14
12
89
20
0
0
1
125
30
5
6
2
2
8
40
125
52
3
1
1
1
10
82
36
10
2
22
44
35
26
77
8
4
16
57
13
4
12
11
89
58
16
14
1
1
2
12
125
85
2
0
0
0
0
54
125
77
9
5
10
46
27
86
24
25
16
34
11
5
17
12
120
68
2
2
1
1
5
3
113
119
0
0
0
0
0
7
0
0
0
0
0
5
124
74
10
0
0
1
52
48
124
82
7
15
23
90
124
40
6
3
124
105
30
36
12
0
0
6
37
7
0
8
5
17
124
26
124
54
7
12
10
7
64
103
20
33
62
97
48
31
23
10
16
75
32
7
1
8
38
4
38
9
19
65
16
1
0
10
124
27
10
2
0
9
54
124
7
3
3
8
7
78
124
44
0
0
0
0
0
7
75
44
2
6
26
22
7
3
2
0
8
16
23
6
0
1
8
10
1
2
3
5
0
3
25
12
0
0
0
0
0
1
25
28
1
16
7
1
37
18
0
0
15
0
2
1
63
97
43
45
125
24
20
12
7
5
17
66
11
22
147
35
8
0
0
0
3
2
0
19
75
6
4
9
46
5
2
109
147
36
19
69
147
30
3
9
11
3
6
128
74
17
27
5
0
0
0
8
9
0
0
11
14
0
4
19
29
37
43
147
120
0
0
5
147
140
40
42
9
0
0
16
64
3
0
0
0
0
8
36
7
0
0
0
0
0
8
35
7
10
21
24
1
0
4
24
50
37
17
6
0
0
4
27
9
0
0
0
0
0
25
33
98
122
0
0
0
14
20
3
12
9
0
0
6
68
85
7
39
8
0
0
9
46
29
57
41
7
0
0
0
0
6
47
24
29
0
0
4
124
69
4
14
7
1
0
1
124
124
22
124
18
0
0
0
30
47
97
53
8
0
0
0
0
0
18
4
9
2
1
24
107
99
28
22
124
33
2
12
54
37
6
122
124
23
0
0
2
4
13
13
1
0
0
0
0
0
0
124
38
0
0
1
6
51
96
76
124
10
0
0
0
0
3
1
34
4
0
0
0
0
0
0
0
0
0
0
0
0
0
0
5
107
125
28
0
0
0
34
63
49
75
33
3
5
30
125
33
2
7
2
0
2
93
36
5
17
125
40
0
0
12
0
0
0
71
54
0
0
0
30
4
11
125
125
1
2
11
125
36
11
11
12
0
1
51
114
30
7
52
5
0
0
16
0
0
0
5
7
0
0
0
4
5
113
125
48
0
0
0
111
62
125
52
3
0
0
15
91
26
13
4
0
0
3
52
0
0
0
0
0
0
0
0
0
0
18
19
0
0
0
0
2
20
96
35
0
0
0
0
9
31
54
31
2
0
2
13
5
1
0
0
30
97
6
2
99
0
0
0
12
35
4
35
134
16
0
0
0
0
0
27
101
22
0
0
0
0
0
3
0
6
12
4
26
78
6
0
81
21
50
0
1
14
4
42
134
34
5
0
0
0
0
56
92
20
0
0
0
1
10
12
23
78
41
18
16
2
0
2
36
115
134
10
5
4
1
5
134
76
52
4
4
18
52
33
30
0
0
0
0
44
134
37
54
19
2
1
1
1
0
31
48
20
17
8
21
24
14
72
1
1
8
34
52
80
53
5
0
10
33
17
21
131
124
2
60
16
3
0
0
0
0
9
134
46
0
0
0
0
0
40
103
11
0
0
25
25
14
76
0
0
0
17
134
107
9
7
96
10
1
1
0
2
3
16
134
41
0
0
0
0
0
16
93
42
8
10
11
3
3
14
8
13
24
134
134
7
1
1
75
13
3
18
6
0
0
6
134
8
0
0
0
0
0
30
134
17
2
0
0
0
0
18
72
14
19
134
39
3
2
26
38
18
1
18
39
0
0
0
134
14
0
0
0
0
0
15
113
20
0
0
0
0
0
20
34
10
0
5
28
16
11
26
57
1
0
0
1
3
7
23
148
2
0
0
0
0
0
33
148
12
0
0
0
0
0
27
90
42
4
0
0
0
0
3
75
11
6
10
4
0
0
11
148
6
0
0
0
0
0
59
148
44
0
0
0
0
0
30
135
65
3
0
0
0
0
7
39
18
4
7
9
0
0
4
148
34
0
0
0
0
0
14
148
21
0
0
0
0
0
23
133
4
0
0
0
0
0
31
27
0
0
0
12
3
1
19
137
6
0
0
0
0
0
27
148
14
0
0
0
0
0
37
81
0
0
0
0
0
0
52
142
16
0
0
0
0
0
7
142
38
0
0
0
0
0
10
57
77
12
9
3
0
0
5
1
10
25
39
17
0
1
0
142
6
0
0
0
0
0
20
142
28
0
0
0
0
0
6
113
28
1
1
1
0
2
19
7
52
31
8
2
0
0
1
142
59
0
0
0
0
0
1
142
71
4
0
0
0
0
18
112
22
6
0
0
0
0
58
58
37
4
4
3
0
0
6
142
108
0
0
0
0
0
0
104
142
26
3
0
0
0
0
49
33
47
13
0
0
0
5
75
9
1
3
5
1
1
12
133
0
0
0
0
0
1
100
88
29
2
0
0
0
6
51
101
17
3
0
0
2
8
39
10
2
0
0
1
23
29
16
146
12
0
0
0
0
0
84
146
91
13
1
0
0
0
12
24
39
27
24
24
6
13
15
6
0
0
6
7
9
35
24
146
8
0
0
0
0
0
94
146
17
0
0
0
1
2
88
21
3
1
13
30
18
7
34
0
0
0
10
44
20
14
4
146
2
0
0
0
0
0
91
146
0
0
0
0
0
2
130
34
0
0
0
11
16
2
51
0
0
0
0
54
46
1
0
36
21
4
10
47
20
2
8
67
66
94
4
0
0
0
12
3
45
121
27
0
0
0
0
0
0
121
92
0
0
0
0
38
27
49
13
12
25
5
19
121
77
23
0
0
0
1
41
42
23
75
18
6
0
0
4
2
4
80
39
1
0
0
1
54
46
73
6
1
2
9
48
110
54
25
2
1
4
8
60
60
14
26
5
0
0
22
93
5
8
74
23
4
2
25
29
30
1
0
0
0
3
102
121
10
0
0
0
0
10
121
115
17
4
0
0
0
10
121
104
13
12
3
1
1
7
100
88
41
0
0
0
1
4
33
102
127
14
0
0
0
0
5
127
47
7
0
0
4
15
54
127
4
3
0
0
12
19
17
25
127
51
6
0
0
0
8
74
127
64
1
0
0
2
5
38
54
29
0
0
1
42
42
52
3
0
0
0
0
4
62
83
126
127
65
6
2
0
0
0
106
40
37
18
19
7
50
70
22
0
0
0
1
43
117
70
4
0
0
0
1
15
55
35
127
63
16
7
11
12
6
37
2
3
11
33
83
22
12
6
21
0
0
6
13
9
47
50
5
0
0
0
0
1
42
47
121
0
0
0
0
0
0
26
118
6
0
0
0
0
0
18
109
39
0
0
0
0
0
3
24
37
9
12
6
0
0
0
133
0
0
0
0
0
0
34
133
2
0
0
0
0
0
32
133
27
0
0
0
0
0
11
49
29
8
10
14
1
0
4
133
18
0
0
0
0
0
4
133
9
0
0
0
0
0
10
133
32
0
0
0
0
0
9
51
15
0
5
12
6
4
7
58
11
0
0
0
0
46
61
81
2
0
0
0
0
115
90
83
5
0
0
0
0
133
112
12
4
0
0
1
62
133
24
0
0
4
22
75
54
31
3
28
32
6
27
117
21
0
0
33
62
97
10
0
0
0
0
0
45
117
34
0
0
0
0
0
0
2
13
67
86
13
1
51
15
14
14
38
57
8
26
117
77
49
1
0
0
2
51
26
36
117
14
2
0
0
1
7
3
14
22
52
40
55
27
39
61
117
22
7
10
4
21
117
107
37
1
0
0
0
33
65
17
25
10
2
0
0
27
22
0
0
0
0
11
116
116
85
18
19
1
1
4
47
117
36
9
10
2
2
10
48
77
27
2
2
0
0
2
69
98
0
0
0
0
3
34
43
12
38
0
0
0
0
11
30
44
147
9
0
0
0
0
1
53
147
3
0
0
0
0
0
38
2
0
0
0
24
43
22
10
82
2
0
0
0
2
8
68
147
16
0
0
0
0
0
33
147
3
0
0
0
1
1
35
9
1
0
0
48
37
19
18
145
33
0
0
0
0
5
37
147
55
0
0
0
0
0
10
147
11
0
0
0
0
1
42
25
11
3
13
50
7
2
3
147
43
0
0
0
0
0
7
147
73
0
0
0
0
0
3
84
81
11
0
0
0
0
2
7
0
0
0
2
8
1
10
61
0
0
0
0
0
0
37
132
0
0
0
0
0
0
39
140
0
0
0
0
0
0
40
12
0
0
6
8
1
0
1
96
1
0
0
0
0
0
10
140
14
0
0
0
0
0
16
140
18
0
0
0
0
0
9
10
0
0
1
19
6
3
4
76
7
0
0
0
0
9
25
140
18
0
0
0
0
24
70
92
15
0
0
0
0
80
93
7
40
18
0
5
41
25
6
12
139
140
0
0
2
29
39
7
99
140
12
0
0
31
47
0
3
140
27
0
1
93
38
1
0
56
105
0
0
0
0
77
5
13
69
1
0
0
26
81
8
11
76
5
0
0
18
1
4
12
65
7
0
0
0
0
0
32
136
3
0
0
0
50
2
6
136
60
0
0
6
136
19
5
44
22
0
0
13
7
4
12
103
43
0
0
0
0
0
19
82
17
0
0
0
37
1
4
84
136
14
0
3
136
23
2
23
42
4
0
8
22
8
3
89
77
0
0
0
2
0
4
10
38
27
1
4
44
14
0
4
136
87
0
1
136
90
2
9
30
7
0
2
18
12
4
63
71
0
0
0
38
0
0
0
0
3
29
116
7
1
0
0
1
43
54
47
67
96
7
0
3
43
15
4
17
88
66
10
0
0
0
0
104
23
1
0
0
0
6
89
49
20
17
0
0
24
34
37
116
82
7
0
0
4
4
49
49
32
32
27
0
0
5
45
79
93
18
6
0
0
0
4
70
115
97
0
0
0
1
4
95
67
115
0
0
0
1
60
59
38
23
0
0
0
7
93
27
81
51
16
0
0
0
0
79
116
10
0
0
0
0
0
29
116
90
0
0
0
0
0
10
76
81
5
7
9
1
1
152
10
0
0
0
0
0
32
90
18
0
0
0
0
5
27
64
32
1
0
0
0
3
38
63
25
2
4
2
2
0
10
152
21
0
0
0
0
1
20
100
5
0
0
0
20
33
38
152
80
0
0
0
3
10
48
52
90
5
8
4
2
0
1
152
5
0
0
0
0
2
39
99
2
0
0
0
16
17
45
152
35
0
0
0
1
2
79
42
22
1
0
11
46
10
37
146
33
2
0
0
0
0
33
92
39
0
0
0
0
3
40
123
39
0
0
0
0
2
69
18
1
0
0
3
33
24
57
0
0
0
0
24
23
51
2
51
3
0
8
144
22
4
7
144
17
0
3
29
8
1
34
8
1
0
1
44
51
4
2
0
0
0
0
9
20
62
1
63
7
0
5
129
38
9
2
144
29
1
10
57
1
0
6
13
2
0
13
135
27
2
0
0
0
0
0
2
11
63
7
58
2
0
0
51
38
17
9
144
13
3
20
36
1
0
41
26
2
2
76
144
11
1
3
0
0
0
0
0
4
34
1
15
0
0
0
9
20
17
15
144
0
0
5
9
8
11
144
33
0
0
43
130
63
21
34
0
0
0
0
0
2
29
25
17
9
0
0
11
46
19
6
147
142
0
1
8
8
0
0
47
49
2
3
105
36
0
0
0
0
0
0
0
3
20
14
81
5
0
0
1
31
14
11
147
79
0
2
17
2
1
7
44
19
1
7
147
38
1
0
0
0
2
4
3
4
5
2
96
2
0
4
13
17
4
22
147
11
0
0
8
26
78
122
19
1
0
0
137
147
70
14
0
0
5
10
2
0
0
0
9
0
0
15
33
2
5
20
16
0
0
0
6
11
115
101
4
0
0
0
2
53
76
21
51
0
2
67
46
0
0
43
133
5
5
54
10
0
0
73
5
1
20
117
19
0
0
1
0
1
44
13
0
0
0
0
38
0
1
65
149
2
0
18
149
9
3
20
27
0
0
65
44
7
22
133
36
0
0
1
0
0
61
46
1
0
0
0
45
8
0
6
149
77
0
1
149
47
0
1
28
10
0
7
58
4
2
22
60
22
1
2
0
0
14
28
6
2
1
0
67
43
0
0
67
95
1
0
149
109
0
0
7
16
2
2
13
4
0
0
20
50
10
0
0
0
0
1
1
6
20
2
6
142
93
0
0
0
0
0
9
142
142
0
0
0
0
3
16
142
103
0
0
0
0
1
3
77
115
38
0
0
0
0
10
142
80
6
1
0
0
0
35
75
30
28
8
2
6
35
142
91
16
0
0
0
0
59
51
42
50
49
7
2
5
36
20
50
37
14
2
1
19
23
20
46
50
50
6
0
3
7
118
95
14
1
0
1
9
25
24
2
0
3
3
13
56
61
30
1
0
0
0
5
20
50
55
32
5
0
0
1
7
31
18
20
1
0
3
37
31
9
25
2
2
3
0
12
36
34
44
41
21
9
3
0
2
15
34
115
38
5
0
2
17
10
55
27
0
1
1
3
52
81
8
1
4
19
28
23
82
34
58
29
4
0
0
9
57
116
23
13
2
0
0
72
116
38
115
17
6
17
4
8
54
64
51
47
14
43
10
9
40
17
19
4
0
3
17
9
99
112
116
39
0
0
0
20
100
67
116
27
1
6
2
0
6
87
75
48
12
20
7
0
2
42
34
5
0
0
10
16
41
52
83
13
0
0
0
0
26
116
63
2
0
0
0
0
9
116
25
5
0
0
0
0
17
116
140
94
0
0
6
7
1
1
140
52
0
0
0
0
0
32
111
19
0
0
0
0
0
41
25
22
5
0
0
1
14
25
140
140
0
0
0
0
1
1
140
83
0
0
0
0
0
8
97
26
0
0
0
3
18
26
11
1
0
0
0
1
49
56
140
87
0
0
0
0
0
5
140
11
0
0
0
0
0
56
71
8
8
1
1
3
5
37
17
18
15
0
0
1
6
11
135
6
0
0
0
0
0
7
140
13
0
0
0
0
0
12
109
10
1
0
0
0
1
19
7
6
4
0
1
13
7
5
30
0
0
68
135
1
0
21
151
0
0
4
16
1
0
109
36
0
1
14
50
6
0
17
0
0
3
5
8
6
3
0
36
0
0
7
151
47
1
3
151
11
0
0
28
6
0
27
78
2
0
0
51
40
1
9
0
0
0
0
8
33
22
0
45
10
0
0
151
69
3
0
151
52
0
0
17
11
2
11
45
3
0
0
25
109
12
10
0
0
0
0
1
48
48
0
54
33
0
1
67
34
1
0
151
109
1
1
32
8
0
0
7
6
0
0
70
74
7
0
0
0
0
0
0
30
30
0
62
9
0
0
0
0
0
19
78
33
0
0
0
0
0
30
123
18
0
0
0
0
0
94
123
6
0
0
0
0
3
61
101
22
0
0
0
0
0
31
120
68
0
0
0
0
0
10
123
64
0
0
0
0
0
12
123
2
0
0
0
7
19
68
83
1
0
0
0
0
0
123
123
6
0
0
0
0
0
123
123
52
0
0
0
0
0
25
60
24
2
1
4
14
24
41
89
0
0
0
0
0
0
66
123
8
0
0
0
0
0
71
123
73
3
1
0
0
0
4
7
25
8
23
24
3
1
0
7
0
0
0
0
27
96
31
141
0
0
0
0
0
21
89
141
0
0
0
8
108
26
44
5
0
0
0
10
141
40
24
51
17
0
0
0
19
28
18
141
32
0
0
0
2
6
42
94
1
1
0
37
139
21
27
1
2
22
5
33
107
15
11
54
90
14
0
0
0
0
1
141
79
0
0
0
10
21
31
34
8
5
1
16
71
63
45
9
24
61
11
12
26
18
15
27
45
8
0
0
0
28
53
32
19
0
0
0
21
56
60
4
0
0
0
0
39
71
58
4
1
0
0
0
33
83
43
28
0
0
0
7
10
6
39
160
5
0
0
0
0
1
100
29
21
16
0
0
2
9
15
68
39
6
0
0
0
3
5
26
0
0
0
34
40
7
23
181
24
1
0
0
4
4
67
89
100
40
0
0
0
0
1
25
90
24
0
0
0
0
0
47
0
0
0
67
58
5
15
181
8
0
0
1
5
3
36
175
39
1
0
0
0
0
20
28
21
6
3
2
2
1
6
57
3
0
0
63
45
2
7
181
34
0
0
1
2
1
12
129
39
1
0
0
0
0
16
28
36
13
2
0
0
0
4
10
8
1
56
133
20
0
1
100
129
8
4
6
3
0
2
47
43
12
17
8
4
8
36
1
0
0
23
80
27
11
13
37
4
0
29
133
30
0
4
133
45
4
6
15
5
3
12
41
23
13
32
66
17
11
9
2
16
18
48
34
12
7
4
23
8
4
88
133
22
0
0
133
17
4
16
8
8
26
54
17
4
2
1
13
67
82
37
2
7
5
5
16
127
128
9
1
1
4
114
74
1
0
0
30
13
17
41
9
6
3
16
6
2
0
4
34
98
17
8
0
0
0
33
58
94
46
2
127
45
0
0
0
0
0
8
127
104
0
0
0
0
8
15
43
37
0
0
0
0
26
48
33
6
0
0
0
0
10
70
127
45
0
0
0
0
0
11
127
16
0
0
0
0
62
76
49
4
0
0
0
0
67
106
83
12
0
0
0
0
10
69
127
127
2
0
0
0
0
2
72
120
26
0
0
0
9
18
84
90
11
0
0
0
3
13
127
38
0
0
0
0
0
3
54
127
0
0
0
0
2
10
30
80
14
0
0
0
3
28
36
38
7
0
0
0
6
9
102
23
0
0
0
0
0
10
0
10
118
38
2
0
0
0
1
123
123
4
0
0
0
0
4
123
123
0
0
0
0
0
0
45
123
9
0
0
0
0
2
16
123
46
0
0
0
0
26
98
114
29
0
0
0
8
105
101
53
0
0
0
0
37
40
37
93
6
0
0
0
5
18
25
41
37
0
0
0
2
5
21
98
68
0
0
0
1
68
87
44
1
0
0
0
9
101
44
5
0
0
0
0
3
8
34
24
4
0
0
0
2
1
48
87
5
0
0
0
0
2
85
103
0
0
0
0
0
23
98
43
0
0
0
0
0
55
14
2
0
0
0
3
51
137
8
1
0
0
0
2
66
84
30
38
15
0
0
0
6
70
32
19
4
0
1
1
8
48
2
0
0
0
0
13
127
137
46
0
0
0
0
3
47
137
33
10
0
0
0
3
21
13
9
13
0
0
5
17
18
137
5
0
4
13
1
3
93
137
23
0
0
0
0
0
81
122
5
0
0
0
0
1
67
13
3
11
6
0
1
6
12
77
1
0
14
28
1
0
60
137
0
0
0
0
0
0
137
87
0
0
0
0
0
1
137
13
2
6
3
0
3
26
39
70
72
2
6
7
3
2
25
122
76
6
0
0
1
1
65
39
3
7
12
7
6
2
31
5
12
42
36
3
4
8
0
122
49
7
3
2
5
8
61
69
48
7
0
0
13
74
89
113
27
4
0
0
1
11
80
48
40
24
12
1
0
2
10
48
3
5
3
0
11
44
107
122
24
0
0
0
1
25
115
122
86
2
0
1
1
5
37
23
17
6
4
24
11
14
16
25
0
0
0
0
24
48
122
122
2
0
0
0
0
0
122
108
5
0
0
0
1
19
122
3
0
0
0
4
16
61
33
8
30
2
0
0
11
43
8
9
4
0
0
0
11
105
17
79
36
0
0
0
0
39
43
103
131
14
0
0
0
0
6
11
5
10
27
5
8
21
12
66
7
1
28
11
4
20
16
139
136
20
3
0
0
1
11
139
69
19
7
2
0
0
44
10
0
0
5
4
2
24
53
60
4
0
15
20
8
6
24
139
29
8
5
4
1
2
139
138
78
15
13
12
2
2
52
24
0
0
0
0
0
1
28
18
0
0
0
12
13
5
21
139
2
0
0
1
2
1
97
139
75
2
0
0
0
0
26
66
62
21
0
0
0
0
4
128
19
0
0
0
0
3
68
103
31
19
5
4
0
4
42
18
36
54
21
0
0
0
0
45
11
3
0
0
0
9
90
102
3
0
0
0
0
6
110
144
23
2
0
0
0
0
44
61
31
42
19
0
0
0
1
25
0
0
0
3
1
10
144
144
30
0
0
0
0
8
95
144
89
0
0
0
0
0
13
73
22
9
0
0
0
5
19
57
0
0
7
27
2
4
65
144
27
0
0
0
0
0
51
144
18
0
0
0
0
0
59
46
3
1
0
0
0
2
25
85
17
0
0
0
0
0
22
121
13
0
0
0
0
0
18
88
15
0
0
0
0
0
14
96
65
19
1
0
0
0
2
107
1
0
0
0
0
5
95
129
18
0
0
0
0
0
35
126
42
0
0
0
0
0
5
129
48
0
0
0
0
0
2
129
18
0
0
0
0
0
24
129
9
0
0
0
0
0
36
129
46
0
0
0
0
0
14
129
58
0
0
0
0
1
7
129
4
0
0
0
0
0
26
129
12
0
0
0
0
0
31
129
30
0
0
0
0
0
5
102
35
2
1
1
0
0
7
132
60
6
0
0
0
0
21
25
60
58
29
14
0
1
7
64
91
34
9
5
0
0
0
70
124
17
0
0
0
0
0
132
42
3
0
0
0
3
51
122
39
32
14
9
1
8
67
80
74
76
26
2
0
0
0
132
62
5
1
4
6
0
4
73
7
1
0
0
0
8
106
132
26
3
1
0
0
1
70
100
46
58
17
0
0
1
8
68
26
15
0
5
7
10
24
109
8
0
0
0
0
8
94
132
47
0
0
0
0
0
32
70
14
5
0
0
1
9
29
10
1
3
1
0
3
15
21
34
0
0
0
0
1
26
71
78
1
0
0
0
0
0
71
134
9
0
0
0
0
0
26
134
2
0
0
0
0
0
23
92
0
1
5
10
7
24
81
134
3
0
0
0
0
0
91
134
5
0
0
0
0
0
37
134
0
0
0
0
0
0
25
134
7
3
10
6
0
0
33
134
43
0
0
0
0
0
21
134
63
0
0
0
0
0
2
112
4
0
0
0
0
0
15
85
48
13
0
0
0
0
4
134
23
5
0
0
0
0
26
134
24
0
0
0
0
0
20
36
2
0
0
0
1
18
21
24
4
7
8
1
0
0
8
32
32
73
12
0
0
0
10
11
22
116
25
0
0
0
3
37
12
42
15
0
0
0
27
23
1
1
3
15
13
3
17
118
36
18
0
0
0
0
83
118
46
118
32
0
0
0
46
29
29
118
85
0
0
0
2
46
33
7
15
30
14
4
11
118
118
20
0
0
10
9
13
118
81
18
0
0
16
48
59
35
10
42
21
1
20
118
56
26
118
29
18
8
0
0
0
47
114
10
2
50
70
29
4
67
19
2
2
22
49
66
42
6
3
0
2
66
52
98
14
146
91
13
0
0
0
0
0
137
25
1
3
8
2
0
7
4
3
11
26
28
3
0
1
2
8
34
29
3
0
0
0
73
95
69
46
8
0
0
3
122
74
16
10
0
0
0
13
15
18
51
85
11
0
0
1
19
16
42
25
11
16
6
2
19
10
9
37
61
16
4
15
146
32
4
2
0
0
1
55
62
42
66
48
20
4
0
5
3
39
30
40
112
36
1
0
7
23
45
103
20
1
0
0
88
146
27
7
1
1
0
1
40
54
3
2
38
45
3
0
92
146
17
9
74
28
1
0
5
9
53
14
0
3
71
24
99
60
33
9
1
1
18
39
20
32
105
35
59
15
0
1
0
4
14
11
129
47
0
0
27
2
0
0
1
5
72
22
129
40
1
0
2
9
21
52
72
24
12
14
129
120
5
6
0
7
73
40
108
40
0
0
48
3
0
0
2
9
4
10
129
13
0
0
0
26
44
91
50
16
6
2
24
129
56
28
28
18
58
25
9
8
6
6
21
9
0
0
0
9
3
14
83
103
12
0
0
2
13
52
22
103
100
0
0
5
12
7
11
15
96
7
0
3
6
3
11
24
46
120
0
0
0
0
49
105
25
45
1
0
2
7
25
49
21
6
11
4
3
3
77
76
3
2
2
0
0
0
16
13
19
99
18
5
63
110
18
13
9
99
90
17
36
38
104
67
1
0
11
6
22
34
76
87
1
2
8
3
7
3
0
0
0
2
10
20
120
120
22
0
0
7
57
61
120
84
120
29
0
0
6
10
18
117
42
12
0
0
1
11
32
36
0
0
1
9
8
3
8
9
4
0
0
3
6
8
53
37
59
0
0
0
0
1
13
120
22
0
0
0
0
0
26
120
1
10
8
33
81
26
3
0
4
15
20
10
15
16
35
32
9
15
8
4
2
6
53
57
30
20
3
0
0
2
43
82
10
2
2
12
97
67
17
20
74
73
68
23
13
9
4
13
8
29
114
114
8
9
20
10
23
94
114
12
1
3
18
48
17
8
106
31
27
26
8
17
114
41
55
15
3
3
5
52
40
98
56
36
2
2
12
28
28
114
109
3
0
0
0
0
0
17
114
100
14
0
0
0
16
91
114
52
8
0
0
5
12
114
86
0
0
0
0
3
14
34
3
0
0
0
0
0
9
0
0
2
66
96
24
48
65
0
0
0
1
6
41
125
6
0
0
0
0
2
107
95
6
0
0
0
0
0
7
38
14
7
3
41
90
33
9
13
125
49
4
11
8
6
15
83
30
9
1
6
26
50
73
87
44
3
0
0
1
8
36
125
7
3
1
9
62
31
12
24
68
18
6
6
12
26
54
101
31
4
14
3
10
111
103
37
125
32
3
0
0
8
15
92
23
24
22
15
16
1
1
19
8
66
91
19
6
4
4
7
13
16
95
27
32
25
7
7
125
42
7
4
7
8
2
64
45
0
0
10
51
28
24
134
26
22
4
11
70
42
16
43
15
97
24
3
4
12
4
19
1
134
22
2
2
2
0
0
25
0
0
0
4
18
57
134
134
110
0
0
7
29
36
52
54
134
16
0
0
0
14
21
7
59
11
2
12
19
10
9
36
0
0
0
11
4
11
30
134
13
0
0
0
0
4
112
100
19
0
0
0
1
20
59
38
29
0
0
1
7
12
12
11
0
0
0
11
10
1
11
134
0
0
0
0
1
1
134
73
2
0
0
0
0
3
134
41
14
0
0
0
0
0
43
23
2
3
19
119
101
27
31
49
23
16
7
7
61
38
43
30
23
19
22
36
78
24
8
11
26
14
6
7
1
0
0
26
2
0
0
43
45
49
83
29
5
0
1
34
119
99
57
119
43
2
0
3
55
47
67
93
36
3
0
0
0
4
41
87
6
0
0
6
30
14
60
47
66
13
6
48
76
20
17
119
119
14
3
8
11
13
79
73
1
0
0
0
2
7
114
31
34
36
24
13
12
1
6
52
26
32
32
11
13
27
35
50
38
5
6
3
20
100
62
119
25
3
0
0
5
12
55
97
8
2
0
0
0
0
47
125
10
0
0
0
0
0
108
121
44
0
0
0
16
60
96
9
5
0
0
4
125
69
6
60
24
13
5
0
0
0
18
125
47
0
0
0
1
3
65
53
4
0
0
7
38
125
77
4
0
0
0
4
39
110
50
62
34
6
2
0
0
0
5
125
27
0
0
0
3
11
37
15
13
4
0
14
48
35
18
49
53
14
0
3
7
12
35
28
53
7
0
0
0
0
3
74
61
3
1
1
0
0
4
21
125
55
4
5
12
5
1
13
116
125
24
19
58
33
1
51
19
0
0
1
132
132
12
63
80
11
0
0
29
13
3
102
26
7
0
0
0
0
30
132
4
0
0
0
0
0
77
132
32
0
0
0
1
6
25
132
36
9
0
0
0
0
12
48
28
23
10
0
0
0
10
132
47
1
0
0
0
0
34
132
6
0
0
0
0
0
31
132
30
0
0
0
0
0
18
60
40
8
4
0
0
0
10
132
33
0
0
0
0
2
17
132
13
0
0
0
0
0
18
132
47
1
0
0
0
0
34
33
68
11
0
0
0
0
6
59
54
2
0
0
0
0
2
81
56
0
0
0
0
0
9
115
71
3
0
0
0
0
13
17
62
25
3
0
0
1
5
18
104
20
0
0
0
0
0
70
108
4
0
0
0
29
20
70
55
4
0
0
3
61
57
114
58
4
1
1
2
11
51
38
80
2
0
2
28
47
9
41
7
0
0
0
0
112
94
115
25
0
0
0
1
48
77
115
49
0
0
4
33
10
30
12
4
0
0
41
115
46
6
58
1
0
0
0
0
6
95
113
3
0
0
0
0
3
115
50
8
0
0
3
53
81
94
0
0
0
1
24
97
42
4
7
17
45
122
36
2
2
3
83
122
43
37
1
0
1
6
22
59
97
122
2
0
0
2
34
122
86
25
13
0
0
0
0
8
45
122
122
43
9
0
59
64
37
72
5
0
3
43
122
63
92
42
2
0
5
53
17
51
122
47
5
0
4
13
11
13
4
17
34
85
67
16
20
17
19
61
13
4
6
14
122
36
4
4
1
0
3
80
20
1
5
7
2
1
10
59
39
36
8
1
0
4
24
25
5
8
14
31
24
14
26
11
37
0
0
7
10
9
7
78
8
0
0
0
0
0
0
21
19
62
90
13
1
2
3
1
120
120
5
0
2
0
0
1
61
18
0
4
45
13
5
15
56
0
0
0
2
2
3
69
29
19
31
8
3
25
113
55
120
54
2
0
5
7
11
83
53
10
0
3
72
59
13
15
79
14
0
0
4
5
6
52
114
74
0
0
0
4
24
21
120
102
0
0
0
42
30
42
34
88
0
0
5
114
34
11
76
119
0
0
3
11
7
10
86
87
10
0
0
0
0
10
71
78
2
0
0
10
13
27
37
120
1
0
0
10
8
3
16
41
0
0
2
25
23
3
134
2
0
0
0
0
0
13
136
2
0
0
0
0
0
9
136
24
0
0
0
0
0
2
46
34
0
0
0
0
0
0
136
1
0
0
0
0
0
30
136
4
0
0
0
0
0
26
136
10
0
0
0
0
0
28
75
28
0
0
0
0
0
5
136
0
0
0
0
0
0
32
136
30
0
0
0
0
0
12
136
58
0
0
0
0
0
7
77
61
1
0
0
0
0
2
136
0
0
0
0
0
0
32
136
8
0
0
0
0
0
41
136
33
0
0
0
0
0
15
69
36
1
0
0
0
0
0
141
15
0
0
0
0
0
10
141
28
0
0
0
0
0
6
102
36
0
0
0
0
0
1
42
34
1
0
0
0
0
1
141
0
0
0
0
0
0
22
141
25
0
0
0
0
0
15
110
64
0
0
0
0
0
1
61
40
1
0
0
0
0
3
141
2
0
0
0
0
0
39
141
6
0
0
0
0
0
54
141
32
0
0
0
0
0
20
53
43
1
0
0
0
0
0
141
17
0
0
0
0
0
14
141
51
0
0
0
0
0
6
137
77
0
0
0
0
0
3
26
51
3
0
0
0
0
0
27
21
90
100
14
1
0
0
63
8
2
4
3
0
0
33
20
0
0
0
0
0
11
58
4
3
1
0
0
0
11
22
6
1
38
119
138
146
5
2
66
13
1
6
16
19
3
15
19
9
1
0
1
1
9
30
31
5
0
0
0
0
5
38
33
4
0
2
57
146
7
5
76
19
3
0
0
4
2
19
20
11
18
0
0
2
7
20
54
24
4
0
0
0
0
8
21
100
124
9
55
14
0
1
20
146
146
0
0
1
7
1
4
83
146
66
7
22
14
2
16
33
134
41
10
27
7
3
37
75
97
0
0
0
0
18
15
60
123
7
0
0
2
3
4
39
123
13
0
0
1
1
0
24
112
11
0
0
0
0
123
15
3
0
0
0
3
95
57
16
29
1
0
11
62
78
122
36
80
6
0
2
13
49
22
40
123
14
0
0
2
23
73
15
2
0
0
0
2
53
123
55
0
0
0
1
23
68
123
64
0
0
0
0
11
50
60
26
4
0
0
0
9
74
34
82
11
1
0
0
0
1
85
123
0
0
0
0
0
3
42
97
3
0
0
0
5
20
29
66
7
0
0
3
8
22
31
29
4
0
0
2
2
12
7
34
54
7
15
11
2
7
22
44
79
9
2
1
0
0
9
24
28
46
9
0
0
0
41
121
16
0
0
2
3
3
47
121
104
8
0
0
0
7
7
41
121
107
7
0
0
0
0
10
43
59
16
0
0
0
24
83
10
1
5
8
3
11
121
56
9
4
3
5
2
62
61
48
75
121
9
0
0
9
0
13
121
109
11
0
0
0
7
66
67
1
1
2
1
3
108
121
52
1
1
1
0
4
64
121
67
28
0
0
0
0
0
38
121
45
0
0
0
0
44
38
2
0
0
0
5
23
55
65
11
0
0
0
0
11
119
84
2
0
0
0
0
38
119
20
0
0
0
0
6
56
69
8
1
0
0
0
33
53
119
94
3
0
0
1
8
45
87
89
1
0
0
25
86
55
35
5
0
0
0
3
119
119
55
7
19
7
1
3
4
43
89
5
0
0
0
9
47
119
7
2
4
4
3
96
119
42
42
1
3
2
1
11
108
119
2
1
5
3
2
28
31
14
10
0
0
2
2
5
59
102
4
0
4
4
2
9
46
108
22
0
3
2
2
8
18
56
16
17
16
1
0
0
11
38
44
59
16
0
0
0
0
16
57
98
40
0
0
0
0
0
123
90
0
0
0
0
0
8
71
27
6
10
0
0
5
21
123
123
12
0
0
0
5
31
41
123
48
0
0
0
26
31
90
123
1
0
0
0
4
55
57
4
4
7
2
5
19
32
123
10
0
0
0
3
48
120
20
8
1
3
1
11
123
109
61
2
0
0
0
0
41
123
13
0
0
2
7
2
13
47
51
0
0
2
2
2
12
123
33
4
3
12
4
9
24
34
123
8
0
0
0
0
3
64
0
0
0
0
0
0
0
0
2
0
0
0
0
0
0
5
122
18
0
0
0
0
0
24
138
18
0
0
0
11
9
49
0
0
0
0
0
0
1
5
67
2
0
3
2
1
4
42
147
48
0
0
0
1
7
51
106
20
0
0
1
36
110
39
6
0
0
0
0
0
20
57
147
7
0
1
1
2
51
92
147
42
0
2
10
6
9
32
18
2
0
7
56
53
68
18
2
1
0
0
0
0
4
7
147
5
0
0
0
0
7
57
147
1
0
0
2
22
82
108
2
0
0
1
19
91
126
7
0
0
0
0
0
0
0
0
1
0
0
0
0
0
0
1
11
0
0
0
0
0
0
1
25
2
0
0
0
0
0
1
96
58
0
0
0
0
0
2
83
44
1
1
4
4
24
28
154
19
0
0
0
1
12
23
154
70
0
0
0
0
0
3
154
63
0
0
0
2
12
49
101
42
2
3
18
27
39
39
154
16
0
0
1
1
2
23
154
41
0
0
0
0
0
12
110
2
0
0
0
0
12
79
113
6
0
0
0
4
29
72
154
5
0
0
0
0
0
38
154
16
0
0
0
0
0
8
1
0
0
1
3
7
140
141
4
0
9
45
109
29
45
127
0
9
107
67
49
4
2
0
0
6
29
87
132
13
3
0
56
5
0
0
0
0
63
141
141
47
15
19
8
3
29
141
25
11
54
103
46
4
5
7
0
0
10
77
80
3
1
0
17
4
0
0
0
0
0
2
141
35
3
2
0
0
1
78
23
4
10
49
45
1
1
95
0
0
0
8
19
1
0
0
0
0
0
0
0
0
0
0
0
0
0
0
0
0
0
9
0
0
0
0
0
0
0
18
0
0
0
0
0
0
0
0
33
4
0
0
3
17
3
7
111
3
0
0
0
0
0
19
81
74
0
0
0
0
0
2
90
136
0
0
0
0
0
0
36
6
0
0
0
1
3
17
141
4
0
0
0
0
0
24
141
54
0
0
0
0
0
11
141
135
0
0
0
0
0
0
54
10
0
0
0
0
6
17
141
13
0
0
0
0
0
18
141
21
0
0
0
0
0
10
141
28
0
0
0
0
0
23
44
9
0
0
0
0
0
9
105
1
0
0
0
0
0
33
141
1
0
0
0
0
0
54
122
0
0
0
0
0
0
86
0
0
0
0
0
0
0
0
6
4
2
5
0
0
0
0
73
166
28
17
0
0
0
1
54
109
11
10
28
11
0
5
0
0
0
0
0
0
0
0
58
8
0
0
0
0
0
15
166
118
5
2
0
0
0
33
47
50
12
38
129
21
2
5
0
0
0
0
0
0
0
0
96
19
0
0
0
0
0
47
166
41
0
0
1
4
4
62
46
1
0
5
124
68
11
16
0
0
0
0
0
0
0
0
166
11
0
0
0
0
0
58
166
16
0
0
2
9
12
54
19
0
0
3
59
78
31
7
0
0
0
0
72
133
3
0
0
7
24
10
41
51
2
0
0
34
46
17
2
2
0
0
14
88
26
0
0
0
0
0
14
0
0
0
10
133
32
18
68
39
29
2
2
7
6
19
7
68
98
3
0
0
0
0
19
133
33
0
0
0
0
0
74
6
0
0
9
56
16
25
133
22
1
0
0
0
0
26
71
64
13
0
0
0
0
16
105
133
1
0
0
0
0
0
94
1
0
0
4
15
3
32
133
20
0
0
0
0
0
26
101
133
0
0
0
0
0
1
133
133
0
0
0
0
0
0
0
0
0
0
0
0
0
0
4
20
9
0
0
0
0
2
142
147
24
0
0
0
0
2
65
121
6
2
5
6
0
0
0
0
0
0
0
0
0
0
50
11
3
5
1
0
3
39
147
92
6
1
2
4
4
84
45
24
4
3
34
56
5
12
0
0
0
0
0
0
0
0
41
102
40
40
7
0
0
5
147
147
21
5
3
6
5
33
23
3
0
0
21
90
11
14
26
6
0
0
0
0
0
2
120
147
36
4
0
0
0
2
16
143
45
18
60
20
0
0
0
1
1
1
42
113
3
0
129
43
0
0
0
0
0
24
129
88
14
1
0
0
0
10
5
41
44
26
23
0
0
0
0
0
4
52
108
0
0
0
111
129
79
3
0
0
0
7
129
71
12
4
3
1
1
13
26
14
5
36
75
18
2
4
0
0
0
14
129
42
0
0
65
60
61
29
3
0
0
3
88
18
13
17
5
8
17
69
11
0
0
1
28
129
41
25
0
0
0
0
88
129
8
0
100
10
3
21
7
0
0
12
3
1
12
53
15
6
6
13
0
0
1
33
50
65
11
4
0
0
0
6
122
67
1
0
3
0
7
46
68
36
19
15
17
4
5
3
1
6
19
33
28
4
8
6
0
2
1
10
80
1
0
0
0
0
0
25
31
2
6
35
100
145
10
14
145
44
16
11
2
6
6
34
31
20
26
74
21
0
0
2
86
2
0
4
2
0
0
23
19
6
57
145
33
14
0
0
145
22
21
60
4
0
0
32
80
8
4
70
102
0
0
7
59
7
0
9
16
0
0
8
0
0
7
145
73
0
0
0
116
53
17
145
43
0
0
4
75
42
11
87
70
0
0
2
15
23
9
26
17
0
0
0
60
113
6
3
9
21
2
2
119
124
1
0
0
0
0
0
45
124
32
0
0
0
0
0
9
33
46
12
22
14
1
0
80
124
15
3
1
0
0
1
124
98
0
0
0
0
5
20
78
33
0
0
0
8
33
25
13
5
0
1
45
121
25
6
46
45
32
6
0
0
0
20
76
4
10
5
0
3
80
84
33
1
0
0
1
13
124
104
3
0
0
0
62
124
34
9
3
49
87
27
6
0
0
2
3
4
51
73
9
2
11
7
37
9
15
12
16
31
33
28
3
0
0
0
51
124
33
6
0
8
12
63
46
13
0
0
0
24
101
63
7
0
0
0
0
10
124
100
4
1
1
0
2
7
124
55
0
0
2
6
13
13
4
43
89
27
2
3
73
100
72
3
3
0
0
14
9
57
124
28
0
0
0
0
0
1
124
117
1
0
0
0
12
15
15
13
51
26
8
9
124
67
18
1
2
1
0
37
65
29
53
1
0
0
6
34
1
7
61
59
12
3
9
5
13
9
5
2
3
9
98
92
31
27
6
0
0
0
95
100
19
3
1
0
0
3
124
91
14
7
6
5
5
13
79
42
4
1
0
0
1
21
41
23
129
130
0
0
8
31
7
1
62
97
2
1
94
70
1
0
0
0
0
0
20
60
38
0
35
1
0
0
0
9
28
14
137
89
1
1
23
14
12
30
55
31
2
2
137
137
13
6
0
0
0
0
27
52
58
6
24
0
1
11
16
5
4
15
137
3
0
0
10
35
127
137
13
0
0
0
75
137
113
31
12
10
0
0
9
32
22
7
0
0
9
37
30
2
1
1
10
0
0
20
31
8
43
49
35
4
3
0
0
10
27
42
15
34
5
0
0
1
0
5
0
0
14
50
11
6
1
0
6
15
62
51
5
0
4
13
21
9
43
18
0
0
5
46
2
0
0
0
0
0
15
12
19
21
3
5
15
13
1
0
111
145
125
42
7
0
0
5
13
39
110
145
108
0
0
4
4
14
13
22
14
0
1
3
28
40
27
9
7
0
0
0
145
63
8
13
18
1
1
73
58
10
7
132
145
8
2
30
6
34
27
28
63
0
0
0
2
37
33
5
0
0
0
0
145
46
5
0
5
2
0
22
66
2
0
2
145
24
2
17
47
39
11
1
66
3
0
0
144
35
0
0
0
0
0
63
144
3
0
0
0
1
9
133
17
4
2
1
0
28
63
44
3
5
1
0
0
28
33
6
144
44
0
0
0
0
0
35
144
32
0
0
0
0
1
48
39
31
11
5
2
24
13
14
8
8
2
1
0
4
7
11
144
15
0
0
0
0
1
70
144
61
4
2
1
2
1
32
39
24
20
25
9
29
10
8
5
7
2
1
0
2
4
3
144
19
0
0
0
0
16
93
144
144
7
4
4
6
0
22
9
29
22
33
29
49
1
0
0
1
2
2
2
6
0
0
34
9
3
4
14
6
4
32
9
4
1
3
72
63
3
3
141
28
0
0
9
9
0
34
141
5
0
0
0
0
0
68
14
3
0
0
11
14
35
92
34
7
0
2
61
51
33
14
141
73
0
0
2
2
1
9
141
30
0
0
0
0
0
50
2
2
0
0
0
24
94
27
66
1
0
0
0
36
76
54
141
18
0
0
0
0
1
56
136
17
0
0
0
0
0
17
0
0
0
0
0
27
84
16
61
0
0
0
0
9
59
89
141
1
0
0
0
0
0
102
114
2
0
0
0
0
0
27
10
0
0
5
65
38
6
22
86
5
0
0
2
9
80
131
13
1
0
0
3
131
131
64
4
1
0
0
1
57
52
28
12
6
2
80
131
13
1
3
131
38
3
6
5
2
5
29
27
25
33
6
0
5
18
9
9
81
28
0
0
1
5
6
5
3
1
131
131
0
0
0
110
13
2
36
18
0
0
46
82
31
23
0
0
0
0
43
21
70
21
0
0
0
3
22
0
0
4
131
60
0
0
0
33
2
6
131
32
0
0
23
70
1
2
5
0
0
1
82
26
0
0
0
0
0
4
54
15
0
0
0
43
30
3
10
169
4
0
0
1
5
2
40
128
40
2
0
0
0
0
7
23
24
2
0
0
0
0
2
31
0
0
0
77
50
1
8
169
9
0
0
4
6
1
25
169
23
0
0
0
0
0
11
28
39
9
0
0
0
0
1
51
12
0
0
45
59
4
2
169
47
0
0
2
2
0
14
169
16
0
0
0
0
0
43
35
23
3
0
0
1
12
27
75
49
1
0
3
30
7
3
169
71
0
0
0
0
0
5
140
9
0
0
0
0
3
25
11
1
0
0
0
0
23
34
0
0
0
0
0
43
102
1
19
13
0
0
0
19
87
12
36
92
3
0
0
1
31
16
91
128
24
0
0
0
6
55
7
0
0
0
0
33
91
23
128
32
0
0
0
2
25
43
71
44
0
0
0
19
46
35
128
39
0
0
0
0
11
109
57
3
0
0
1
20
63
40
128
5
0
0
0
29
22
49
38
0
0
0
0
95
84
66
128
3
0
0
0
1
15
128
73
39
1
0
0
4
4
7
95
13
0
0
3
33
19
21
11
0
11
8
7
50
17
34
68
1
2
2
0
0
25
128
1
2
0
32
136
39
0
0
101
60
2
3
23
11
0
5
72
25
15
38
19
6
5
12
0
2
7
70
74
6
1
0
11
2
0
81
136
6
0
0
136
63
4
9
36
1
0
7
32
24
11
23
27
12
8
8
0
0
5
55
94
19
2
0
7
2
1
50
136
40
0
0
136
9
4
26
33
3
13
42
18
1
3
5
12
62
75
21
0
0
2
9
56
136
56
0
0
0
1
93
106
10
0
0
14
5
13
64
22
13
3
10
3
1
1
2
37
110
30
5
0
0
0
5
79
117
26
0
31
89
41
1
0
0
0
1
19
53
10
5
7
3
7
33
105
28
4
0
0
0
1
63
136
55
8
1
0
0
0
10
13
56
54
6
4
1
3
6
27
6
16
27
97
12
3
18
143
68
0
0
11
3
1
46
143
117
2
0
0
0
0
4
30
10
6
5
16
14
5
17
39
4
0
3
111
69
4
7
143
26
0
0
11
3
0
54
143
18
0
0
0
0
0
39
15
3
1
3
33
17
17
55
34
17
0
3
63
43
5
4
143
58
0
0
0
1
0
27
130
7
0
0
0
0
2
84
69
128
7
0
0
0
0
0
40
128
8
0
0
0
0
4
92
95
0
0
0
0
0
2
85
31
1
2
1
0
0
1
128
60
0
0
0
0
7
47
70
24
0
0
0
0
8
102
128
21
0
0
0
0
0
41
113
40
0
0
0
0
0
0
75
74
5
0
0
0
3
30
128
49
0
0
0
0
2
32
128
48
0
0
0
0
0
7
128
60
0
0
0
0
0
0
40
41
3
0
0
0
0
17
112
26
0
0
0
0
0
11
128
22
0
0
0
0
0
4
124
57
0
0
0
0
0
0
3
25
55
0
0
0
0
0
5
9
30
27
17
2
7
22
136
6
3
15
14
4
26
136
136
5
0
6
25
70
51
105
11
26
19
2
0
0
0
0
3
6
36
45
11
0
0
1
136
68
63
52
10
1
2
35
136
49
7
108
85
17
4
45
1
9
33
21
2
0
0
0
9
4
10
18
4
0
5
11
134
13
12
3
0
0
7
35
136
7
1
75
79
0
0
86
0
3
19
26
5
0
0
0
0
1
28
43
6
0
0
1
62
15
11
7
0
0
0
9
136
2
0
13
28
0
0
104
8
97
58
50
42
86
47
3
15
139
30
0
1
139
139
8
0
39
8
0
0
139
139
0
3
1
0
0
0
98
71
5
7
14
19
17
38
139
139
9
62
22
2
1
2
119
139
53
9
1
0
2
13
50
49
6
40
10
0
0
1
3
13
8
13
37
12
5
58
73
9
7
61
56
6
1
1
3
3
15
18
13
1
1
6
11
7
7
38
40
2
0
1
0
0
4
24
2
0
0
2
11
13
43
24
2
0
0
0
0
12
34
24
3
0
0
0
0
14
23
36
13
0
0
0
0
0
13
65
6
0
0
0
1
1
17
117
59
2
0
0
0
0
14
73
41
6
7
7
0
0
36
115
15
3
0
1
0
0
59
100
5
0
0
0
1
4
11
125
53
0
0
2
0
0
23
67
58
5
11
56
2
0
7
125
87
0
1
4
0
0
13
50
46
22
11
0
0
0
5
125
55
2
0
1
1
1
49
122
64
1
1
15
7
2
14
125
125
0
0
0
0
0
0
16
37
73
43
0
0
0
0
125
81
11
6
0
0
0
8
103
83
14
0
0
0
0
1
125
81
0
0
0
0
0
0
0
1
8
23
174
186
0
0
0
2
1
0
186
186
0
0
19
16
1
0
23
25
2
4
7
0
0
0
0
21
29
7
1
0
0
0
99
186
4
0
25
5
0
0
26
186
9
5
9
8
0
0
15
22
1
1
0
0
0
0
19
36
11
3
9
6
0
0
10
186
10
0
27
5
0
0
0
11
10
15
2
0
0
0
17
11
16
11
0
0
0
7
35
7
1
0
9
5
0
6
2
8
4
5
1
2
0
0
0
5
10
7
0
0
0
0
2
4
9
13
0
0
0
0
23
16
2
0
1
2
7
3
0
0
0
0
4
9
7
2
2
0
0
0
66
13
2
10
13
0
0
0
213
81
0
0
0
0
0
3
9
6
9
0
0
0
0
8
4
16
21
8
1
0
0
2
98
16
7
30
7
0
0
0
213
24
0
0
0
0
0
28
9
1
0
0
0
0
3
33
27
3
2
3
1
0
0
24
77
6
2
15
13
1
0
13
213
6
0
0
0
0
1
139
7
6
11
6
0
0
0
5
38
19
3
1
1
0
0
6
22
4
3
17
16
2
0
12
196
0
0
3
1
0
0
170
5
2
6
2
0
0
68
105
137
24
0
0
0
0
39
88
137
109
0
0
0
0
3
9
37
17
0
0
0
0
26
45
31
32
48
15
6
5
7
26
137
74
16
3
0
0
8
50
137
23
0
0
0
0
61
81
2
0
0
0
0
13
93
23
39
8
5
1
2
5
1
28
75
17
3
0
0
6
97
85
13
0
0
0
0
0
137
137
0
0
0
0
0
18
137
72
0
0
0
0
0
0
0
0
0
0
0
0
0
2
13
3
0
0
0
0
0
0
64
23
0
0
0
0
0
0
126
33
1
19
1
0
0
0
5
2
5
50
30
30
23
5
13
4
90
58
37
23
17
1
0
4
126
41
10
0
0
0
0
25
5
7
3
0
0
0
0
7
78
93
93
13
7
0
0
21
25
143
143
7
4
0
0
0
16
87
143
20
0
0
0
2
19
0
0
0
0
0
0
8
143
27
5
0
0
0
0
63
143
61
41
0
0
0
0
22
34
29
80
10
0
0
0
9
7
0
0
0
0
0
0
3
143
0
0
0
0
0
0
104
143
0
0
0
0
0
6
98
66
3
0
0
0
0
0
44
0
0
0
0
0
0
119
130
1
0
0
0
0
0
130
81
52
27
0
0
0
4
94
40
107
65
0
0
0
0
11
30
12
27
36
13
2
0
38
90
33
11
18
3
0
0
100
117
130
38
1
0
0
0
16
78
106
46
0
0
0
0
20
21
52
24
28
21
26
25
4
24
66
43
51
9
5
4
3
31
130
37
8
1
0
1
46
82
33
1
0
0
0
0
130
80
10
0
0
0
5
8
1
7
23
2
0
0
0
2
2
22
17
2
0
0
0
8
85
42
0
0
0
0
0
1
130
56
72
32
1
0
0
0
0
13
134
15
0
0
0
0
0
14
112
8
0
0
0
0
0
29
20
3
0
4
7
0
0
10
96
64
15
3
0
0
5
11
134
40
5
2
0
0
2
5
92
12
1
7
6
3
2
40
44
0
0
1
1
0
0
38
37
12
24
48
40
24
42
34
134
9
0
0
3
5
29
118
38
1
0
1
4
12
44
63
20
0
0
0
0
0
24
90
4
0
0
7
23
59
134
27
27
0
0
0
2
12
111
134
1
0
0
0
0
0
134
134
1
0
0
0
0
0
134
74
51
7
2
10
0
4
28
11
87
21
0
0
0
0
3
2
37
26
3
0
0
0
0
1
65
14
0
0
0
0
5
14
42
18
7
109
54
0
0
0
122
29
0
0
0
0
0
4
40
48
2
0
0
0
0
2
29
34
9
0
0
1
4
5
13
7
49
128
128
4
0
0
86
17
15
29
0
0
0
27
58
97
5
0
0
0
0
29
12
128
32
2
13
55
10
0
38
61
115
128
55
12
0
8
10
92
96
128
13
5
0
4
18
128
49
3
8
78
21
4
5
77
42
3
19
122
40
1
63
26
17
6
1
0
0
28
127
85
60
6
0
0
0
50
19
26
127
73
0
0
0
21
0
28
88
55
5
0
0
0
36
36
48
38
5
0
1
8
104
15
1
0
1
1
14
127
127
24
30
31
0
0
1
127
14
8
22
127
28
0
0
1
0
5
20
70
28
1
1
0
90
99
13
14
8
1
7
18
127
81
3
4
0
0
3
34
42
11
8
90
57
16
12
12
0
13
56
42
3
0
0
0
27
99
55
10
0
0
0
0
102
37
0
0
0
0
23
50
9
2
0
1
16
28
65
30
28
12
31
15
2
2
2
17
47
90
76
5
0
0
0
25
120
119
12
0
1
10
45
120
16
18
3
9
120
120
77
51
40
12
41
72
24
1
3
33
120
77
48
5
0
0
0
29
32
31
56
18
12
16
23
74
3
12
17
17
73
98
39
20
8
20
120
120
8
0
0
0
100
30
49
57
16
7
14
34
24
36
9
9
19
40
24
23
5
110
88
9
14
9
0
0
0
4
19
27
8
0
0
0
4
0
3
22
25
9
11
10
43
61
0
0
0
3
11
12
31
105
16
1
0
0
0
0
5
14
80
43
56
125
77
5
76
13
3
1
3
33
35
90
122
34
1
0
0
0
1
90
80
70
2
0
0
1
4
16
77
49
1
0
0
75
63
8
125
45
4
0
0
2
2
21
125
28
0
0
0
0
6
71
68
35
0
0
0
33
79
46
125
29
0
0
0
0
0
1
90
58
5
0
0
0
0
2
125
33
0
0
0
6
20
37
16
7
1
0
0
17
85
45
125
26
0
0
0
0
0
13
56
67
2
0
0
0
0
7
43
93
19
0
0
3
5
7
9
72
60
5
2
19
16
4
32
26
0
0
0
0
51
97
37
0
0
0
4
30
40
89
13
3
0
0
9
49
19
6
7
5
4
10
11
10
8
4
98
0
0
0
0
1
18
119
68
1
0
0
1
20
81
69
119
55
17
4
2
11
31
29
16
28
49
71
36
18
4
2
119
10
0
0
0
0
1
95
90
20
1
0
2
6
11
64
119
39
3
0
2
7
5
58
38
8
7
17
113
119
7
27
66
18
0
0
0
3
50
65
66
3
0
0
0
0
31
119
69
3
0
0
3
7
52
119
11
0
0
28
119
52
16
57
17
0
0
4
7
4
27
116
7
0
0
0
31
18
33
124
1
0
0
2
125
76
2
3
10
24
1
3
47
61
1
0
51
0
0
12
45
38
14
73
125
6
0
1
36
14
11
119
23
9
12
26
125
22
0
6
7
125
30
12
34
14
0
0
112
17
0
0
13
65
25
80
125
52
0
0
13
33
11
18
24
29
27
25
81
36
7
5
8
125
39
6
3
0
0
0
125
37
0
0
0
4
10
46
89
17
0
0
0
28
69
34
64
11
1
0
0
15
19
39
65
59
2
0
0
0
0
6
0
0
0
8
68
55
1
0
0
16
20
41
62
10
1
0
0
28
67
33
93
17
0
0
0
5
10
50
125
35
0
0
3
0
0
0
10
125
37
6
79
36
7
5
24
29
26
25
13
33
11
19
125
48
0
0
15
65
25
84
109
16
0
0
33
13
0
0
8
125
28
13
125
20
0
6
22
10
12
30
36
13
12
122
125
5
0
1
45
36
14
74
48
0
0
13
46
58
1
0
12
26
1
3
125
73
2
3
0
0
0
2
34
18
34
119
6
0
0
0
7
4
30
118
14
0
0
4
24
75
16
0
0
0
0
1
6
70
73
1
0
0
0
0
64
122
12
0
0
0
0
3
79
122
0
0
0
0
0
2
76
59
11
0
0
0
4
46
57
101
77
0
0
0
2
47
59
122
30
0
0
0
0
2
46
78
2
0
0
1
5
17
64
9
0
0
0
0
8
53
122
39
0
0
0
0
3
89
122
104
6
0
0
0
0
13
14
86
48
1
0
0
1
2
80
46
0
0
0
0
0
13
122
122
0
0
0
0
3
11
122
79
3
0
0
0
4
43
45
102
10
0
0
1
3
9
0
0
0
0
0
0
0
0
19
0
0
0
0
0
0
20
11
0
0
3
1
0
17
58
0
0
0
12
41
17
16
7
53
3
0
0
0
0
0
12
138
35
0
0
0
0
7
50
76
4
0
0
0
38
104
76
1
0
0
0
16
31
92
62
138
20
0
0
0
0
4
44
138
38
0
0
4
15
60
44
14
1
0
0
2
42
138
64
2
0
0
0
0
19
71
119
138
7
0
0
0
0
8
62
99
7
0
0
11
62
94
43
0
0
0
0
7
73
138
56
0
0
0
0
0
1
62
138
48
0
0
10
24
15
8
76
80
1
0
2
19
20
15
73
53
1
3
26
103
6
1
20
2
69
22
24
42
1
0
0
101
0
0
0
9
29
25
122
122
24
0
0
10
32
12
21
70
8
3
6
26
46
14
16
23
59
15
6
8
3
0
5
122
27
0
0
0
1
6
107
122
16
0
0
0
25
42
37
42
0
0
0
0
39
68
67
76
8
0
0
0
0
1
54
122
54
0
0
0
11
30
25
32
8
0
0
0
122
122
29
28
0
0
0
0
34
80
122
23
0
0
0
0
0
10
122
11
28
27
136
112
77
20
0
110
57
3
2
1
0
0
7
36
10
4
1
0
0
0
9
1
3
4
1
0
0
0
0
44
55
0
1
19
73
49
5
77
38
0
0
0
0
0
30
73
9
2
0
0
0
0
54
14
26
7
1
0
0
0
2
25
44
136
105
0
0
0
3
39
59
31
34
0
0
0
8
70
94
5
0
0
0
0
4
17
53
15
0
0
0
0
0
1
2
136
136
40
35
136
83
6
41
112
136
34
27
38
3
5
92
57
4
0
0
0
1
8
42
25
0
0
0
0
0
0
0
0
0
0
0
0
0
31
27
22
1
0
0
0
9
127
60
9
0
0
0
1
56
127
31
1
0
0
0
13
114
0
0
0
0
0
0
0
0
24
19
19
0
0
0
8
48
127
119
11
0
0
0
2
43
127
127
18
0
0
0
1
12
0
1
6
0
0
0
11
2
25
11
44
8
1
7
46
19
127
43
4
1
0
1
23
127
79
62
2
0
0
3
127
127
4
1
0
0
0
0
22
17
7
1
0
0
0
4
77
89
32
0
0
0
0
2
40
127
43
0
0
0
0
3
46
127
94
1
0
0
0
0
0
120
41
0
0
0
0
25
116
134
0
0
0
7
61
118
72
15
0
0
0
31
42
4
0
0
131
37
1
0
0
0
0
65
134
13
0
0
0
5
53
134
45
1
0
28
35
34
38
24
0
0
0
95
45
0
0
0
100
87
0
0
0
0
0
0
134
48
0
0
0
0
0
1
75
15
7
16
7
0
0
1
0
0
3
71
26
0
0
0
94
60
0
0
0
0
0
0
134
79
0
0
0
0
0
0
55
47
14
7
0
0
0
0
0
3
13
65
15
2
2
0
0
131
109
0
0
1
0
0
15
131
25
0
0
12
32
8
15
45
0
0
0
28
89
16
15
10
1
0
0
18
68
19
2
81
32
0
0
85
99
3
12
12
4
0
0
131
131
27
98
26
1
0
0
14
89
70
19
45
6
0
0
3
5
3
8
0
0
0
0
131
131
19
123
16
0
0
0
50
131
56
128
18
0
0
0
0
6
17
5
3
0
0
0
0
0
0
35
12
8
0
0
39
84
46
76
4
0
0
0
0
6
29
4
1
0
0
0
0
0
0
0
0
0
0
0
0
0
0
29
32
61
11
13
0
0
3
135
49
36
1
0
0
0
55
135
8
2
34
27
0
0
60
2
0
0
135
135
0
0
2
0
5
48
10
0
0
0
0
106
56
135
48
0
0
0
14
135
37
14
9
7
0
0
94
28
7
4
135
110
0
0
13
0
0
1
1
0
0
0
0
5
14
115
49
0
0
0
0
102
89
85
33
2
0
0
10
73
29
11
95
15
0
0
8
0
0
0
0
0
0
0
0
0
0
6
11
2
0
0
0
24
8
18
48
17
0
0
4
93
19
9
14
0
0
0
8
144
5
0
0
0
0
0
28
154
5
0
0
0
0
0
55
96
27
16
2
0
0
0
15
4
11
16
32
25
0
0
0
140
39
0
0
0
0
0
6
154
66
0
0
0
0
0
20
124
53
4
1
0
1
1
18
10
1
0
7
44
28
3
6
136
12
0
0
0
0
0
16
154
10
0
0
0
0
0
57
123
13
7
5
0
0
1
32
1
1
5
28
37
10
2
1
93
0
0
0
0
0
0
50
154
0
0
0
0
0
0
84
108
1
0
0
0
1
14
83
1
1
1
7
28
19
22
5
173
32
0
0
0
0
0
11
173
28
0
0
0
0
0
7
86
27
3
1
0
1
2
1
1
0
0
0
0
1
3
0
173
44
0
0
0
0
0
29
173
57
0
0
0
0
1
40
58
55
10
8
4
14
7
5
0
0
1
2
0
1
0
0
173
124
3
0
0
0
0
16
173
36
0
0
0
1
11
76
29
3
0
0
0
21
34
39
0
0
0
0
0
0
0
0
46
125
19
0
2
4
2
11
52
20
0
0
0
0
8
85
3
0
0
0
0
0
3
24
0
0
0
0
0
0
0
0
11
125
42
0
0
0
0
0
9
125
61
0
0
0
0
0
56
125
19
0
0
0
0
1
81
80
2
0
0
0
0
12
5
125
63
3
2
13
6
1
45
54
35
3
3
12
7
24
125
76
2
0
0
0
0
27
114
61
1
0
0
0
0
2
3
12
1
0
3
60
40
4
101
6
0
0
0
17
24
35
125
26
0
0
0
0
0
29
125
39
0
0
0
0
0
18
4
0
0
0
2
67
29
11
125
2
0
0
0
3
13
51
125
30
0
0
0
0
0
31
125
125
0
0
0
0
0
4
64
23
0
0
0
0
0
24
80
14
0
0
0
0
0
9
133
8
0
0
0
0
0
10
133
30
0
0
0
0
0
0
119
0
0
0
0
0
0
34
85
1
0
0
0
0
2
40
133
12
0
0
0
0
0
17
133
21
0
0
0
0
0
3
95
0
0
0
0
0
0
61
111
9
0
0
0
0
1
44
133
61
0
0
0
0
0
2
133
60
0
0
1
0
0
1
81
8
0
0
0
0
0
49
124
94
0
0
0
0
0
15
133
133
2
0
0
0
0
0
39
102
17
9
5
0
0
0
5
64
114
22
1
0
0
1
13
125
85
6
0
0
0
0
16
105
125
12
0
0
0
0
1
13
102
27
9
3
0
0
27
9
15
13
4
16
40
27
120
78
9
3
1
6
7
17
30
50
9
2
3
44
26
4
9
25
5
9
21
83
18
1
32
2
0
0
0
4
39
87
101
5
0
0
0
13
40
96
12
31
4
0
0
106
66
20
51
125
5
0
0
32
21
0
8
0
0
0
0
1
40
125
57
29
0
0
0
1
42
114
41
125
12
0
0
6
12
13
58
125
16
0
0
0
0
0
4
3
0
37
121
22
2
3
99
28
1
2
14
12
35
111
25
13
4
0
0
67
121
69
20
14
0
0
0
24
57
54
9
6
1
119
121
0
0
0
99
56
13
15
23
0
2
5
23
77
62
0
0
0
12
9
29
121
19
0
0
0
5
21
4
1
1
121
121
0
0
0
110
12
6
65
39
0
0
17
81
23
8
0
0
0
3
35
35
33
2
0
2
1
21
37
0
0
0
98
118
9
0
0
22
5
13
121
51
0
0
4
46
2
3
5
0
0
0
36
95
30
0
0
1
0
1
17
119
15
0
0
0
0
0
27
119
3
0
0
0
0
5
119
61
1
0
0
0
0
18
111
114
0
0
0
0
0
0
86
104
72
0
0
0
0
0
7
119
47
0
0
0
0
0
41
119
21
0
0
0
0
0
44
110
0
0
0
0
0
0
103
103
87
0
0
0
0
0
1
119
41
0
0
0
0
8
70
71
2
0
0
0
0
5
119
45
0
0
0
0
0
6
101
48
80
4
2
5
2
0
0
11
7
1
1
9
10
16
44
51
0
0
0
0
0
7
119
25
0
0
0
0
0
14
80
21
0
0
3
20
8
3
42
133
3
0
0
0
0
2
99
67
28
0
0
0
0
4
47
69
50
0
0
0
0
0
4
18
0
0
2
68
25
6
22
164
25
0
0
2
6
4
79
118
122
3
0
0
0
0
4
84
41
0
0
0
0
0
14
29
0
0
0
84
60
7
11
164
7
0
0
8
12
2
39
164
47
1
0
0
0
0
4
34
26
4
1
2
1
2
13
45
10
0
1
26
71
11
4
164
37
0
0
2
5
1
11
161
15
0
0
0
0
5
41
6
7
2
1
5
11
14
16
12
49
7
0
0
0
0
0
128
128
6
0
0
0
0
1
128
119
0
0
0
0
1
18
102
19
0
0
0
0
3
58
22
17
0
0
0
0
0
0
128
49
0
0
0
0
0
24
128
15
0
0
0
0
7
126
95
3
0
0
0
0
10
105
49
11
0
0
0
0
0
5
128
94
0
0
0
0
0
6
128
56
0
0
0
0
1
45
92
7
0
0
0
0
0
66
57
31
0
0
0
0
0
1
107
104
2
0
2
1
0
2
44
18
1
0
3
4
12
69
37
0
0
0
0
0
6
94
59
19
0
0
1
4
9
31
136
84
0
0
0
1
0
8
71
29
7
8
1
1
13
18
32
0
2
11
3
1
20
114
96
5
0
0
0
0
35
116
136
51
0
0
0
0
0
43
66
61
12
18
5
0
2
13
7
1
5
53
48
2
2
43
136
88
0
0
0
0
5
63
136
43
0
0
0
0
1
75
44
5
0
1
3
0
14
118
4
0
0
33
62
9
16
16
136
21
0
0
0
0
0
136
127
38
1
0
0
0
0
33
23
13
2
3
10
5
31
53
0
0
0
2
11
28
67
21
0
0
0
0
0
0
0
0
0
3
20
2
0
0
0
0
0
2
58
37
23
4
0
0
0
0
3
43
144
18
0
0
1
0
0
0
0
0
0
0
40
46
48
7
1
0
0
4
4
16
89
125
32
3
0
0
0
0
4
144
144
4
0
0
14
14
3
0
0
0
0
1
144
61
8
4
8
3
0
20
17
7
5
33
95
30
1
4
0
0
0
51
144
80
0
0
2
29
40
18
10
2
1
0
21
115
53
10
18
50
9
0
2
7
5
15
65
144
46
0
0
0
0
1
144
144
12
0
35
21
4
1
16
56
37
42
69
35
2
0
0
1
5
35
56
35
0
0
0
2
4
14
67
46
0
0
0
0
0
2
72
0
0
0
0
0
20
132
57
3
0
0
0
0
28
131
132
19
0
0
0
0
6
54
93
49
1
0
0
0
0
5
68
0
0
0
8
4
12
132
132
51
0
0
0
0
3
125
132
80
0
0
0
0
0
15
75
8
0
0
0
0
1
56
54
0
0
4
51
13
12
77
132
10
0
0
0
0
1
132
122
28
0
0
0
0
0
25
31
15
1
1
2
0
3
24
18
11
1
1
1
14
135
34
49
4
0
0
0
1
135
135
15
0
0
0
0
0
28
68
0
0
0
0
0
0
0
0
92
60
4
0
0
15
135
40
135
57
0
0
1
0
26
75
48
16
0
2
38
30
22
44
0
0
0
1
11
8
2
0
125
80
6
0
0
0
0
73
135
62
0
0
1
0
2
43
38
2
3
24
62
11
9
26
0
0
13
46
21
2
0
0
94
2
0
0
0
0
10
135
135
13
0
0
0
0
3
135
14
1
2
4
1
1
17
47
1
0
7
19
12
15
10
9
9
14
15
17
1
0
0
1
33
21
11
6
0
0
0
7
97
39
3
7
2
0
0
1
166
163
0
0
0
1
5
22
35
7
9
5
0
0
0
6
23
59
32
9
1
0
0
0
150
19
10
31
19
0
0
16
166
12
0
0
0
9
19
158
60
0
0
0
0
0
0
16
79
9
1
2
6
2
0
5
59
1
1
9
64
14
1
31
166
0
0
0
4
7
51
166
57
0
0
0
0
0
0
21
61
0
0
0
6
1
0
8
11
0
0
0
75
12
2
12
32
0
0
0
11
10
70
102
1
0
0
0
0
0
82
115
0
0
0
0
0
0
115
89
5
0
0
0
0
0
87
69
9
4
1
0
0
0
31
31
2
0
0
0
0
0
87
115
17
5
0
0
0
0
115
115
115
7
0
0
0
0
46
115
78
22
8
0
0
0
4
37
57
21
3
0
0
0
13
107
110
109
0
0
0
0
12
44
115
52
0
0
0
0
3
65
37
0
0
0
0
0
15
115
70
51
5
0
0
0
2
21
89
48
0
0
0
0
17
65
13
6
0
0
0
0
49
63
1
0
0
0
0
0
32
113
101
30
6
8
3
0
0
1
122
8
0
0
0
0
0
55
122
1
0
0
0
0
0
115
44
4
0
2
3
0
0
33
44
99
85
6
0
0
0
0
122
63
56
1
0
0
0
38
122
36
4
0
0
0
0
102
95
9
0
0
0
0
0
66
69
84
73
0
0
0
0
8
27
94
122
3
0
0
0
2
73
122
35
0
0
0
0
4
46
68
23
7
0
0
0
11
96
2
0
0
0
0
0
64
108
23
3
0
0
0
0
24
122
53
2
0
0
0
0
4
27
15
17
16
0
0
0
5
1
22
30
2
1
16
57
7
57
27
28
7
1
13
52
54
52
23
67
81
72
8
9
48
0
56
93
34
22
0
0
0
0
1
2
0
9
45
27
0
57
2
0
0
18
37
31
82
141
102
21
8
14
12
25
121
10
111
138
7
2
1
0
1
0
0
0
1
10
49
3
0
96
6
0
1
16
48
4
23
141
84
3
0
0
0
0
53
65
89
24
0
0
0
0
4
4
10
69
29
7
12
13
9
52
26
66
57
10
11
12
15
141
76
9
2
0
0
0
55
100
17
0
0
5
13
1
23
39
23
4
0
0
0
122
127
72
13
32
12
3
9
59
127
6
4
33
64
45
61
50
41
25
7
10
12
6
5
3
18
37
60
92
8
0
0
16
44
127
77
20
0
0
2
23
127
33
3
0
0
1
21
72
91
17
10
2
1
3
9
31
32
86
96
91
14
0
0
0
36
45
111
38
14
1
0
2
4
34
38
3
5
0
2
24
18
68
58
1
0
0
0
8
11
30
42
127
127
49
45
81
29
23
26
16
26
18
7
4
15
35
45
15
10
11
1
0
12
40
25
3
0
0
0
0
4
45
2
2
4
0
16
57
20
91
12
0
0
0
2
7
6
62
23
0
0
0
0
0
2
56
3
0
0
0
0
10
24
52
13
14
122
23
0
0
1
130
16
0
0
0
0
0
7
65
43
0
0
0
0
0
3
28
54
8
0
0
1
2
4
10
4
42
130
130
0
0
0
84
20
36
37
0
0
0
25
94
100
1
0
0
1
0
18
21
102
11
1
24
51
4
0
10
28
130
130
87
9
0
3
9
53
130
130
3
0
0
1
23
130
47
20
20
26
4
0
7
72
32
2
18
69
12
0
29
1
0
0
14
30
12
62
2
0
0
0
52
119
26
3
31
2
0
0
2
20
33
33
18
2
0
0
0
1
21
39
7
0
0
0
8
30
79
119
8
0
0
0
38
112
41
18
62
8
0
0
6
30
14
35
84
11
0
0
3
56
52
33
7
0
0
0
0
3
59
119
48
5
0
0
1
25
38
74
111
33
1
31
106
45
6
12
119
60
3
26
78
72
39
27
17
0
0
0
0
0
4
95
66
0
0
0
0
0
9
103
119
6
2
58
78
3
2
72
119
80
8
61
82
6
1
2
3
10
71
81
7
0
0
3
54
5
34
24
0
0
0
48
127
9
32
68
0
0
0
55
14
3
31
128
13
0
0
4
0
0
70
128
16
3
2
0
27
4
28
128
55
0
0
7
128
11
3
10
5
0
0
53
85
3
5
128
27
0
0
17
0
0
1
32
19
33
106
5
4
6
16
128
36
6
35
25
126
43
24
38
3
0
1
14
96
2
0
13
4
0
2
40
1
0
0
0
9
17
92
72
5
0
1
8
9
17
52
111
12
3
3
7
4
27
45
53
11
0
0
0
0
0
69
75
117
15
0
2
12
16
0
3
0
0
0
21
81
65
3
0
5
5
32
52
48
11
3
3
0
4
24
68
111
1
0
0
117
9
0
0
34
73
2
12
9
0
0
0
50
117
20
11
103
8
3
22
31
27
20
42
8
16
27
90
61
0
0
0
117
0
0
0
66
93
8
57
38
13
0
0
79
117
5
11
117
43
5
8
2
5
2
28
33
15
54
94
3
0
0
4
76
0
0
0
50
43
9
101
21
1
0
1
58
40
7
42
117
4
0
0
0
0
4
117
85
4
7
19
3
0
0
30
0
0
0
0
0
12
12
1
3
8
10
4
1
19
18
1
14
1
12
13
1
7
17
31
60
3
2
7
29
4
3
117
18
1
0
0
0
1
7
10
129
80
57
19
0
1
5
24
16
37
129
115
1
1
1
5
35
114
129
9
3
0
1
29
17
8
1
0
0
0
0
7
129
121
21
2
0
0
0
57
121
83
129
38
0
0
0
11
19
79
129
17
0
0
0
4
0
11
3
0
0
0
0
0
29
129
81
0
0
0
0
0
46
111
69
5
0
0
0
1
10
15
64
12
3
4
21
7
1
0
0
0
0
0
0
1
74
14
0
0
0
0
0
2
139
23
0
0
0
0
14
35
22
0
0
0
0
3
83
65
40
1
0
0
0
0
0
18
139
54
0
0
0
0
6
40
139
27
0
0
0
19
126
81
2
0
0
0
0
2
139
139
20
1
0
0
0
0
0
1
139
7
0
0
0
1
80
93
18
0
0
0
0
34
139
74
13
0
0
0
0
4
88
139
0
0
0
0
0
0
0
0
3
0
0
0
0
0
38
22
23
0
0
0
0
0
62
74
72
0
0
0
0
0
9
87
0
0
0
10
25
0
0
0
0
1
0
0
2
0
0
0
0
0
0
0
0
0
0
0
0
0
0
0
0
0
0
0
0
1
5
44
128
0
0
0
124
44
11
7
10
0
0
7
137
13
0
0
0
7
21
120
4
0
0
0
7
31
23
21
0
13
10
51
121
0
0
0
109
137
21
7
2
0
0
5
137
122
0
0
4
14
35
137
12
3
0
11
95
72
40
31
6
49
9
33
70
0
0
0
54
137
4
1
0
0
0
0
76
137
8
9
6
0
0
0
2
5
3
31
106
2
0
0
0
0
0
0
0
0
0
0
139
56
0
0
0
0
0
47
83
18
0
0
68
67
5
32
10
0
0
0
61
70
10
12
6
2
0
0
0
0
0
0
139
139
5
4
9
1
0
11
45
48
6
13
139
69
1
5
0
0
0
2
72
68
9
4
22
0
0
0
0
0
0
11
139
10
0
1
15
13
5
102
42
4
0
3
139
92
6
17
0
0
0
0
74
44
10
14
25
21
4
0
0
0
0
5
139
83
12
1
11
21
9
54
16
1
0
6
89
139
10
11
0
0
0
0
25
58
9
14
6
1
0
0
23
52
3
2
70
3
0
0
0
19
34
32
140
66
3
0
0
5
74
45
46
98
76
24
9
9
33
2
6
0
0
0
23
60
9
8
55
11
4
1
6
97
41
31
144
44
1
0
0
13
19
58
121
24
2
2
23
51
31
20
1
0
1
2
19
31
5
4
55
102
37
9
12
25
5
8
144
99
19
7
13
40
101
59
40
14
7
3
6
52
144
76
8
0
0
0
6
14
5
15
121
16
1
0
0
0
0
18
56
16
53
34
19
25
18
11
17
53
78
14
6
24
33
20
37
3
0
0
0
21
27
19
133
67
1
0
0
4
41
33
62
100
63
23
14
12
13
3
0
1
24
89
72
24
17
10
40
27
13
3
6
55
23
14
133
58
5
0
0
6
25
41
95
15
0
0
21
67
78
28
0
0
0
2
127
109
7
0
60
69
23
4
4
4
0
6
91
59
28
18
19
47
120
41
36
31
22
5
5
41
133
101
7
2
0
0
60
98
31
20
95
10
0
0
0
0
0
7
38
11
56
29
11
11
5
8
14
43
65
9
6
36
7
10
4
4
0
0
18
84
3
3
0
12
93
5
0
0
0
0
1
8
54
74
21
4
5
6
22
20
47
21
9
2
6
63
29
24
43
1
0
0
0
19
4
10
48
11
51
25
11
11
110
42
102
63
24
16
19
52
26
58
136
38
3
0
0
6
42
31
136
67
3
0
0
4
6
8
13
46
70
10
9
31
136
87
35
34
25
6
5
52
86
28
86
7
0
0
29
74
10
2
58
85
63
28
22
15
2
3
5
5
0
0
25
79
33
23
9
4
0
0
63
88
8
0
0
0
0
1
136
94
14
8
0
0
19
81
87
24
66
0
0
0
0
0
0
26
142
10
0
0
0
0
0
53
122
3
0
0
0
0
30
142
2
0
0
0
0
0
53
142
60
2
0
0
0
0
0
17
142
32
0
0
0
0
0
35
69
19
1
3
32
19
32
42
0
0
0
0
5
13
110
142
17
2
0
0
0
0
0
0
142
57
2
0
1
0
0
31
58
15
1
15
96
23
4
16
0
0
0
5
74
42
58
30
0
0
0
0
0
0
0
0
22
44
3
0
0
0
88
51
22
12
1
14
53
13
87
98
0
0
0
13
142
19
6
3
14
10
0
0
1
80
72
21
54
29
0
0
0
7
28
38
36
66
3
0
0
0
6
30
14
64
49
4
0
0
1
32
44
51
1
0
0
3
12
15
78
42
0
0
0
0
11
43
149
97
1
0
0
0
2
31
127
149
86
8
0
0
0
8
40
6
7
16
0
0
0
48
61
2
0
0
0
0
8
65
149
31
0
0
0
0
0
50
149
50
3
0
0
0
0
66
5
2
36
81
3
0
0
6
25
5
29
11
0
0
0
37
149
13
4
0
0
0
0
93
149
38
0
0
0
0
0
38
28
129
23
0
0
0
0
0
71
129
0
0
0
0
0
0
96
129
0
0
0
0
0
0
34
42
22
14
0
0
0
0
120
93
0
0
0
0
0
1
129
69
0
0
0
0
0
30
129
28
0
0
0
0
0
19
101
60
8
0
0
0
0
0
75
99
0
0
0
0
0
3
129
42
0
0
0
0
0
12
129
23
0
0
0
0
0
6
129
46
0
0
2
3
0
0
51
13
1
0
0
1
1
24
103
3
0
0
0
0
0
30
129
6
0
0
0
0
0
12
107
10
0
0
7
14
2
6
131
10
0
0
0
0
0
27
131
32
2
0
0
0
0
38
131
84
8
0
0
0
0
4
39
41
27
7
0
0
0
4
87
87
3
0
0
0
0
1
131
106
0
0
0
0
0
10
131
30
0
0
0
0
0
55
107
11
3
0
0
0
0
47
48
31
1
0
0
0
0
1
131
25
0
0
0
0
0
59
107
1
0
0
0
0
1
121
117
0
0
0
0
0
0
95
46
12
0
0
0
0
0
2
117
32
0
0
0
0
0
16
75
1
0
0
0
0
0
69
66
0
0
0
0
0
0
97
8
0
0
0
1
122
122
116
16
0
0
5
16
60
122
122
9
7
15
12
32
43
122
98
6
13
79
6
1
3
122
57
21
0
0
0
6
69
36
84
56
16
2
0
0
19
84
82
36
39
4
0
0
6
67
67
10
18
1
0
0
0
113
57
56
0
0
0
14
15
3
25
122
18
0
0
0
0
0
27
61
50
1
0
0
0
0
9
10
72
6
0
0
0
0
1
79
15
0
0
9
22
4
8
118
89
2
0
0
0
0
3
40
82
1
0
0
0
0
0
9
28
4
1
3
1
0
0
3
7
5
2
0
0
8
20
23
30
1
0
0
0
0
16
140
11
0
0
0
0
2
174
45
0
0
0
14
18
136
174
34
3
0
0
0
0
23
116
23
10
2
0
0
0
12
69
56
16
2
0
0
0
4
92
11
11
10
5
0
0
102
174
164
24
0
0
0
0
0
45
45
38
12
0
0
0
1
30
73
31
3
0
0
0
2
36
17
8
9
17
3
1
9
40
59
5
0
0
0
0
1
95
18
1
0
0
0
0
10
115
4
0
0
0
0
0
31
72
0
0
0
0
0
0
24
73
1
0
0
1
8
47
47
12
22
0
0
0
0
7
15
85
2
0
0
0
0
0
1
17
0
0
0
0
0
0
0
0
48
6
2
0
0
12
38
60
38
8
8
1
0
1
8
86
109
17
0
0
0
0
2
44
6
1
0
0
0
0
0
2
125
47
16
3
2
2
2
54
42
21
23
8
3
18
61
17
125
18
1
0
0
1
125
116
11
1
0
0
0
0
51
66
71
125
65
27
57
125
23
13
11
6
10
13
55
125
125
18
91
5
0
0
0
6
125
125
67
1
0
0
3
5
33
95
1
11
112
88
3
0
8
6
39
121
121
8
0
0
0
2
17
121
121
10
0
0
0
2
0
10
121
94
1
0
0
0
52
25
35
76
10
1
23
63
121
52
39
27
0
0
0
31
121
51
62
23
2
0
0
43
9
6
43
121
40
0
0
0
33
56
84
121
16
1
1
7
36
60
95
30
0
0
0
3
121
61
10
4
3
3
8
39
15
5
10
43
47
16
13
16
14
7
30
42
26
10
16
30
4
20
47
10
4
0
0
0
38
22
7
0
0
0
2
20
15
5
1
0
1
2
5
13
48
114
107
9
0
0
0
4
31
121
130
15
0
0
0
6
0
10
130
130
4
0
0
0
0
0
60
130
24
0
0
0
100
39
37
27
0
0
0
27
130
53
48
28
4
0
0
47
15
9
45
130
70
2
1
2
0
0
65
130
12
0
0
0
25
55
90
23
0
0
0
0
130
63
12
3
3
4
12
47
18
8
15
42
55
23
19
23
5
26
92
52
5
0
0
0
3
14
29
9
5
1
0
0
35
26
11
0
0
0
1
18
21
8
3
0
1
1
5
16
20
15
7
3
0
0
0
3
0
0
0
0
0
0
0
0
29
103
20
0
0
0
0
10
37
128
41
0
0
0
0
12
26
36
2
0
0
0
0
5
8
4
0
0
0
0
0
3
128
47
2
0
0
0
0
97
128
61
6
0
0
0
0
126
112
18
0
0
0
2
13
72
26
11
0
0
0
0
1
6
128
98
0
0
0
0
0
29
128
80
0
0
0
0
0
33
110
63
5
2
1
2
3
35
12
1
0
0
0
0
19
52
88
7
0
0
0
0
4
128
128
12
0
0
0
0
2
128
86
31
1
0
3
40
21
60
0
5
13
75
39
0
0
0
96
61
13
6
0
0
0
2
87
48
8
50
52
16
1
6
0
0
1
65
72
23
1
0
0
2
8
118
78
0
0
0
115
43
13
14
2
0
0
6
118
32
6
53
44
3
1
24
2
0
1
97
102
8
0
1
8
7
4
56
118
61
4
3
91
41
5
4
7
8
3
6
118
24
1
11
39
12
2
20
3
1
0
34
118
32
1
2
8
34
26
118
118
23
1
1
42
78
35
19
1
1
0
1
118
38
4
15
22
0
0
0
5
2
1
52
118
4
0
0
0
0
3
1
2
119
74
0
1
16
14
6
2
119
96
1
4
46
52
10
0
36
49
4
0
43
30
10
0
7
4
0
0
17
49
10
10
59
9
0
35
41
68
51
1
9
2
2
119
93
81
58
4
0
0
32
20
57
53
97
12
0
0
4
0
33
119
20
0
0
0
0
11
25
119
70
0
0
0
1
117
73
33
22
3
0
0
27
45
30
31
102
10
0
0
9
0
2
119
119
6
0
0
0
0
8
88
119
23
0
0
0
23
106
30
20
1
0
0
0
21
35
14
27
4
22
6
1
63
142
4
0
0
0
0
0
36
131
16
1
0
0
0
3
142
103
0
0
0
0
0
4
42
121
7
0
0
0
0
2
65
128
2
0
0
1
1
7
64
28
8
3
11
17
3
8
142
49
0
0
0
1
0
12
93
44
0
0
1
1
1
12
21
12
0
0
0
2
48
41
86
4
0
0
2
19
48
41
142
15
0
0
0
0
0
35
75
0
0
0
0
0
7
57
0
0
0
0
1
23
86
14
118
0
0
0
0
1
56
98
142
3
0
0
0
0
0
40
72
2
0
0
0
0
1
14
105
1
0
0
0
0
0
124
53
1
0
0
0
0
0
124
41
14
2
0
0
0
0
28
124
6
0
0
0
0
2
124
92
98
0
0
0
0
0
34
124
66
0
0
0
0
0
57
76
36
1
0
0
0
0
23
108
18
0
0
0
0
2
124
77
35
0
0
0
0
0
96
124
23
0
0
0
0
0
88
61
16
0
0
0
0
1
74
30
11
0
1
2
0
2
54
63
3
0
0
0
0
0
63
113
1
0
0
0
0
0
92
19
0
0
0
0
0
14
103
3
0
0
0
0
0
8
97
70
17
0
0
0
0
0
108
72
5
0
0
0
0
11
139
71
5
0
0
0
0
33
139
64
7
0
0
0
0
3
66
28
46
0
0
0
0
0
4
139
97
0
0
0
0
0
58
139
65
0
0
0
0
2
90
116
9
0
0
0
0
1
104
3
3
0
0
0
0
0
0
54
13
0
0
0
0
10
121
47
4
0
0
0
0
32
139
47
0
0
0
0
0
7
139
0
0
0
0
0
0
0
0
0
0
0
0
0
0
2
13
54
1
0
0
0
0
4
98
55
0
0
0
0
0
7
125
0
6
6
0
0
0
0
0
56
68
38
0
0
0
0
0
135
36
2
0
0
0
0
44
135
4
0
0
0
0
0
66
1
3
1
0
0
0
0
0
61
132
43
0
0
0
0
4
116
135
48
0
0
0
0
13
135
105
3
0
0
0
0
33
2
0
0
0
0
0
0
0
135
22
1
0
0
0
0
64
135
76
9
0
0
0
0
45
130
87
4
0
0
0
0
7
0
0
0
0
0
0
0
0
103
34
0
0
0
0
0
15
135
25
0
0
0
0
0
22
111
2
0
0
0
0
0
45
97
3
0
0
0
0
2
75
42
0
0
0
0
27
51
104
150
14
0
0
0
6
11
48
61
13
5
39
23
1
0
2
19
3
1
0
0
0
2
45
66
1
0
0
0
0
56
137
150
48
0
0
0
1
11
43
64
16
0
1
30
58
1
2
12
3
1
0
0
0
0
10
144
16
1
0
0
0
2
18
150
20
0
0
0
17
8
40
26
1
0
0
18
150
9
10
20
9
0
0
0
0
0
5
87
9
0
0
0
0
0
17
150
0
0
0
3
20
15
120
3
0
0
0
37
125
12
15
0
0
0
0
6
43
10
0
58
0
0
0
3
33
20
72
161
83
21
5
0
0
1
59
15
131
85
0
0
0
0
0
0
1
12
10
27
39
0
0
109
11
21
20
14
27
3
31
161
43
2
0
0
0
0
67
105
55
5
0
8
31
1
12
6
9
27
12
6
9
34
17
79
45
57
40
3
8
41
17
161
86
6
0
0
0
1
38
84
1
0
0
28
71
16
45
2
2
0
2
14
12
29
6
116
65
0
0
1
5
34
30
161
55
0
0
0
0
1
29
32
12
23
9
16
31
6
9
0
1
1
0
0
0
0
0
7
77
15
0
0
0
0
1
108
123
2
0
0
0
0
2
127
80
0
0
0
0
0
0
42
28
1
0
0
1
1
9
51
29
7
0
0
17
27
25
127
62
0
0
0
1
5
26
127
85
0
0
12
21
4
6
36
69
2
0
1
34
12
2
75
10
0
0
0
47
50
43
127
93
7
3
1
0
7
69
54
42
8
11
40
36
80
59
11
12
1
0
5
78
16
2
87
70
6
0
0
22
29
25
127
126
9
6
8
20
33
71
6
14
8
17
81
121
49
15
70
76
1
0
0
0
0
0
73
64
6
0
0
0
0
0
95
111
12
0
0
0
0
6
127
127
0
0
0
10
50
50
107
21
0
0
0
0
0
5
127
13
0
0
0
2
0
4
97
17
0
0
1
17
27
81
98
6
0
0
0
52
127
127
97
7
0
0
0
0
1
24
127
20
0
0
11
7
1
8
8
1
0
0
63
68
45
21
0
0
0
0
5
74
127
30
88
8
0
0
0
0
1
33
50
16
4
4
9
10
41
34
0
0
0
15
80
36
42
3
0
0
0
21
51
42
30
0
29
9
0
0
10
46
12
12
125
12
0
0
1
18
26
125
92
10
3
9
108
112
63
63
34
31
1
1
95
125
14
0
38
4
0
0
20
84
13
17
125
29
2
0
3
11
18
55
28
8
4
1
50
125
77
49
125
77
1
0
37
62
6
6
36
2
0
0
9
36
9
11
125
17
2
5
13
4
2
16
25
5
2
13
125
85
6
12
125
17
0
0
9
21
6
83
0
0
0
0
0
0
0
0
5
2
0
1
2
0
0
0
3
0
0
3
29
4
0
2
59
0
0
0
2
1
0
39
15
2
1
6
21
21
40
31
164
1
0
0
1
2
13
144
164
0
0
0
0
0
0
85
4
0
0
0
0
0
0
4
35
8
1
16
109
15
1
4
164
34
0
0
10
2
0
24
164
7
0
0
0
0
4
60
1
0
0
0
0
0
0
3
57
5
0
0
94
60
2
3
164
31
0
0
4
3
3
23
90
2
0
0
0
1
38
51
0
0
0
0
0
0
0
0
80
4
0
0
14
52
35
20
164
20
0
0
0
19
16
25
16
0
0
0
0
43
52
12
0
0
0
0
0
0
0
0
29
9
0
0
0
3
13
22
124
15
0
0
0
0
5
34
95
15
0
0
29
48
26
19
1
0
0
0
42
89
124
31
38
8
0
0
1
35
27
24
124
39
2
2
4
5
12
64
42
17
3
7
75
118
55
19
3
14
0
1
86
124
49
0
66
30
0
0
1
31
10
7
124
38
3
1
2
18
47
94
10
6
1
1
69
124
64
28
41
110
1
0
21
67
17
0
89
28
0
0
0
3
3
4
34
18
4
2
19
56
9
7
33
21
0
0
8
82
23
9
90
124
0
0
2
3
0
0
73
2
0
0
1
133
118
106
3
0
0
0
20
142
101
12
65
5
0
0
2
38
122
62
60
10
0
0
0
0
30
32
5
0
0
15
55
84
50
18
25
0
0
18
62
142
17
10
142
16
0
0
4
11
5
28
67
11
0
0
0
1
15
31
10
1
1
24
62
44
8
18
45
5
0
26
102
62
0
1
142
12
0
1
6
3
2
18
32
1
0
4
7
10
23
28
20
1
1
9
47
25
27
38
37
3
0
8
82
25
2
2
142
7
0
1
1
0
0
10
36
4
0
8
30
2
0
4
57
0
0
0
0
0
0
4
136
19
0
0
0
0
0
1
138
58
0
0
0
0
0
10
138
33
0
0
2
3
20
57
62
16
0
0
0
0
0
0
138
23
0
0
0
0
0
1
138
18
0
0
0
0
0
67
138
9
0
0
0
0
6
138
19
35
3
0
0
0
0
0
138
48
0
0
0
0
0
7
125
13
0
0
0
0
0
28
138
31
0
0
0
1
3
54
22
13
0
0
0
0
0
1
86
50
0
0
0
0
0
1
78
32
0
0
0
0
0
3
138
9
0
0
0
6
18
67
3
1
0
0
0
0
0
0
38
56
0
0
0
0
0
0
20
36
0
0
0
0
0
0
0
0
0
0
0
0
0
0
56
13
7
3
0
0
0
32
165
86
0
0
0
0
2
26
65
45
0
0
0
1
21
15
0
0
0
0
0
0
4
3
33
40
74
165
17
11
7
18
121
16
3
8
3
7
21
150
53
6
0
0
0
3
49
90
11
0
0
0
0
5
25
33
12
5
125
165
47
7
2
8
53
54
134
165
31
23
6
24
46
33
8
2
4
67
56
16
16
0
0
0
0
26
51
67
111
67
0
0
23
47
14
5
132
113
0
0
0
0
3
24
132
33
0
0
0
0
1
32
58
10
0
0
0
0
0
7
132
132
0
0
7
14
0
0
120
48
0
1
10
4
19
50
132
4
0
0
0
0
5
84
52
0
0
0
0
0
0
14
132
96
0
0
4
5
2
18
95
36
0
2
35
29
4
6
132
37
0
0
1
1
1
24
21
0
0
0
0
0
0
7
115
2
0
0
0
5
17
92
105
14
0
0
3
18
25
31
88
12
0
0
0
4
22
26
0
0
0
0
0
0
1
2
8
0
0
0
0
137
137
22
33
1
0
1
4
108
137
59
62
5
0
0
0
2
51
76
63
0
0
0
0
0
4
34
8
0
0
2
53
137
35
6
137
13
0
0
5
29
13
34
137
15
0
0
0
0
6
43
80
0
0
0
0
0
1
65
22
2
0
3
108
41
0
0
137
14
0
0
9
4
1
9
68
2
0
1
3
3
25
52
81
0
0
0
0
0
4
93
25
2
0
0
61
29
3
1
137
12
0
0
2
1
0
5
53
5
0
5
22
4
1
7
90
0
0
0
3
0
1
31
39
16
0
0
0
0
0
0
136
22
0
0
0
0
0
12
136
2
0
0
0
0
0
128
136
5
1
11
20
37
13
85
19
18
0
0
0
0
0
0
136
64
0
0
0
0
0
4
136
20
0
0
0
0
2
58
136
0
0
0
3
133
92
130
13
2
0
0
0
0
0
0
136
11
0
0
0
0
0
27
91
3
0
0
0
1
9
93
10
0
0
1
20
91
76
46
1
0
0
0
0
0
0
0
43
2
0
0
0
0
1
23
25
0
0
0
0
0
4
97
3
0
0
4
39
15
5
25
36
0
0
0
31
104
24
48
115
79
0
0
35
93
2
1
134
106
0
0
0
0
0
30
134
9
0
0
0
0
0
51
41
2
0
0
15
87
35
33
134
116
0
0
5
27
4
24
134
73
0
0
2
4
6
24
134
13
0
0
0
0
0
25
32
0
0
0
25
27
3
15
134
7
0
0
1
4
5
121
134
7
0
0
0
2
19
96
108
6
0
0
0
0
2
27
0
0
0
0
0
0
0
0
11
0
0
0
0
0
0
9
30
0
0
0
0
0
1
16
10
0
0
0
0
0
2
7
15
17
23
2
0
0
0
15
19
41
46
0
0
0
0
29
12
29
109
58
0
0
0
3
0
0
51
132
5
0
0
0
4
4
77
50
0
0
0
10
85
17
42
27
0
0
1
60
132
108
110
35
0
0
1
36
14
19
132
132
0
0
7
11
0
6
104
23
0
0
0
0
33
37
132
42
0
0
0
1
132
52
29
7
1
2
58
114
15
5
49
36
2
2
132
104
0
2
32
1
0
0
0
0
0
7
70
7
0
0
0
0
2
8
34
38
8
2
13
6
0
0
0
28
17
4
51
12
66
34
0
0
0
0
0
0
117
27
0
0
8
0
0
0
9
1
0
7
69
0
0
0
0
7
1
2
8
0
0
0
142
104
0
0
0
0
0
0
142
49
0
3
29
8
6
12
32
5
2
35
142
33
5
3
13
47
8
12
40
1
0
0
142
61
0
0
0
0
2
16
142
14
0
0
4
55
132
91
10
1
0
4
72
142
142
26
33
9
1
3
12
6
10
28
49
2
0
0
0
3
6
37
9
0
0
0
6
69
77
24
62
3
0
0
0
29
59
29
63
0
0
0
0
0
2
29
